92

4
hnzejTXfQH
cvOC
0
Mhcw6Sm
4 1 3 2
2 1 4 3
4 2 1 3
3 1 4 2
1 4 3 2
4 3 2 1
3 1 4 2
3 2 4 1
3 4 1 2
2 3 1 4
1 3 2 4
2 1 4 3
1 4 2 3
2 3 4 1
4 1 3 2
4 3 1 2
1 4 3 2
3 4 1 2
2 1 4 3
4 3 1 2
3 4 2 1
1 2 4 3
1 3 2 4
4 1 2 3
3 2 4 1
4 2 3 1
1 3 2 4
2 4 1 3
3 4 2 1
2 4 1 3
4 2 1 3
2 4 1 3
1 2 4 3
2 4 3 1
2 4 1 3
3 2 4 1
3 4 1 2
2 1 4 3
2 1 3 4
4 2 3 1
1 4 2 3

17
SELfuh
cm7VS
fDP2pwrYJC
6u
tKyMXPM
BgVvZbx
j
kUQLKM9h0X
IwHtSTfwcB
Ku4no
07ufGm64v2
fmQQJba
O2sbf6WJ0
E2JYs
HhDda
b
z
11 16 10 8 3 9 2 14 7 15 6 13 4 5 17 12 1
8 9 4 7 2 12 10 11 1 15 14 6 3 17 5 16 13
7 2 5 17 15 12 4 1 10 16 8 9 11 3 14 6 13
12 7 16 8 11 3 2 17 15 4 14 9 6 5 13 10 1
13 6 10 12 5 7 11 9 16 15 14 17 4 8 1 2 3
1 11 5 4 9 3 8 15 7 17 2 6 10 13 14 12 16
5 7 1 16 14 13 11 17 8 12 6 10 3 2 15 9 4
16 11 14 8 2 10 13 6 1 15 17 12 7 9 4 3 5
14 10 1 13 6 7 15 16 3 2 9 4 17 8 12 11 5
13 4 9 6 14 10 17 16 7 15 11 5 1 8 3 12 2
4 7 17 15 11 12 8 6 3 1 16 10 13 9 14 2 5
15 9 17 3 7 14 4 2 6 16 1 10 11 8 5 12 13
14 17 3 11 5 12 1 2 9 8 7 15 6 10 16 4 13
3 9 7 8 12 14 13 2 15 10 1 4 16 5 11 17 6
1 15 2 5 8 4 12 16 17 6 10 7 3 11 14 13 9
15 5 16 2 4 8 17 10 12 6 9 13 3 7 11 1 14

9
z9ElTxtq
O5xte0bcgx
c2
WHqIGpTBu
RFl3ou
3VSeyqbr
DeLpFgl4qG
QS0UT
xppRVY3ZVR
3 5 4 8 2 9 1 7 6
1 9 2 6 8 5 7 4 3
9 1 8 6 4 2 3 5 7
6 2 8 1 3 5 4 7 9
2 6 7 1 9 8 3 5 4
3 4 6 2 8 5 9 1 7
3 7 5 6 8 1 2 9 4
5 2 3 1 8 7 9 4 6
7 1 2 8 4 3 6 5 9
3 6 9 2 7 1 4 8 5
7 3 2 9 8 4 5 1 6
7 9 8 1 5 6 3 4 2
4 9 3 6 7 5 2 8 1
3 7 5 1 8 6 4 9 2
2 4 3 1 7 8 9 5 6
7 5 4 8 1 6 2 3 9
8 1 6 7 4 3 9 2 5
6 7 4 1 3 8 9 2 5
5 4 9 7 6 8 1 3 2
9 4 6 1 5 8 3 7 2
6 2 1 4 7 5 9 8 3
4 6 3 2 9 8 1 5 7
8 3 4 5 2 9 1 7 6
9 8 1 5 6 7 2 3 4
7 9 3 2 1 5 8 4 6
4 6 7 5 3 8 1 9 2
9 6 1 5 4 2 8 3 7
8 1 7 9 3 6 2 4 5
3 7 6 5 2 9 4 1 8
8 9 7 2 4 6 5 3 1
9 2 1 4 3 5 6 7 8
6 5 7 2 8 3 9 1 4
9 7 6 5 1 2 3 8 4
5 6 1 7 9 3 2 4 8
9 5 4 6 1 2 7 3 8
2 8 9 3 6 1 4 7 5
9 2 3 7 8 6 4 5 1
7 2 8 5 1 3 6 4 9
1 8 6 3 9 4 7 5 2
2 6 3 7 1 4 8 9 5
9 1 7 6 5 2 8 4 3
7 3 1 9 6 5 2 4 8
5 3 8 1 4 7 6 2 9
1 8 9 5 3 7 6 4 2

20
59SRCR
PLuz
pQ6uhlf1
At1KyE
izo0
4TB5
NHXn
J2v
AKJm34Gob
p
GH4MhtOSwD
rZ4IiIjQs
1l3
gvirg7
Kh
EHI
r8a6mW
tCdaG7H
iWOxee
Ar2H9g
6 4 14 8 17 16 9 1 7 20 11 12 18 2 5 3 15 10 19 13
4 17 10 2 1 18 11 20 6 12 9 19 5 7 16 14 13 15 3 8
4 12 8 6 14 7 2 1 20 18 17 9 3 5 16 15 19 11 10 13
15 13 4 8 16 2 1 17 20 9 14 18 10 5 11 3 12 19 6 7
9 5 3 10 7 11 6 4 19 13 18 2 20 8 1 17 14 12 16 15
12 2 9 15 4 6 17 14 1 10 11 5 19 8 3 18 7 20 16 13
2 15 10 17 7 1 5 4 12 11 3 8 13 16 18 9 20 19 14 6
18 8 5 13 14 19 7 1 20 11 15 17 9 3 4 12 6 10 16 2
5 4 14 11 16 15 1 9 3 2 20 19 8 17 12 6 10 13 7 18
20 18 12 4 5 16 7 13 15 19 3 1 8 14 9 11 17 10 2 6
6 14 12 8 5 1 10 9 15 16 17 19 3 11 4 7 18 2 13 20
8 15 4 10 14 6 19 13 11 18 17 1 7 2 5 3 20 9 12 16
9 8 4 5 2 11 18 7 12 3 1 15 19 17 20 14 16 13 10 6
18 16 14 3 17 6 9 7 10 1 20 13 8 2 11 4 12 15 19 5
6 5 18 1 15 13 8 20 16 11 14 4 17 10 12 2 3 7 9 19
19 8 18 16 5 14 11 2 4 7 17 9 1 10 20 3 12 6 15 13
12 3 16 5 13 2 14 9 7 10 19 15 11 1 18 6 17 20 4 8
5 18 9 4 19 20 14 3 12 2 10 16 13 17 11 15 8 6 1 7
12 10 8 6 19 14 11 5 20 17 9 3 15 4 16 13 7 18 1 2
2 14 10 12 19 1 5 15 17 8 6 13 20 7 3 16 9 4 11 18
15 7 14 6 16 19 12 3 8 20 17 2 9 5 10 11 18 4 13 1
7 14 13 1 19 8 17 10 12 6 5 2 9 20 16 3 11 4 15 18
11 19 18 9 20 16 8 12 17 13 5 3 7 15 4 14 1 6 2 10
7 17 11 3 4 19 15 8 1 12 14 5 9 6 10 18 2 16 13 20
12 5 15 16 4 8 7 6 19 13 2 1 17 3 14 11 18 9 10 20
13 14 19 16 18 10 5 4 9 17 15 2 12 11 7 20 3 6 8 1
7 13 4 3 16 11 20 1 14 9 17 19 18 12 5 10 15 6 8 2
2 10 14 17 4 13 1 11 16 18 12 8 3 6 20 9 5 7 15 19
19 14 5 2 18 17 6 16 3 12 10 11 9 15 7 13 1 4 20 8
9 4 12 5 6 1 10 16 17 18 14 20 8 7 19 11 3 13 15 2
15 3 9 18 7 8 17 5 4 2 12 16 10 20 1 19 6 11 13 14
13 3 1 10 9 7 2 16 19 12 6 14 4 17 5 8 18 11 15 20
19 1 15 9 18 8 7 12 6 11 3 10 20 17 14 4 13 2 5 16
6 9 19 12 3 4 20 10 11 8 18 17 13 7 15 16 1 14 5 2
2 16 9 13 19 20 15 3 6 12 1 5 11 4 18 17 7 14 8 10
11 6 14 17 19 7 18 9 12 2 1 3 20 13 8 4 10 16 5 15

6
sDdJ5
Aic3N5MCRT
B
pAq1ryy
35e
hDGLnEB
1 3 5 6 2 4
1 6 4 2 3 5

2
qqshE32AC
Cg3kDtIE
2 1
2 1
2 1
2 1
2 1
2 1
2 1
1 2
2 1
1 2
2 1
2 1
2 1
2 1
1 2
2 1
1 2
2 1
2 1
1 2
2 1
2 1
2 1
1 2
2 1
1 2
1 2
2 1
2 1
1 2
1 2
1 2
2 1

11
Pj
rqDdkiHg51
2DUkvPn
rAxUcRwdj
GvfbB
cENyywnT
DjG
a
Sakb
Adgo
Hmaas
9 7 2 3 8 5 10 6 1 11 4
7 6 1 9 5 3 8 4 10 11 2
11 8 1 10 5 2 9 4 7 3 6
3 2 6 11 8 5 9 10 4 7 1
8 9 11 1 5 7 3 10 6 4 2
2 11 4 9 5 8 10 6 1 3 7
3 11 1 5 6 8 4 7 10 9 2
9 11 3 7 2 10 6 8 1 4 5
9 10 2 6 3 5 8 1 4 7 11
7 11 8 10 6 2 9 4 3 5 1
11 4 7 2 6 3 9 1 8 10 5
1 10 5 8 11 2 3 6 7 9 4
7 3 10 6 9 8 2 4 1 5 11
4 7 3 10 2 6 1 5 11 9 8
5 6 9 1 8 10 4 3 11 2 7
11 2 5 4 6 8 10 1 9 7 3
1 3 4 11 10 8 9 6 7 2 5
6 7 4 11 3 2 5 1 10 8 9
11 1 8 6 7 2 5 3 9 10 4
9 10 1 5 3 11 4 8 7 2 6
2 3 4 10 1 6 7 5 11 9 8
4 7 5 8 6 2 10 1 11 9 3
3 8 5 2 7 4 11 6 9 10 1
7 5 8 3 10 4 2 1 9 6 11
10 5 6 8 3 9 11 2 4 7 1
8 6 2 1 5 7 10 4 9 11 3
2 1 11 8 9 3 6 5 10 4 7
5 10 6 11 3 1 2 4 8 7 9
3 5 2 10 7 8 6 4 9 1 11
5 1 7 8 3 2 10 4 9 6 11
1 9 8 2 5 11 7 3 6 4 10
10 1 8 2 7 6 5 4 11 9 3

4
Mi02
5Sxuepa
YU3F88jthO
mza
1 3 2 4
3 4 2 1
2 1 3 4
2 1 3 4
3 2 4 1
4 3 1 2
2 4 3 1
1 4 3 2
1 2 3 4
2 3 4 1
4 3 1 2
4 1 3 2
3 4 1 2
3 2 1 4
1 2 4 3
2 1 3 4
1 2 3 4
4 3 2 1
2 3 4 1
2 4 1 3
3 2 1 4
3 1 2 4
1 2 3 4
2 3 4 1
3 2 4 1
4 3 1 2
3 4 2 1
2 3 4 1
1 3 4 2
3 1 4 2
2 1 3 4
1 2 4 3
4 2 1 3
4 1 2 3
2 3 1 4
2 4 1 3
2 1 4 3
1 2 4 3
4 3 2 1
3 4 2 1
4 2 3 1
1 2 3 4

10
ePRuIB34
Ds
baq43
r7Z
YbNt7sdW
diN
DnCtrD58si
Nm
rPPJ6V
NHCb
8 9 4 7 10 6 1 5 2 3
3 2 7 10 4 6 5 1 9 8
8 9 1 2 6 7 10 3 5 4
8 2 7 10 6 5 3 1 9 4
4 10 6 3 1 8 9 7 5 2
7 6 10 5 8 4 2 9 3 1
8 4 3 2 7 6 10 5 9 1
10 1 8 2 5 6 4 7 9 3
3 2 1 8 5 10 7 6 9 4
9 1 10 2 6 8 3 5 4 7
3 9 1 2 4 7 6 10 8 5
8 4 1 6 7 3 9 5 2 10
7 10 2 3 1 6 5 8 4 9
9 4 2 1 10 6 5 8 3 7
10 7 9 8 3 5 4 2 1 6
9 10 8 6 1 3 4 2 5 7
8 4 5 1 6 3 2 9 10 7
1 8 7 9 6 4 2 10 3 5
10 9 2 6 1 8 3 4 7 5
10 8 9 6 5 7 2 1 4 3
3 5 2 4 6 7 8 10 1 9
2 9 8 4 5 7 3 6 1 10
1 2 10 4 3 6 9 8 5 7
10 2 5 4 8 3 6 9 1 7
10 6 7 5 3 4 1 9 2 8
10 3 7 4 9 2 8 6 5 1
1 7 3 10 9 4 5 8 6 2
10 5 8 6 3 9 4 7 2 1
8 2 3 10 1 5 4 9 7 6
7 5 10 4 6 3 9 8 2 1
5 8 3 6 7 2 1 4 10 9
5 2 1 9 10 3 7 4 6 8
7 9 6 8 3 5 4 1 10 2
2 4 8 9 3 7 10 6 5 1
1 7 6 9 4 5 3 2 8 10
2 4 5 6 3 8 1 7 9 10

17
XW9q5
mJ0NG48X
E
aialaTWjs
Q5
XBpZj2SF5
rS
FL
g1Rp
b0
49meFqKdm
e
aqsLM
G0hnAoRdV
A
bMsjqr4ZFz
Fc7
9 7 14 12 11 1 4 6 15 16 8 5 17 10 13 2 3
8 10 3 16 6 11 2 12 15 13 5 1 9 17 7 14 4
16 13 6 1 14 17 5 7 2 9 12 10 11 3 8 4 15

11
pmNSB4
H2bfriT
HBig6Ek
QEo
PeKCfWpd3
oj72eIJ
y06xqGKEV
etN8Y2
eWcqp90X
aAMxwHvluf
gFSHzk1s
6 8 4 5 1 10 11 3 9 7 2
8 1 5 7 2 10 9 4 6 11 3
11 9 10 1 7 4 6 8 5 3 2
5 4 3 10 1 9 6 7 11 8 2
8 2 7 3 10 9 4 6 11 5 1
7 3 5 9 8 1 2 4 11 6 10
11 8 1 5 10 9 4 7 2 6 3
7 10 6 4 3 1 2 8 11 5 9
7 5 10 1 8 4 11 6 9 2 3
11 6 2 8 4 9 3 7 5 1 10
10 3 7 8 2 11 6 9 4 1 5
11 7 2 6 1 5 9 3 10 4 8
9 1 8 3 11 5 2 7 6 10 4
4 10 5 2 6 3 11 8 1 7 9
3 4 11 5 10 2 9 7 6 8 1
6 3 2 8 1 11 10 7 9 5 4
4 3 9 8 5 11 6 1 10 7 2
1 3 2 5 4 7 9 6 8 11 10
3 6 7 8 5 1 11 4 10 9 2
2 7 3 1 4 10 5 6 11 9 8
4 2 3 10 1 7 5 9 6 11 8

5
WQzXvF0Vfe
C
ZqbI4
6ghbjl
jZ8bH
4 1 5 3 2
3 5 2 4 1
5 1 3 4 2
2 5 1 3 4
2 5 4 1 3
2 4 3 1 5
2 3 4 5 1
3 1 5 4 2
2 5 1 3 4
4 5 3 2 1
2 1 4 3 5
5 2 4 3 1
2 3 4 1 5
3 2 1 5 4
3 2 5 1 4
5 2 4 3 1
3 4 1 2 5
1 5 4 2 3
2 1 5 3 4
3 2 4 5 1
3 5 4 1 2
4 5 2 1 3
5 3 4 2 1
1 4 3 5 2
3 1 4 2 5
4 3 1 5 2
3 4 5 2 1
1 5 3 2 4
5 1 2 3 4
2 4 1 5 3
5 1 3 4 2
4 5 2 1 3
4 3 1 5 2
5 2 4 1 3
4 3 1 5 2

8
IcG
YbF7s1
QuQo
KBMobbx
72fTEwAc6d
fYkhJcWT
DNciQ1L6
tIRWF4CfYH
3 6 5 4 7 1 8 2
2 4 8 3 6 1 7 5
1 2 3 7 6 4 8 5
4 7 5 3 6 8 2 1
8 2 3 5 1 6 4 7
1 6 4 5 2 8 3 7
7 5 2 8 6 1 3 4
8 5 7 1 3 4 6 2
8 1 3 2 7 6 5 4
2 8 1 5 4 7 3 6
1 4 2 6 7 5 3 8
6 8 7 3 5 2 1 4
6 3 4 8 7 1 2 5
8 1 3 4 6 5 2 7
4 8 7 5 3 2 6 1
7 1 4 5 2 6 3 8
3 8 5 2 1 4 7 6
5 6 1 7 2 8 3 4
7 6 8 1 5 4 3 2
4 2 8 6 7 5 1 3
5 3 6 4 1 7 2 8
1 6 2 3 8 7 4 5
8 1 3 5 6 2 7 4
6 3 5 7 4 8 1 2
8 5 4 7 1 2 6 3
2 7 3 6 4 8 1 5
3 8 1 5 7 4 2 6

3
RKVz4n
LCXFO
pvdK5pep
2 3 1
3 2 1
2 3 1
2 3 1
1 2 3
1 2 3
3 2 1
2 3 1
2 3 1

5
ey2HT
vGynu
YyGlGSb
PMn
hMp39n8YF
1 3 2 4 5
1 5 2 3 4
2 1 3 5 4
3 5 4 1 2
3 1 4 2 5
3 2 4 1 5
3 4 2 5 1
1 4 3 5 2
4 3 5 1 2
4 1 3 5 2
3 5 2 4 1
1 2 5 4 3
5 2 3 1 4
4 2 3 1 5
2 5 1 4 3
1 4 5 3 2
3 4 2 1 5
2 5 4 1 3
5 3 4 2 1
3 5 1 2 4
1 5 4 2 3
4 1 5 2 3
5 1 2 4 3
1 2 3 5 4
3 5 1 2 4
1 5 3 2 4
3 5 1 2 4
3 2 1 4 5
3 2 1 4 5
1 3 5 4 2
4 1 5 2 3
5 4 1 3 2
3 4 5 1 2
1 4 3 5 2
1 5 2 4 3
5 1 2 3 4
5 3 2 1 4
2 4 5 3 1

13
LUpq
6T
VAWkjte
2
7Y3is1xHyu
7
DOLX
1H1MI
7I7l
YPd3
dbSIbQXH0
QpX9bf
MIUn6kktkE
13 4 10 2 9 8 12 6 11 1 3 5 7
1 6 4 11 9 10 13 12 3 5 7 8 2
6 1 11 2 10 3 5 8 4 7 12 9 13
6 4 8 1 5 2 3 13 9 10 11 12 7
8 4 11 3 6 9 2 13 1 12 7 10 5
10 13 4 9 3 12 11 5 6 1 2 7 8
7 10 9 4 1 8 2 11 13 12 6 3 5
1 6 8 9 3 13 5 11 7 10 12 2 4
12 3 6 1 13 9 7 11 8 5 4 2 10
5 1 6 4 10 2 8 11 9 3 7 12 13
9 5 4 2 13 11 6 7 12 3 1 10 8
2 11 12 1 5 3 9 10 13 6 4 8 7
7 9 2 5 8 11 13 3 6 12 10 1 4
3 6 5 13 7 11 9 8 1 10 2 4 12
12 6 7 4 13 9 11 2 3 10 1 8 5
12 13 3 7 1 5 2 11 10 4 8 6 9
7 9 13 12 2 10 8 6 3 1 4 11 5

12
2MLeXB14X
h
sn4Ycq0
1ndxz
iNGU7vyH
nP1LmLJ
QAhbng
FYg7g1nf
r1Rx
hga
i4DPSR
0MueupZ
8 12 3 7 9 11 4 6 5 1 2 10
7 6 2 3 9 10 1 11 5 8 4 12
3 10 4 1 7 6 5 9 8 11 2 12
9 1 6 3 5 8 12 2 4 7 11 10
11 2 3 6 7 4 12 10 1 9 8 5
8 6 5 1 3 4 10 12 11 2 7 9
8 6 1 9 2 3 10 11 12 4 7 5
3 1 6 4 12 11 8 10 7 5 2 9

6
XIi0
haCL7r
6lk4vCtsP
UUg
9X6dn5mc7
szvynUJa
5 1 4 2 3 6
4 1 5 6 3 2
6 2 5 4 3 1
4 5 6 1 3 2
2 4 5 3 1 6
3 1 6 2 4 5
4 5 2 6 1 3
1 3 4 6 5 2
5 4 6 3 1 2
3 4 1 2 5 6
2 6 1 4 3 5
5 6 1 4 2 3
3 4 1 5 2 6
3 6 2 4 5 1
4 3 2 1 6 5
4 2 3 6 5 1
3 4 5 2 1 6
4 2 5 3 6 1
2 6 1 3 5 4
4 6 3 5 2 1
6 3 2 4 1 5
6 4 3 1 2 5
2 1 3 6 4 5
4 2 1 3 6 5
2 3 5 4 6 1
5 1 6 4 3 2
2 5 3 4 1 6
5 6 1 3 2 4

13
Jny0ceMw
P
sxcZbb
OyapEnu
2ayeK
ExXeV4pK81
lhIsjn4n
6YEWswgJ
Ba
igcXQ
FKnYZd
iiW
Kt
1 13 9 2 11 5 10 8 7 12 3 6 4
8 1 2 11 10 7 12 5 6 3 4 9 13
11 13 10 5 8 3 9 12 7 2 6 4 1
2 4 10 13 1 3 12 11 6 7 9 5 8
7 5 6 13 3 4 8 10 2 1 12 11 9
4 8 11 3 7 13 1 10 12 9 2 5 6
4 13 12 1 5 7 11 8 3 10 9 2 6
3 2 4 12 11 10 9 13 7 6 8 5 1
2 9 5 13 8 3 4 11 7 12 1 10 6
4 7 8 9 5 10 11 2 13 1 3 6 12
11 6 8 1 9 2 5 3 10 13 4 7 12
5 3 12 6 4 10 11 8 13 2 1 7 9
1 10 7 8 2 13 12 5 6 11 4 3 9
7 10 12 11 8 13 1 6 9 2 3 4 5
11 4 12 6 1 3 10 2 8 7 5 13 9
10 7 1 6 4 12 2 13 11 5 8 9 3
6 7 9 12 2 1 8 5 3 4 10 11 13
11 3 4 1 9 2 12 8 10 6 13 5 7
4 2 13 12 11 7 9 6 5 1 10 8 3
3 8 7 13 9 5 12 4 6 1 11 10 2
3 13 10 8 11 5 6 9 1 12 2 4 7
1 10 7 5 11 3 6 2 4 8 12 13 9
11 2 5 13 9 3 1 7 4 8 10 6 12
2 13 6 9 11 3 8 5 7 4 10 12 1
6 5 11 3 8 4 13 12 7 2 1 10 9

16
MEqSJdy8w
qbo
Qt5
Hjpd
WRjvuC
71z7T3d1
mYzOK
3
t2WFy78LBB
1geBsI
Lpi
zkyc
eL1xVkw
r5
ku0MrNYs
2RH
6 12 1 3 9 4 16 8 10 2 7 11 13 14 5 15
6 10 14 15 1 9 16 11 2 3 5 7 8 4 13 12
1 16 12 15 13 6 9 11 7 5 4 10 3 8 14 2
1 9 4 13 16 6 11 3 10 5 15 14 2 12 8 7
4 2 7 1 12 14 15 13 3 9 16 8 6 10 11 5
2 12 3 5 13 16 1 15 11 8 14 7 6 9 10 4
7 12 6 9 15 5 14 8 16 1 10 4 13 3 2 11
6 10 5 16 11 4 8 15 1 2 12 7 3 13 9 14
6 7 12 3 1 14 13 8 10 5 11 2 15 9 16 4
1 7 16 5 2 9 6 14 10 11 4 12 15 8 13 3
12 6 3 15 10 1 13 7 5 16 9 4 2 8 14 11
3 15 1 6 13 16 5 11 8 7 12 9 10 2 4 14
15 9 10 11 7 12 13 3 16 1 4 2 5 6 8 14
10 2 3 8 4 9 12 7 5 13 16 6 11 14 1 15
14 6 3 13 2 12 1 15 9 16 4 10 8 5 11 7
6 15 2 7 12 3 11 8 1 9 5 16 4 10 13 14
4 2 6 1 12 13 7 9 15 11 14 3 8 16 5 10
1 12 5 7 11 3 10 2 6 8 9 16 4 13 15 14
3 9 4 13 16 11 10 7 14 15 1 2 8 6 12 5

19
fzXBnEwb
2Me6Rt
Y1pr
Kg5ffOUnc
eBsrf
fQBmEkUe5
auIuQxQFV
dROAbC
g9k7
vBolxZ
A6VSz
0alFZSOFn
JCZISNL
2
DL
U
jlfDh7f
bB
5QVwr
1 2 16 19 5 13 11 8 15 7 3 18 12 4 14 10 9 17 6
13 12 19 2 1 7 8 6 15 17 3 5 10 9 11 18 14 16 4
14 6 13 11 8 15 7 5 10 9 17 18 19 1 4 2 3 12 16
16 7 3 10 2 13 4 18 6 5 1 15 17 12 8 9 14 19 11
2 8 15 17 18 4 16 3 13 1 10 14 11 19 5 12 7 9 6
17 6 13 7 16 10 15 1 3 18 14 11 2 5 9 4 8 12 19
7 1 6 13 5 17 9 12 4 8 16 3 18 10 19 14 2 15 11
8 13 5 12 15 3 4 7 11 1 18 2 9 19 17 10 14 6 16
10 1 4 9 2 6 5 7 8 19 12 11 17 18 13 16 15 14 3
13 17 5 8 6 4 12 10 1 3 16 11 19 15 9 14 2 7 18
6 18 9 11 13 1 8 17 14 3 4 10 15 16 2 12 19 7 5
1 11 12 3 18 9 10 14 17 13 2 6 7 8 5 19 16 15 4
15 5 19 10 8 1 14 18 4 12 3 16 2 6 17 13 11 7 9
18 13 15 12 16 10 11 4 19 7 8 5 1 3 17 14 2 6 9
7 2 6 4 12 10 14 16 1 17 13 19 15 8 5 9 18 3 11
1 19 8 4 3 15 5 7 14 12 9 17 2 6 10 11 18 13 16
17 2 10 9 16 14 6 7 12 3 8 1 11 15 18 5 19 4 13
7 5 8 4 19 6 13 11 2 9 1 10 12 15 18 17 14 16 3
11 19 8 3 17 6 2 5 15 9 14 10 4 18 13 12 1 16 7
14 19 17 2 11 4 13 3 12 10 15 6 8 7 18 16 9 5 1
18 7 15 12 2 11 13 16 6 8 14 10 9 1 17 19 5 3 4
1 13 14 5 18 4 19 10 16 7 8 2 17 15 11 6 3 9 12
8 19 7 10 5 9 14 16 2 18 15 3 6 13 17 11 4 1 12
17 3 13 9 6 2 11 16 15 8 10 19 7 18 5 14 1 4 12
14 5 19 16 13 6 11 12 3 10 8 18 2 15 7 4 17 1 9
5 2 10 16 19 18 3 6 11 13 1 15 9 14 8 7 4 12 17
13 3 19 5 6 18 2 8 7 16 17 11 4 9 15 10 1 12 14
14 17 5 18 15 11 16 1 13 10 8 12 19 6 2 9 7 4 3
3 5 1 10 16 17 2 19 4 18 15 11 13 7 6 9 8 14 12

15
WFk5
KJgfVL
K
c99AoNe942
p
NI
qJoxFtk
QaabG43ta
vhgvGvY
Vo2MqW
EFwhadN2
kD
QcRaAwWK1v
CDYqC6
sUP4NqYlDt
12 14 11 15 3 1 10 13 9 7 4 2 8 6 5
6 14 3 9 10 1 8 2 11 7 4 12 15 5 13
1 3 4 9 12 7 11 8 2 6 5 14 13 10 15
13 8 11 5 12 3 6 2 14 9 7 15 1 4 10
12 7 1 9 14 15 11 2 13 6 3 10 8 4 5
10 9 6 2 1 3 15 8 11 5 14 7 13 12 4
8 6 15 12 5 11 14 13 3 1 9 7 4 2 10
8 6 5 1 13 14 3 7 11 12 4 10 2 15 9
15 4 2 12 11 14 9 10 5 6 3 7 8 13 1
6 3 7 1 10 11 4 15 13 8 5 9 12 14 2
1 4 3 2 14 6 15 13 12 5 9 8 10 7 11
9 1 3 15 6 10 5 7 8 12 14 4 13 2 11
9 2 15 13 12 11 14 10 6 5 1 7 3 4 8
1 10 11 4 9 14 15 12 5 8 6 3 7 13 2
12 7 11 1 13 9 4 6 5 3 2 10 14 8 15
15 14 10 5 7 12 13 3 6 1 8 11 4 2 9

17
VxJBA8
FL
nZ6pzwj
zUAcpRH
d2bTo
Lwpbqv
kh
wpg
SmDoyb
xSuUxJc
y4UFZ9W
eMJ4
oTJpldHT7
d
zhtO7xbX73
xl0Zj1vll6
E6
8 10 15 14 12 16 11 13 3 17 7 9 6 2 1 5 4
10 7 3 12 17 14 15 16 2 1 13 5 6 4 8 9 11
2 4 9 12 3 1 10 14 11 13 8 17 6 15 7 5 16
5 12 11 9 7 14 2 3 10 17 8 13 4 16 6 1 15
13 4 14 11 12 1 9 10 3 17 15 5 2 6 16 8 7
5 1 11 9 16 4 10 13 12 7 15 17 2 14 3 6 8
15 17 9 16 13 7 4 5 10 3 8 14 6 1 12 11 2
8 5 4 3 11 2 14 16 6 10 1 9 15 7 12 17 13
14 17 10 5 16 11 13 4 15 3 9 1 8 12 7 2 6
14 3 7 4 10 9 8 16 13 6 1 17 2 15 11 5 12
16 12 9 15 2 17 10 6 3 14 1 11 8 7 13 4 5

11
Wj4J
vT0cN6
ZcvOvA2rD
c6jblX9
Xq
DL
8whb
8Q3
xer
volj6BB
ufyZ
2 9 6 10 11 4 1 3 7 8 5
10 11 1 5 7 2 4 8 6 3 9
3 8 11 9 6 4 10 7 1 2 5
2 4 3 1 8 10 7 11 9 5 6
4 7 2 9 11 6 3 1 8 10 5
1 7 5 3 2 11 8 10 6 4 9
6 11 3 2 9 8 10 4 5 7 1
2 6 4 3 8 7 9 5 11 1 10
2 5 8 7 3 4 10 11 9 6 1
7 4 10 5 2 6 8 9 11 1 3
9 11 8 1 2 10 6 3 4 7 5
8 4 9 11 6 1 3 5 10 7 2
2 6 9 5 8 1 3 10 11 4 7
2 8 3 11 9 4 7 6 10 1 5
11 5 6 10 3 8 1 2 4 7 9
3 9 6 11 10 1 4 7 5 2 8
10 6 5 8 4 3 1 7 11 9 2

15
qeNOk3w
FpV13
wC
ygUzsAdE
yCWdCY
xvMb5bZ
KI6xLb38
i1seag
gNxw
YczN
02ODrj
EVsy
f
T8P
W
5 8 6 15 1 14 9 11 7 10 3 4 13 2 12
2 8 4 7 12 14 9 1 5 11 6 3 13 10 15
5 13 6 12 2 10 4 14 1 15 11 8 9 7 3
1 11 15 12 14 3 4 6 2 8 5 7 9 13 10
1 8 7 10 15 4 2 14 6 12 13 9 11 5 3
4 1 12 6 9 14 15 5 13 10 3 2 8 11 7
10 15 1 12 2 11 14 7 6 9 8 3 13 4 5
15 8 5 2 14 10 6 12 1 4 13 3 9 7 11
7 11 8 5 1 9 4 14 6 3 13 12 2 10 15
15 9 13 4 6 7 1 11 2 14 8 5 3 10 12
14 7 15 12 6 4 2 1 5 8 13 3 10 9 11
12 4 10 7 11 13 9 2 6 14 8 5 1 3 15
11 4 1 14 5 8 3 7 12 13 15 6 2 9 10
13 15 2 7 1 10 8 11 9 6 14 5 12 3 4
14 12 10 11 7 15 4 3 1 8 2 9 5 6 13
3 7 5 2 6 8 13 12 1 9 11 15 14 10 4
6 2 3 9 1 8 13 14 12 5 4 7 11 10 15
9 15 1 6 12 5 4 10 13 11 14 3 2 8 7
1 13 5 11 10 8 2 3 9 12 4 7 6 14 15
12 11 15 5 3 9 2 10 4 7 6 13 1 8 14
11 8 3 14 2 1 9 15 4 10 5 12 7 13 6
6 1 5 9 11 10 8 14 7 2 3 4 13 15 12
5 7 12 4 3 14 9 15 6 1 10 11 13 8 2
15 5 7 2 8 1 6 9 10 11 4 14 12 13 3
4 8 6 7 12 14 9 2 15 13 1 10 3 11 5
7 11 13 14 3 10 2 8 4 5 1 15 12 6 9
7 9 12 4 11 13 10 8 1 6 14 5 3 2 15
2 8 3 7 13 15 10 11 4 9 12 1 14 6 5
10 12 6 3 2 14 8 1 15 13 9 4 5 7 11
11 2 7 14 13 8 3 15 6 9 10 4 1 5 12
4 6 8 3 13 14 2 10 11 15 12 1 5 9 7
15 1 12 4 8 14 10 2 7 13 11 9 5 3 6
7 15 5 1 3 11 8 12 9 2 6 4 10 13 14
13 9 1 10 3 8 6 7 2 15 11 14 5 4 12
8 5 3 4 9 10 1 12 15 6 14 7 2 11 13

1
ysNKI31
1
1
1
1
1
1
1
1
1
1
1
1
1
1
1
1
1
1
1
1
1
1
1
1
1
1
1
1
1
1
1
1
1
1
1
1
1
1
1
1
1
1

5
wJTLR
FW
Qnxk3A4
l
mqY1NV
4 5 3 2 1
5 1 4 2 3
2 3 4 5 1
4 5 3 2 1
2 4 3 1 5
3 4 1 2 5
4 1 5 2 3
4 2 3 1 5
2 5 3 4 1
1 3 4 5 2
3 4 5 1 2
4 1 3 2 5
2 1 3 5 4
1 5 2 4 3
2 5 3 4 1
4 1 2 3 5
4 3 2 1 5
5 2 3 4 1
4 3 1 5 2
4 2 3 1 5
2 3 1 4 5
5 2 1 4 3
1 2 4 3 5
2 1 3 4 5
2 3 1 5 4
3 5 1 2 4
3 2 5 1 4
5 4 2 1 3
1 2 3 4 5
4 1 2 5 3
5 2 4 1 3
1 4 2 3 5

16
TvGA6iH
VG
JVJ9cRqNMh
L1Xk7SJw
qscdMArsie
wJmmX4s
bA
yJ4j713D
djic2gkxz2
HD
THk3JuzX5r
quc4SZb
ge
GlL11f7
1e
wB3
16 1 9 5 14 11 2 10 15 8 13 3 12 6 4 7
15 14 6 16 9 12 3 4 5 8 10 11 1 13 7 2
11 14 16 5 10 7 9 3 2 13 6 4 8 1 12 15
9 5 16 14 11 3 13 10 12 6 8 7 1 15 4 2
4 5 14 7 3 10 16 11 15 2 9 1 8 13 6 12
7 5 8 13 15 10 12 3 6 1 4 16 14 2 9 11
2 1 7 9 11 16 15 4 12 14 3 10 6 5 8 13
6 2 15 8 4 7 3 14 11 12 1 5 9 10 16 13
4 10 11 8 2 16 5 9 12 7 6 14 15 13 1 3
7 13 2 1 8 15 12 4 11 16 3 10 14 5 6 9
10 14 4 2 11 9 13 3 8 6 1 12 15 7 16 5
7 5 2 1 8 13 11 15 3 9 16 4 6 12 10 14
3 12 16 5 9 4 2 1 6 13 8 7 10 15 11 14
1 14 2 16 11 15 7 10 4 3 5 12 6 13 9 8
14 3 12 1 2 7 16 9 6 10 5 11 8 4 15 13
2 9 10 8 11 13 16 5 12 7 1 3 4 15 14 6
4 10 15 3 14 16 9 11 5 12 2 8 7 6 13 1
9 4 14 5 11 8 7 16 1 15 3 6 10 12 2 13
9 7 16 14 3 8 5 15 11 12 4 1 2 6 10 13
15 5 6 14 12 9 3 10 7 4 2 13 16 11 1 8
2 1 14 13 8 12 3 15 9 11 7 4 16 6 10 5
8 1 9 3 12 11 5 10 2 7 13 15 16 4 6 14
8 10 11 9 15 12 14 3 7 2 6 4 16 5 13 1
6 5 15 7 1 14 9 12 13 2 4 16 10 3 8 11
9 1 8 13 10 11 7 6 3 2 16 12 15 14 4 5
12 2 10 11 6 9 1 4 3 14 13 15 7 5 8 16
1 3 15 11 9 16 5 14 12 10 7 8 4 2 13 6
2 5 13 6 8 16 14 9 15 4 12 3 1 7 11 10
11 14 2 9 16 10 15 6 7 5 1 3 8 12 4 13
12 5 7 4 11 15 8 14 16 13 1 9 6 2 10 3
6 12 11 14 9 13 3 8 15 2 10 7 1 4 16 5
11 5 10 15 1 8 14 6 7 2 4 3 9 16 13 12
11 6 15 16 9 13 7 5 3 8 12 2 1 4 14 10
2 8 15 1 7 16 3 10 12 11 9 4 5 6 14 13
5 10 12 9 16 1 6 11 3 7 8 15 13 4 2 14
13 10 9 7 4 15 16 6 11 3 2 8 1 14 12 5
7 11 3 9 12 6 10 14 8 15 13 1 2 5 16 4
13 1 12 4 3 15 16 8 14 9 6 7 11 2 10 5
14 8 9 1 11 16 5 10 13 15 12 3 7 6 2 4
9 1 15 7 12 10 2 8 5 13 16 3 4 11 6 14
16 9 15 6 11 14 5 2 3 1 12 13 4 7 8 10
4 5 15 1 8 14 6 12 3 2 9 7 16 10 11 13

14
k
8
6FjS
RVXd41StRA
9365
LN
0m
F
kL
KUtf2Q
4VEE
Welq
f
dH52PQCxa4
14 10 13 3 12 8 1 11 6 9 2 7 4 5
12 7 4 8 5 1 9 6 13 14 10 3 2 11
10 13 14 1 7 6 9 3 4 12 11 2 8 5
7 2 4 5 12 1 11 13 3 14 10 6 8 9
4 5 3 6 13 9 7 2 8 1 14 12 11 10
9 4 12 11 1 13 2 10 3 7 8 14 5 6
4 8 1 7 10 5 6 12 9 3 11 13 14 2
6 1 11 8 10 12 13 7 4 14 9 3 2 5
7 3 9 11 8 6 5 4 13 2 12 10 14 1
1 9 12 2 7 11 13 6 4 14 3 8 10 5
2 7 14 1 13 9 10 8 11 6 4 3 12 5
13 1 3 2 9 4 7 8 10 12 6 14 5 11
8 1 3 10 12 14 4 13 5 9 6 2 7 11
12 4 6 1 10 7 5 14 11 13 9 3 8 2
12 7 5 2 6 9 14 8 3 11 10 1 13 4
14 7 4 11 12 5 6 9 3 8 10 1 13 2
5 1 14 6 10 13 4 7 11 8 9 3 2 12
6 11 2 9 5 14 13 8 3 4 12 7 10 1
14 9 5 13 1 2 12 3 6 11 8 4 7 10
14 5 13 2 10 1 9 12 4 3 8 6 7 11
3 13 2 14 9 7 6 11 8 10 1 5 4 12
6 5 14 13 7 4 8 9 12 10 3 2 11 1
13 8 7 5 6 9 10 3 4 14 11 12 1 2
4 12 3 13 8 10 2 5 14 1 11 6 7 9
8 9 14 3 6 1 10 4 5 11 12 2 7 13
14 8 6 3 13 9 4 10 2 12 11 1 5 7
1 11 5 6 2 3 7 14 13 4 10 9 8 12
12 8 5 2 13 7 14 9 6 3 10 11 4 1
3 14 13 4 2 6 8 12 11 10 1 9 5 7
2 10 3 12 1 5 6 9 13 8 7 11 4 14
1 13 11 12 4 8 5 7 10 3 6 9 2 14
3 9 13 8 2 7 1 6 4 5 12 14 11 10
11 5 1 14 9 2 6 12 8 4 3 13 10 7
3 5 7 10 13 14 4 9 1 8 2 12 11 6
9 3 5 11 1 6 4 10 12 2 8 13 7 14
8 10 12 11 7 9 1 5 14 3 4 2 13 6
14 2 12 9 7 11 1 4 10 6 5 3 13 8
1 7 10 8 4 2 6 9 5 13 11 12 14 3
5 8 11 12 7 9 13 2 4 6 1 10 14 3
11 13 10 6 2 9 3 1 14 12 7 5 4 8
1 10 8 13 9 4 7 14 12 2 3 6 5 11
9 4 13 12 14 3 7 1 8 11 5 2 6 10
12 1 6 4 13 3 10 11 5 2 9 7 8 14
6 3 10 2 8 7 4 5 12 9 1 14 13 11
8 9 3 12 1 2 7 4 13 11 6 5 14 10

1
NJol2ct
1
1
1
1
1
1
1
1
1
1
1
1
1
1
1
1

2
EGtRitqUi
j0O
2 1
1 2
1 2
2 1
1 2
2 1
2 1
1 2
1 2
2 1
2 1
2 1
1 2
2 1
2 1
1 2

7
i
FJ9gkMsbj
S2IK
ua1B6iT
9Q2HWP
Pz8ge21X
4RJ1bLd1jU
3 6 2 5 4 7 1
5 1 2 3 4 7 6
6 1 4 7 2 3 5
7 3 4 6 1 5 2
4 3 6 1 5 7 2
5 4 7 1 6 2 3
2 7 4 6 3 1 5
3 2 6 4 5 1 7
5 7 2 4 6 3 1
7 4 3 5 2 1 6
3 4 7 2 5 6 1
5 1 3 2 4 6 7
6 1 7 4 3 2 5
2 1 5 4 6 3 7
1 6 2 4 5 3 7
1 4 7 6 5 2 3

8
t5Ee
eLodG7n5l
O
duKnZl
jg
QVz39NDt
b83HEjxP
ajoVuR
7 8 3 5 2 4 6 1
1 8 3 2 5 7 4 6
2 6 4 1 7 5 8 3
5 8 7 2 6 3 4 1
8 6 2 5 7 1 3 4

2
2t0VONJHH
J0rxw
2 1

19
Sfx
qCjABGsn38
KITq
XG56sy4rNx
1S9jEOpFGi
6NwHhM
v2HoqZF3q
KaLq
l
1CmXVKXvY
J
EnvrSB
lh
WWb
VzHTy1IBA
PAcBkG2DO
v8YHW7
tdbP
4zOnvmP7D
17 11 15 14 10 5 7 2 8 18 13 3 19 1 12 9 4 16 6
6 12 17 15 1 8 2 13 11 9 16 7 19 10 14 5 4 18 3
19 18 13 14 6 12 15 8 5 4 17 10 16 9 1 11 3 7 2
17 9 8 4 11 2 10 18 6 3 1 14 5 12 15 13 19 16 7
14 12 19 13 16 11 18 4 5 15 9 17 3 8 7 10 2 6 1
12 1 13 18 4 3 5 10 17 19 14 8 7 2 11 16 9 15 6
2 12 11 3 13 4 17 9 6 18 1 8 14 7 16 10 5 15 19
3 6 2 13 4 9 18 14 15 16 10 12 7 5 1 19 11 8 17
8 11 3 9 14 2 7 5 10 6 18 4 17 1 12 16 19 13 15
4 19 2 15 12 7 8 13 9 18 17 14 5 6 10 16 11 1 3
7 17 1 8 10 12 5 4 11 19 16 14 15 13 2 3 9 6 18
18 14 3 12 9 7 8 10 2 15 11 1 6 4 16 13 5 19 17

19
IRegAI
A4
o24TJyvqW
8IG7Baz
pMnMII0r
sDOJ9QBbw
3Wx0Q
Dz
XN
X
OWZVa
dcwWbV2W7
vw
QaEGH
94E
FMdL0
0xlSXs1Xh
Bzz3sG
Jyx
4 7 14 11 6 2 17 13 12 10 1 9 19 16 5 18 8 15 3
8 6 5 14 3 16 12 2 15 19 1 4 11 10 13 18 9 17 7
8 3 17 15 9 19 4 1 13 10 6 2 12 5 7 14 16 11 18
7 14 5 3 10 19 11 2 18 1 17 16 12 9 6 13 15 4 8
9 3 10 12 1 6 14 5 2 18 15 13 17 16 8 11 19 7 4
13 11 19 1 3 15 10 17 6 5 4 9 14 7 12 16 18 8 2
8 10 13 11 14 15 3 16 2 12 7 9 19 5 17 4 18 6 1
2 12 15 13 16 8 18 14 1 4 3 9 6 17 11 5 7 19 10
6 19 3 15 10 18 16 5 4 8 7 17 2 13 9 1 14 11 12
5 19 3 14 11 13 7 17 4 15 8 18 9 1 12 6 10 2 16
4 15 2 1 9 8 16 6 19 12 5 3 13 17 11 18 7 10 14
11 10 15 18 13 14 1 9 17 19 6 7 3 8 2 5 12 4 16
10 19 11 7 17 6 5 8 3 9 16 14 13 12 1 15 4 2 18
17 1 8 14 4 2 5 6 12 3 18 10 11 16 13 9 7 15 19
10 2 16 18 7 19 14 13 3 1 11 8 9 4 15 5 6 17 12
13 19 12 8 17 14 18 9 6 11 2 1 10 15 7 4 3 16 5
2 10 3 11 9 15 7 4 12 19 6 5 17 13 8 16 14 1 18
15 7 1 16 4 5 9 17 14 2 6 13 12 19 10 3 11 18 8
8 13 4 1 5 12 10 17 16 3 2 9 11 7 19 6 15 18 14
5 18 3 7 8 11 16 13 1 10 4 6 15 12 17 14 9 2 19
2 19 1 5 12 14 4 13 3 7 18 17 15 16 9 6 11 10 8
1 18 3 16 15 12 13 9 14 17 8 7 6 11 2 4 10 19 5
9 13 8 1 18 15 16 14 19 7 12 3 17 5 2 4 6 11 10
9 14 16 7 5 2 15 19 1 13 4 10 11 12 6 18 17 8 3
1 13 14 15 12 9 16 6 2 11 19 18 10 17 5 3 7 4 8
4 15 6 3 8 2 16 7 13 12 10 9 5 18 19 14 1 17 11
9 8 16 17 1 12 10 14 11 2 6 18 4 19 15 3 5 13 7
19 9 1 11 14 13 10 2 7 18 15 6 3 16 4 8 5 17 12
16 4 13 19 3 2 6 7 11 15 9 8 10 14 17 5 18 1 12
4 15 7 18 1 3 17 19 10 5 12 2 6 11 8 13 16 9 14

2
fXZw0
YD1yqMR7h
1 2
2 1
1 2
1 2
1 2
1 2
1 2
2 1
2 1
1 2
1 2
2 1
1 2
1 2
1 2
2 1
1 2
1 2
2 1
1 2
2 1
2 1
2 1
1 2
1 2
1 2
1 2
2 1
2 1
1 2
2 1
1 2
1 2
1 2
2 1
1 2

8
Nr1ix
P
v4rRzz
ghbG
YfAupROo5
H3kdJ8uRB
n935
yQzlPVfG
5 3 2 7 4 6 8 1
8 5 2 1 3 7 6 4
1 5 2 3 7 8 6 4
6 5 7 1 3 2 8 4
5 6 7 8 3 4 2 1
6 5 8 7 3 1 2 4
8 7 3 4 1 5 6 2
2 6 8 7 3 1 4 5
7 1 5 6 8 3 4 2
4 8 1 6 2 7 3 5

10
eBvkE
8MRBmYDc
AwY
N4XFHmX
xqhBFe0
DC2lttE
ejA32COdj
J
PMCak9SC
2HfRH
7 8 5 4 1 3 2 10 9 6
4 10 2 7 3 6 8 1 9 5
10 7 8 6 5 2 9 3 4 1
1 3 7 10 2 6 5 8 4 9
3 7 2 1 8 5 6 4 9 10
10 8 4 3 2 5 9 1 7 6
9 5 4 7 10 8 3 6 2 1
8 10 7 2 9 3 5 6 1 4
4 5 2 7 1 8 10 9 6 3
4 7 8 10 6 9 2 1 3 5

10
R5mJKlR0
odQW7
Jr9gLT
PVNH
wnC
SvKhXj
sr9tSBxT
8p9Qqudr
7
Je3x
7 2 10 1 4 3 5 8 9 6
1 10 4 9 5 8 3 7 6 2
5 2 7 4 6 8 1 10 3 9
2 4 10 5 8 9 1 7 6 3
10 1 6 9 3 4 2 7 5 8
6 10 8 3 5 9 4 1 2 7
9 2 1 4 8 5 10 6 3 7
7 2 3 8 6 10 4 5 9 1
10 3 9 5 1 2 8 6 4 7
9 2 7 3 10 6 1 8 5 4
1 7 2 5 8 3 9 10 6 4
3 1 7 9 6 10 5 2 4 8
1 10 6 7 5 2 4 9 3 8
10 6 9 7 8 5 4 1 2 3
1 6 3 4 8 5 10 9 7 2
6 1 10 9 8 5 4 2 3 7
4 9 1 7 6 3 5 2 8 10
7 9 6 10 3 1 5 2 4 8
9 3 10 7 2 4 6 5 1 8
1 6 5 9 10 3 2 8 7 4
4 1 2 3 6 7 10 5 9 8
2 5 3 8 4 10 9 6 1 7
8 6 10 3 4 7 1 5 2 9
6 10 1 2 7 9 5 3 8 4
4 5 2 6 3 9 8 10 7 1
3 1 8 10 5 9 7 2 4 6
9 3 4 2 6 5 10 1 8 7
7 1 5 8 6 3 2 10 9 4
3 9 6 8 5 4 10 7 2 1
7 3 2 5 6 4 1 10 9 8

15
f9
nxHh
vipETRmz
6rS1xHiAR
hzJUvcaE
5sIvuI
EzWgKGjGI
QNT24Rdnx
I
Bt5Sw
jYjNjTM
Gxv
lKaf
UhES9UCRg
xZco8MxjRh
3 15 12 10 1 2 8 14 11 6 5 4 13 9 7
4 14 6 11 15 5 3 8 10 12 13 2 1 9 7
3 7 10 5 2 9 15 4 6 8 11 13 14 1 12
5 12 14 13 3 10 4 6 9 15 1 8 7 11 2
15 6 14 4 11 1 3 10 13 5 7 9 12 2 8
2 5 9 1 7 12 11 3 6 8 14 10 4 15 13
4 12 6 8 3 7 1 9 11 5 10 15 14 2 13
14 1 7 9 8 4 2 6 15 11 3 5 13 10 12
1 6 8 2 12 15 9 4 7 11 14 10 13 5 3
6 2 14 5 7 11 3 10 8 13 9 1 12 15 4
5 9 4 10 2 13 7 12 11 8 14 3 1 15 6
11 13 3 1 4 12 2 9 15 10 14 5 6 8 7
10 1 2 5 11 9 3 15 12 13 6 8 4 7 14
4 14 5 10 11 1 9 2 7 6 13 15 12 8 3
6 10 11 8 14 7 12 3 15 9 5 2 13 4 1
9 10 8 4 3 12 7 5 1 6 15 11 14 2 13
5 14 12 11 6 9 7 4 3 10 1 13 8 2 15
9 3 13 7 5 8 14 6 4 12 10 1 2 15 11
15 12 4 8 3 5 11 2 10 6 1 13 9 14 7
2 9 10 4 13 8 7 12 14 6 1 5 11 15 3
14 9 10 12 11 7 5 1 2 4 15 8 13 3 6
8 9 1 13 5 15 2 6 11 14 7 10 3 12 4
5 14 7 3 8 12 10 1 6 11 9 4 15 2 13
9 1 8 4 10 12 7 6 5 13 15 2 11 14 3
13 12 15 2 4 11 7 3 8 10 9 5 1 6 14
15 5 14 1 9 12 3 2 7 10 8 4 6 13 11
12 15 14 13 11 5 9 1 8 2 3 7 10 6 4
11 5 1 6 4 12 8 9 15 2 3 10 14 7 13
9 5 12 10 6 15 3 2 1 14 8 7 4 13 11
11 2 5 7 8 9 12 3 13 10 14 4 6 1 15
5 12 10 11 6 13 1 14 15 2 4 9 3 7 8
1 13 2 8 7 12 9 10 14 5 15 11 6 4 3
1 11 4 15 3 6 13 7 12 5 2 10 9 8 14
8 3 15 11 2 9 5 12 1 4 13 10 7 14 6
1 9 12 14 6 8 10 11 13 15 2 3 4 5 7
2 11 3 5 7 4 9 13 10 1 15 8 14 6 12
15 12 4 13 2 9 6 10 3 11 8 5 14 7 1
9 4 13 15 7 11 2 10 5 12 8 14 3 1 6
3 4 9 2 10 13 5 15 7 12 14 8 11 6 1
10 15 2 13 6 7 14 5 9 11 12 8 4 3 1
11 2 10 8 7 12 9 13 3 1 14 6 15 4 5
13 5 2 6 9 10 7 1 14 8 12 11 3 15 4
15 2 3 11 8 4 6 7 1 10 14 5 9 12 13

19
nNZkwqp
0WSb0QpJr
es
OlW
m1u2PCI5
5
seT
KTSxZ7o1ca
7VDH
3djQX
k
37Y1PXY
Lfc9bSD4yG
l8rAby9c2
u4GuIR7Iet
aoz6
F85
C784TOsCk
0irYw0u
9 6 8 14 16 18 10 13 4 5 3 2 17 19 15 12 11 1 7
14 9 19 3 2 15 13 12 4 10 17 16 18 7 8 5 6 11 1
14 13 2 11 12 7 15 6 4 1 19 16 10 3 8 17 18 5 9
13 9 14 5 12 16 18 15 19 7 8 2 10 11 6 17 3 1 4
12 1 7 17 16 11 6 4 2 19 10 13 14 15 5 8 18 9 3
8 16 13 5 2 14 19 15 4 3 12 18 6 17 10 1 7 9 11
5 14 7 10 6 2 17 18 11 8 4 15 1 13 3 9 12 19 16
15 6 8 12 17 13 2 5 7 9 1 10 11 4 18 3 16 14 19
2 7 18 3 5 19 17 9 4 13 1 12 10 11 15 14 16 8 6
5 17 14 1 13 6 9 2 3 11 8 19 4 16 10 15 18 12 7
17 5 7 10 4 19 12 15 13 2 18 11 1 16 8 14 9 6 3
14 8 16 1 9 12 13 7 5 19 6 3 15 2 11 4 18 10 17
5 6 10 15 18 8 4 19 17 16 13 9 2 11 3 1 7 14 12
6 15 4 11 19 12 8 9 3 17 5 7 16 13 1 18 14 2 10
19 13 9 4 11 15 2 1 7 17 5 14 10 18 12 16 3 6 8
12 13 19 14 2 11 4 3 6 15 10 7 8 9 17 5 18 1 16
7 4 19 18 3 16 5 13 10 9 8 17 12 15 2 6 1 11 14
18 5 4 10 6 13 2 7 12 16 17 11 1 19 3 8 15 14 9
1 14 15 17 7 3 5 2 10 4 11 18 8 6 16 13 19 12 9
16 9 11 10 13 18 14 6 15 3 17 2 8 12 4 19 1 7 5
7 2 9 13 14 3 10 16 12 6 5 19 11 18 8 17 1 15 4
3 18 12 13 15 16 4 1 17 11 14 9 5 2 7 6 10 8 19
9 2 13 18 3 8 12 7 11 6 14 17 1 4 16 15 5 19 10
11 1 14 9 12 17 5 18 6 3 16 10 8 19 4 13 7 15 2
2 5 11 19 9 8 18 1 10 7 6 13 12 15 3 14 17 16 4
1 6 9 13 14 17 8 3 10 12 4 2 15 16 5 11 18 7 19
16 4 2 1 13 10 3 7 5 11 8 15 9 19 14 12 6 18 17
9 11 13 6 2 18 17 7 14 3 12 5 19 15 1 8 10 16 4
4 11 7 13 2 1 16 18 9 10 3 6 8 12 19 15 5 17 14
8 14 16 7 4 11 5 9 15 1 18 17 2 13 19 3 10 6 12
5 16 9 12 14 15 2 1 8 13 19 6 18 4 17 11 7 10 3

11
6H2lEAD
s
ut
vZwe258
3KOgUi16dw
5gpqyUHa
rt4GhK2
Cf
w2DTU
EfURf5VY
GcXTRbml1
10 8 3 11 4 1 2 7 9 6 5
10 11 7 1 2 8 6 3 9 4 5
4 2 5 3 1 10 6 7 11 9 8
7 8 11 6 1 3 4 9 2 10 5
9 2 10 3 11 5 7 6 8 1 4
6 1 10 3 5 4 11 7 2 8 9
2 4 5 8 10 11 7 1 3 6 9
11 10 9 1 6 7 4 2 3 8 5
5 1 7 6 10 4 8 9 2 11 3
6 8 2 5 10 3 7 11 1 4 9
11 4 2 9 6 10 5 7 1 3 8
6 4 9 2 5 3 11 1 8 7 10
6 4 5 2 1 11 8 9 10 3 7
2 10 11 9 5 7 1 3 8 6 4
3 7 8 1 4 10 9 11 5 6 2
2 11 8 3 4 10 6 9 7 1 5
5 2 11 7 10 1 8 6 9 4 3
11 6 5 4 2 3 9 1 8 10 7
4 7 5 11 3 6 2 10 1 9 8
4 1 11 9 3 7 5 2 10 6 8
10 2 8 11 4 5 6 7 9 3 1
4 3 7 2 5 6 9 8 11 10 1
5 7 2 6 9 8 3 11 10 4 1
1 6 9 7 5 11 10 2 8 4 3
9 3 10 6 8 1 7 5 4 2 11

16
O
qYo
KoXNzaB
0m4z
VNSoXdtCNC
nXXtRahNTM
DAK9Wagfu
iaVh5
092
xWkkJIKP
wrt
mqsSQeqGFy
Ng7xC5yOV5
wW
GWaZ
r
15 1 12 13 11 9 2 14 8 4 7 10 5 3 16 6
8 15 3 11 13 6 9 14 4 7 12 16 1 2 5 10
9 4 2 13 6 5 12 3 15 14 7 1 11 8 16 10
2 11 8 3 9 6 1 7 10 4 15 12 5 16 13 14
5 2 1 10 7 9 12 3 8 11 6 4 13 14 15 16
1 9 2 4 8 3 7 14 16 11 5 10 6 15 13 12
16 13 15 8 14 6 4 12 1 3 11 7 9 5 10 2
10 16 15 13 4 8 9 1 2 11 5 6 7 3 12 14
6 15 4 7 3 12 9 10 5 1 14 11 2 8 13 16
7 2 15 3 5 9 11 13 10 14 8 1 6 4 16 12
13 14 3 16 7 2 12 4 10 11 6 5 9 15 1 8
16 10 13 12 15 8 9 4 3 11 5 7 2 6 14 1
8 15 16 6 10 14 4 3 7 2 1 11 9 12 13 5
7 13 15 6 3 12 4 8 2 1 5 16 10 9 14 11
11 2 14 1 8 5 16 9 13 10 4 15 3 7 6 12
16 10 14 6 5 15 7 12 8 11 1 3 13 9 4 2
1 2 5 9 8 12 16 7 11 14 3 13 10 4 6 15
9 7 3 14 10 5 2 12 16 1 15 13 6 4 8 11
15 12 7 11 9 4 10 8 1 16 13 2 3 14 6 5
8 14 16 5 4 6 9 15 7 1 12 13 10 11 3 2
4 12 11 9 2 8 14 15 16 7 5 3 13 10 1 6
1 4 10 7 8 5 13 3 6 14 16 15 11 2 12 9
14 15 9 7 12 13 8 6 5 10 2 1 4 3 16 11
5 14 3 15 16 7 2 11 8 1 10 13 4 6 9 12
2 14 13 12 9 10 1 4 5 7 15 6 3 8 16 11

8
IGVp
pP8
wkDPM
DNH49VeL
0wMwDq
LWI1HR
n6eu
oKxtRP2
1 6 3 5 7 8 4 2
1 5 2 6 7 4 8 3
5 8 4 3 1 6 2 7
6 3 1 2 5 8 7 4
4 6 7 3 5 8 2 1
1 2 5 4 8 3 7 6
7 8 1 6 3 2 4 5
5 1 6 2 7 4 8 3
1 5 7 6 8 4 2 3

11
Jq0CwG
h8
h0Zmb5
4QoVh2QuC
jG8eeAEGs
vNN
gY
x56
Lkho1U
dczC
nVzm3y
4 5 6 9 7 3 11 1 10 8 2
9 5 4 1 6 2 10 7 8 3 11
10 6 4 7 9 2 5 3 11 1 8
5 3 1 4 10 2 11 7 9 6 8
6 2 3 7 4 9 5 10 11 8 1
6 9 2 5 7 11 1 8 10 3 4
4 1 3 10 5 8 2 9 6 7 11
1 2 11 8 3 5 10 9 6 7 4
3 10 7 8 11 5 2 9 4 1 6
10 9 1 7 3 11 8 6 4 5 2
11 5 2 9 10 8 1 4 7 6 3
8 4 6 11 3 7 10 2 5 1 9
11 3 1 9 2 7 5 10 6 4 8
6 10 4 1 5 2 11 3 7 9 8
3 5 8 11 7 4 6 10 9 1 2
7 2 5 11 4 1 6 9 3 10 8
4 7 8 3 11 6 10 2 9 5 1
8 4 6 7 1 5 11 9 10 3 2
5 2 11 8 9 1 3 10 6 4 7
9 2 4 7 11 6 3 1 8 5 10
3 2 7 8 6 11 1 4 10 5 9
3 10 11 9 4 8 7 6 2 1 5
10 4 1 11 6 3 2 9 5 8 7
5 7 10 6 11 3 8 2 4 1 9
3 2 5 11 9 10 4 7 1 6 8
6 1 4 2 5 11 8 3 10 7 9
7 3 6 11 8 9 1 10 2 4 5
8 11 4 7 10 1 5 6 2 9 3
5 10 1 4 6 3 9 7 2 11 8

6
O
J5ulahf9m
9X
K
Gzv1
fij9ktJa
5 1 3 4 6 2
1 5 6 4 2 3
5 2 3 1 6 4
5 2 3 4 6 1
2 3 5 6 4 1
3 2 1 4 6 5
6 4 5 3 2 1
5 4 3 2 6 1
1 2 4 5 3 6
5 2 1 6 4 3
6 3 5 4 2 1
4 1 5 2 6 3
5 6 4 3 2 1
3 4 5 1 6 2
2 3 4 6 1 5
3 6 2 4 1 5
3 5 2 6 1 4
6 1 3 5 4 2
6 4 5 1 2 3
1 6 3 5 4 2
5 1 2 4 3 6

11
tlq
W
5D6dBewB4
Cn9Cwd
4HA6YhO
ao
tjjfedVNYO
WrlBf
z
oC
Xl0uzA
10 8 4 2 7 1 3 6 9 11 5
10 8 3 5 1 11 9 2 6 7 4
6 3 9 5 10 7 4 11 2 8 1
7 10 4 9 6 5 11 1 8 2 3
5 4 10 3 6 9 1 11 2 8 7
11 2 4 5 9 10 7 3 1 6 8
9 4 1 2 7 11 5 3 8 6 10
4 9 2 7 5 6 10 8 3 1 11
6 1 3 7 9 8 4 11 5 10 2

11
EZzaDBEDzD
5
biFBKtKJ
NTqZ
pva
ei
pZ
5F2m2gi9uQ
fk4g81CX5
Ju7uT3w
NCyRjC57Vr
7 10 8 2 5 6 4 3 9 11 1
1 5 4 2 10 7 3 8 11 9 6
5 3 1 10 4 8 2 6 7 11 9
8 11 6 5 3 4 1 7 10 9 2
6 8 3 1 4 5 10 7 11 9 2
5 11 10 7 6 9 2 3 4 8 1
1 5 11 9 3 4 8 7 6 2 10
2 8 3 4 9 6 10 7 1 5 11
11 4 6 5 1 2 7 10 9 8 3
8 2 5 9 6 11 3 4 1 7 10
8 10 2 7 4 6 1 3 9 11 5
11 2 9 5 7 10 6 3 8 1 4
10 6 1 5 8 2 4 3 7 9 11
6 1 3 9 8 7 10 5 2 4 11
3 11 7 9 5 8 2 6 4 1 10
8 5 11 6 10 9 4 1 3 2 7
7 5 4 1 10 9 3 2 8 6 11
2 1 4 5 11 8 10 3 9 7 6
2 3 11 7 9 8 5 1 6 4 10
8 2 3 11 1 9 6 5 4 7 10
1 5 8 6 9 7 2 10 11 4 3

1
ZYi9ke
1
1
1
1
1
1
1
1
1
1
1
1
1
1
1
1
1
1
1
1
1
1
1
1
1
1
1
1
1
1
1
1
1
1
1

12
9winPjRKkI
HdR
mj7
2lLbxKj
8U7FI3oEdB
XiJsNiPOQ
s0
YW
uTX
Tq
eAGgYITHmK
A2hBu1t
3 2 4 7 9 6 11 5 12 8 10 1
3 8 12 2 7 6 10 4 9 1 5 11
5 2 4 3 6 11 12 10 1 7 8 9
4 11 2 6 9 3 1 7 12 10 5 8
2 3 8 4 9 12 11 6 7 5 10 1
1 8 7 12 5 3 6 2 10 11 9 4
9 5 4 1 7 11 10 8 3 2 6 12
2 3 4 1 5 7 9 12 11 6 8 10
6 11 8 7 9 10 4 5 2 1 3 12
5 1 12 3 11 9 6 7 4 8 2 10
9 6 2 7 12 5 10 11 1 3 8 4
7 4 6 1 9 2 5 12 10 11 8 3
2 8 7 9 1 6 5 3 12 10 11 4
7 12 5 10 6 9 1 3 11 2 8 4
9 2 5 10 4 6 3 11 1 7 12 8
2 5 1 7 11 12 8 4 9 3 10 6
8 3 12 7 4 5 10 6 2 1 9 11
11 5 6 3 2 9 7 4 8 10 1 12
7 12 5 1 3 4 6 8 10 2 11 9
3 6 10 7 2 11 1 8 4 12 9 5
2 10 12 9 11 8 5 3 4 7 6 1
3 11 4 9 1 7 6 10 5 12 8 2
12 1 11 5 7 4 9 2 8 10 6 3

3
hwkzMjW1ew
nuDhGaA
XnRU
1 2 3

8
rbciOwY
g
H5V8gm5mR
lQD
Lokovj
iEqpEHgB
LnxiO9z
qneD3MRjp
3 8 2 1 5 6 7 4
6 2 5 7 1 8 3 4
6 5 8 2 4 3 7 1
2 1 8 4 5 7 3 6
5 3 4 8 6 2 7 1
2 3 7 4 5 6 1 8
1 5 3 8 7 4 6 2
7 4 8 1 3 6 2 5
8 4 2 7 3 1 6 5
2 1 5 3 7 4 8 6
4 2 7 5 1 3 6 8
2 3 6 1 7 5 4 8
6 3 8 4 7 1 5 2
5 7 3 8 1 2 6 4

14
TMBFPj
fU6s2
DUixZUsro
xek
ftPz
OMIEOspI
ZB6bhqg
Y
lE3k1v
L0
HgWjU0bKcV
i
gM
2
9 10 13 2 5 11 4 12 14 6 1 8 3 7
14 8 10 6 13 4 2 5 12 7 9 3 11 1
10 4 3 14 1 8 11 9 13 2 6 5 7 12
3 10 5 14 8 1 11 7 4 2 6 13 9 12
8 2 12 1 14 13 3 5 11 10 4 9 6 7
9 8 1 5 7 12 10 3 14 4 13 2 11 6
3 9 8 4 7 1 13 2 12 11 6 14 10 5

5
XZsJzyWdlF
DQf
qq4zEXoH72
B4
9piFp
1 5 2 3 4
4 2 1 3 5
2 1 3 4 5
5 3 2 4 1
4 2 1 5 3
2 1 4 3 5
5 4 1 2 3
1 4 5 2 3
1 4 3 5 2
3 2 5 4 1
4 1 3 5 2
1 5 3 4 2
1 5 4 2 3
1 5 2 3 4
4 5 1 3 2
3 5 1 4 2
5 3 2 4 1
5 2 4 1 3
5 1 4 2 3
3 5 2 4 1
2 3 4 1 5
5 2 1 3 4
4 3 5 1 2
3 5 4 1 2
4 2 3 5 1
3 2 4 5 1
1 4 3 5 2

5
AcurpqS
NpKARu
a2Y
9s
Vz8gdDrG
3 1 5 2 4
3 4 5 2 1
3 5 4 2 1
4 5 2 3 1
1 5 4 2 3
5 2 3 4 1
2 1 4 3 5
2 4 1 5 3
5 1 2 4 3
3 1 4 2 5
5 4 3 2 1
5 2 1 3 4
3 2 5 1 4
4 1 5 3 2
5 4 3 2 1
1 4 2 3 5
2 1 3 5 4
5 4 3 2 1
5 4 2 1 3
3 2 5 4 1
4 3 5 2 1
4 5 1 2 3
3 4 2 1 5
4 2 1 3 5
5 3 1 2 4
2 4 3 1 5
4 3 5 2 1
4 1 3 2 5
5 3 4 2 1
5 4 3 2 1
1 3 4 2 5
5 3 1 2 4
2 5 3 1 4
1 4 5 3 2
4 1 3 5 2
4 1 2 5 3
3 2 4 1 5
4 5 3 2 1
4 3 1 5 2
3 5 4 2 1
3 2 4 5 1

5
GhGrMFKAz
05O
eDq78hJa
t
N2DXXk
3 2 1 4 5
1 5 4 2 3
4 3 1 2 5
5 1 4 3 2
3 1 4 2 5
5 1 4 3 2
1 4 3 2 5
3 4 2 5 1
2 1 3 5 4
5 3 1 2 4
5 2 1 4 3
1 3 5 4 2
5 3 4 2 1
5 4 3 2 1
3 5 1 2 4
3 4 1 5 2

11
Jr52
ZqJz
BBIrA0
meZ8Xy
m04Y6o6
OHGwD0ScLR
4
bMECUnK
GM7tXEluFR
s
HunQm7B
6 2 9 7 4 1 3 8 11 5 10
4 10 8 3 11 6 2 1 9 7 5
7 3 8 10 11 6 9 5 1 4 2
10 7 2 6 11 4 5 1 8 9 3
4 7 9 3 1 11 2 8 6 5 10
11 8 7 6 4 1 5 2 9 10 3
7 9 8 1 2 10 5 6 3 4 11
6 9 4 8 7 10 1 5 11 2 3
6 7 1 10 9 11 3 2 4 5 8
2 10 1 4 7 3 9 5 6 8 11
8 10 5 2 9 3 6 11 7 1 4
5 6 9 11 3 10 1 2 4 8 7
5 8 4 11 7 3 9 6 1 10 2
3 2 5 4 10 7 6 1 8 11 9
3 10 8 7 9 6 2 5 11 4 1
1 2 6 7 3 11 9 10 5 8 4
7 4 11 6 2 5 8 9 3 1 10
7 3 9 8 1 5 6 10 4 11 2
10 2 8 6 3 9 5 1 11 7 4
9 11 8 1 7 5 3 2 4 6 10
1 5 2 9 3 6 11 7 4 10 8
5 8 6 3 4 11 1 2 10 7 9
1 9 8 7 3 5 4 2 10 11 6
6 4 9 5 11 3 8 7 1 2 10
10 5 6 9 4 7 2 3 1 11 8
1 11 6 7 9 3 8 5 4 2 10
7 5 11 4 1 2 3 9 10 8 6
2 1 9 8 10 7 11 3 4 5 6
7 5 1 2 9 8 10 4 6 11 3

10
ktgMb3
mPQoamedg
4WinxY
tCk4U
0pASU
FIP12pPpxJ
mVxKh
Ic3TbgUrE4
J9Rd5K
nm3UTk4Va
9 3 4 5 6 1 2 7 8 10
10 1 9 5 6 8 3 4 2 7
8 1 4 9 10 7 6 5 3 2
4 6 9 8 5 2 7 3 10 1
3 6 7 9 4 5 8 2 1 10
5 2 4 6 8 10 1 3 9 7
4 8 3 5 2 6 7 10 1 9
9 6 2 1 3 8 10 5 7 4
4 3 8 9 2 10 1 5 6 7
7 8 6 2 1 5 3 10 4 9
4 9 7 2 6 1 8 3 10 5
3 8 5 4 10 2 1 7 6 9
10 4 9 5 3 1 8 6 2 7
4 7 10 9 3 8 6 5 2 1
7 4 6 9 10 3 5 2 1 8
4 5 2 9 10 7 6 1 8 3
4 2 8 6 7 5 3 9 1 10
8 9 1 7 10 3 4 2 6 5
6 8 9 2 3 5 4 7 1 10
8 2 1 5 3 7 10 4 6 9
4 8 7 5 10 3 1 6 9 2
5 9 7 3 1 8 10 6 2 4
6 5 9 4 10 2 7 8 3 1
2 3 1 10 6 8 7 5 9 4
7 1 8 9 4 10 6 3 2 5
4 2 7 8 1 3 9 6 10 5
8 2 5 4 3 10 9 6 1 7
7 6 3 1 9 10 4 2 5 8
1 5 4 8 10 3 6 7 9 2
6 1 7 2 9 4 8 5 10 3
1 2 3 8 4 7 9 10 6 5
8 1 7 4 5 9 10 2 6 3

15
eqLQm2
FOnts7
BSSzB
GkFCh
dd3T
FJ28E
BPKfAYm2G
kbVVUJC
b72e7gAOl
O16PdI
ANvpRQn
pO
kSIiv6uc7
oWlD13
pXHPkq2y
9 14 15 12 7 5 10 2 11 3 8 6 13 1 4
12 7 13 1 3 2 14 10 8 4 9 6 15 11 5
10 1 13 4 15 8 6 14 9 5 2 3 7 12 11
13 8 5 9 2 12 3 7 6 14 11 15 4 1 10
9 12 2 15 8 7 3 10 14 5 1 13 6 11 4
13 3 1 14 12 11 9 15 5 2 8 7 6 10 4
3 7 10 1 2 8 6 14 15 12 11 9 5 13 4
1 14 2 11 15 5 7 9 4 6 13 8 3 10 12
12 11 7 5 13 2 15 14 9 4 8 1 3 6 10
12 15 2 9 14 4 7 13 11 6 8 5 10 3 1
11 12 13 2 8 4 1 5 7 10 14 3 15 6 9
15 10 9 4 8 11 7 3 2 6 12 5 13 1 14
9 2 11 1 3 4 12 7 13 5 10 6 15 14 8
13 14 10 1 11 12 3 8 2 5 6 4 9 15 7
1 12 4 8 9 15 11 3 14 13 6 10 7 5 2
9 8 11 5 14 2 10 6 3 13 15 12 1 4 7
4 10 2 5 12 1 6 7 15 14 3 9 11 13 8
15 12 7 10 1 2 14 6 9 11 13 8 5 4 3
5 15 6 2 13 4 11 14 12 9 1 10 3 7 8
12 8 4 5 13 10 3 6 1 15 14 2 11 9 7
4 5 7 15 8 3 14 9 11 1 2 12 13 6 10
4 8 2 13 15 12 9 10 14 6 7 3 1 5 11
15 10 13 7 3 2 5 12 1 8 4 11 6 9 14
9 8 14 4 7 3 1 2 10 6 13 11 5 12 15

12
pIl76rmBw5
sQ
uETm
Z32
71BO4
8S
IGC
O
DLEdIwaV
Ls
lRxHvhU66U
GN
8 2 11 1 6 7 5 4 9 10 3 12
12 8 10 7 11 2 1 6 5 4 3 9
1 6 4 5 10 2 9 3 8 11 12 7
1 6 2 7 3 9 12 10 11 8 4 5

12
AI
lczWK2u
8Vg0
hcfDdTJzf
lB
fCH3IzZ
iw3AUlaXA
ly32Q
XLAFHui
2tKzOR7d
xfWaQ
EKcUTS
10 7 6 1 9 3 11 8 2 4 12 5
3 6 5 11 1 2 4 7 10 9 8 12
3 6 5 10 9 8 11 2 4 7 12 1
1 2 9 10 6 12 8 11 7 3 4 5
12 1 10 2 6 9 5 8 3 11 4 7
1 5 3 7 9 10 2 8 11 12 4 6
9 1 10 8 6 7 3 2 12 4 11 5
3 5 8 12 11 4 10 2 6 7 9 1
9 6 11 2 5 3 4 1 7 10 12 8
10 5 2 9 3 1 6 8 4 11 12 7
10 6 5 3 8 7 11 9 1 2 4 12
12 6 3 11 8 10 5 9 7 1 2 4
2 6 8 1 12 3 10 4 7 9 5 11
10 7 3 6 1 2 5 8 11 9 12 4
4 1 9 11 12 2 5 10 3 8 7 6
3 9 4 1 7 5 12 2 8 11 10 6
10 8 1 9 4 5 11 2 12 6 7 3
9 7 10 5 3 12 1 8 2 11 4 6
12 5 1 7 10 3 11 4 9 6 2 8
11 6 3 4 2 9 12 10 1 5 8 7
4 7 10 12 3 2 8 11 1 5 9 6
12 8 4 9 3 7 11 2 5 6 10 1
6 1 7 8 4 9 3 10 12 11 5 2
4 2 3 12 10 5 1 7 9 8 11 6
9 3 7 2 5 11 1 10 6 4 12 8
5 7 9 10 12 6 1 3 8 2 4 11
10 3 7 11 9 4 2 5 6 1 12 8
11 7 3 6 1 12 10 8 2 9 5 4

11
j6DAWXP73
1oa8Z
DMA
Yy82EtY
vyk
80
cHb74GxT
REbXQMN
bW0IQxfxa
xvoHqJl8t
mDml5
6 4 2 11 9 7 1 5 8 10 3
11 10 4 5 1 9 2 8 7 6 3
7 9 11 4 2 5 8 1 3 6 10
1 7 2 10 9 3 4 5 11 8 6
2 6 11 9 1 8 5 3 7 4 10
5 11 9 6 4 1 10 7 3 2 8
4 5 10 6 2 1 8 7 11 9 3
4 8 10 9 1 7 3 6 5 2 11
1 10 4 11 7 3 8 5 6 2 9
11 2 3 10 8 4 7 5 6 9 1
4 9 7 8 10 1 5 3 6 11 2
1 6 11 2 10 4 3 9 5 8 7

1
3EOTP60a
1
1
1
1
1
1
1
1
1
1
1
1
1
1
1
1
1

7
nm4jCVSF
ubw5
uf
ey
e
kdk
D4XSsjsr
3 5 7 4 6 2 1
4 2 3 1 7 6 5
4 6 2 1 3 7 5
1 3 7 4 2 6 5
5 4 7 6 3 2 1
6 7 2 3 1 5 4
1 2 7 5 3 6 4
7 3 5 1 2 6 4
5 3 1 7 6 2 4
2 6 1 3 7 5 4
7 2 5 4 3 1 6
2 1 6 7 4 5 3
5 2 4 6 3 1 7
4 2 5 1 7 6 3
6 7 4 1 3 5 2
7 1 2 6 5 3 4
2 6 5 7 1 4 3
3 7 2 4 5 1 6
1 2 6 5 7 3 4
1 6 7 3 2 4 5
2 6 3 7 4 5 1
6 4 5 1 7 2 3
5 2 4 7 3 6 1
3 7 6 2 4 1 5
2 7 3 5 6 4 1
2 1 7 6 3 4 5
5 3 7 6 2 4 1
4 1 6 3 5 7 2
7 5 3 4 2 1 6
5 1 7 3 6 2 4
5 7 2 4 6 1 3
1 4 7 5 6 3 2
3 6 1 4 2 5 7
5 3 6 7 2 1 4
2 6 1 4 5 7 3
4 2 5 1 3 6 7
7 1 4 2 6 5 3
4 1 5 7 2 3 6
6 1 3 4 7 5 2
5 4 2 3 1 6 7
6 5 4 1 7 2 3
1 5 3 4 7 6 2
3 5 4 2 7 6 1
3 6 5 2 4 7 1
5 4 7 1 3 2 6

14
h7RPk5lphn
tGBuVza7
i
Exw
MJN
V
58Cdbiz
7NGoRvXYZ
Ovzo2Qozk
2UN6xh7P
f928
PK
69z05X
rKzRSpKHz
2 14 9 5 11 3 6 13 12 1 4 7 10 8
1 7 4 14 12 6 8 3 13 9 5 2 11 10
9 4 10 7 8 11 5 13 2 14 6 12 3 1
2 10 8 4 9 5 12 1 6 11 13 3 14 7
1 4 2 12 11 7 10 9 13 8 14 6 3 5
6 2 11 12 7 4 13 3 9 8 14 1 5 10
7 13 1 5 9 4 14 6 11 12 8 2 3 10
14 3 10 7 9 2 6 4 12 13 5 8 11 1
12 6 14 4 2 7 10 11 8 13 9 3 1 5
3 8 11 5 6 4 14 1 13 2 10 12 7 9
9 5 6 12 3 8 14 1 2 7 10 11 4 13
1 4 9 2 11 14 5 7 13 8 3 10 6 12
11 9 1 12 14 4 2 7 13 5 6 3 8 10
13 5 9 10 1 14 6 11 8 3 12 4 7 2
3 2 7 1 8 5 9 6 11 10 14 12 13 4
1 7 8 3 10 14 13 5 4 2 11 9 6 12
8 6 9 3 4 1 7 10 5 12 13 14 11 2
3 12 13 4 10 7 9 11 5 8 1 2 14 6
12 13 11 9 14 7 4 1 6 2 8 5 3 10
1 6 10 14 5 11 8 7 2 9 3 12 4 13
11 6 8 10 14 12 13 4 1 5 9 3 7 2
13 12 7 5 14 6 8 4 9 1 2 10 3 11
4 2 12 9 5 13 10 7 1 11 3 8 6 14
6 2 7 14 3 10 12 4 11 5 8 1 13 9
12 2 13 8 10 14 3 5 11 6 9 4 7 1
7 2 9 4 12 11 8 3 1 6 5 14 10 13
5 1 7 12 13 9 4 14 3 6 8 2 11 10
8 6 5 12 4 1 14 2 11 13 10 7 3 9
7 3 2 5 13 4 11 12 6 9 1 10 8 14
12 10 7 1 9 14 11 3 5 13 6 8 4 2
14 4 1 12 9 3 6 13 7 5 10 8 11 2
5 12 10 11 3 1 13 2 14 6 9 7 8 4
3 8 7 12 9 1 4 14 6 5 10 2 11 13

6
q
UjuzpJJ9
7gNV
t9Hrvexb
uhyrCYKxCw
iUW6
2 4 6 1 3 5
1 2 5 4 3 6
3 5 1 6 2 4
1 3 4 6 2 5
2 3 5 4 6 1
4 2 5 3 1 6
6 1 4 3 2 5
2 4 1 6 5 3
5 1 3 2 4 6
3 5 4 1 2 6
2 4 1 5 3 6
5 3 2 6 1 4
2 6 1 3 4 5
2 1 3 6 5 4
4 3 6 5 1 2
5 3 6 2 1 4
6 3 5 2 1 4
5 3 2 1 4 6
2 4 3 1 5 6
3 4 6 2 5 1
4 5 6 1 2 3
5 6 3 1 4 2

10
J3cXYPnws
Smh
ttRYrxPwF
Kmyy
OWxW
9U
Yg
1DxMdmYZ
SYZNcu
D64IAZmp
9 10 3 6 4 7 1 5 2 8

6
862qpz
ut
MqTLz
lKu
VgB
ppmk0aBO4O
2 3 6 1 5 4
4 1 3 2 6 5
2 3 1 5 4 6
1 3 5 4 2 6
6 4 2 5 3 1
5 1 2 6 3 4
6 3 2 4 5 1
3 6 1 2 5 4
4 3 6 1 2 5
4 2 1 6 5 3
5 4 2 3 6 1
2 5 6 4 3 1
5 2 3 6 4 1
3 6 1 4 5 2
5 6 1 4 3 2
3 2 6 1 4 5
1 3 4 5 2 6
4 5 2 3 1 6
3 1 2 6 5 4
2 3 6 4 1 5
5 1 4 2 3 6
1 4 3 2 6 5
2 4 5 3 1 6
1 4 5 3 2 6
3 2 4 5 6 1
4 3 1 6 2 5
4 1 3 2 5 6
4 2 5 3 6 1
6 1 2 3 5 4
2 5 6 1 4 3
6 5 3 1 4 2
5 2 4 1 6 3
1 3 5 4 2 6
1 3 5 2 4 6
6 5 3 1 4 2
3 4 1 5 6 2
2 4 5 3 6 1
2 6 4 3 1 5
3 1 6 5 4 2
3 5 2 1 4 6

7
tH0qCLAL
UxnGqZThcy
qupVeFtEx
w5
FFSFK6
3KhYwlrFY
58FU
1 6 5 3 2 7 4
6 3 2 4 5 1 7
2 1 6 7 3 5 4

4
PT
N3g8
DO
FeVU9rCIU5
1 3 4 2
1 3 2 4
3 2 1 4

10
nQ4hrWAX
Afiv0
Kt23f0B
D2sRcO
AywqjUs68W
Rk7LJUHp5x
uK
csKRGygprq
906Dd
8p9Pb
5 4 2 6 10 3 8 1 9 7
3 7 10 4 9 8 2 5 1 6
9 7 8 5 4 2 1 6 10 3
2 4 8 6 3 1 9 5 10 7
5 8 1 6 3 7 10 2 9 4
4 1 5 7 2 3 6 8 9 10
4 6 1 10 3 2 8 7 5 9
10 4 5 7 2 6 8 1 9 3
2 10 8 7 5 1 9 6 4 3
8 1 5 4 9 3 10 2 7 6
1 4 9 10 6 7 8 2 5 3
8 2 7 10 6 5 3 1 9 4
10 1 4 8 3 6 7 9 2 5
8 7 1 10 9 4 6 3 5 2
4 5 10 9 8 3 6 7 1 2
7 2 8 9 3 1 10 5 6 4
3 9 10 2 5 6 7 8 4 1
1 8 4 7 6 5 2 10 9 3
3 1 2 10 5 8 7 4 9 6
4 6 5 1 2 3 10 9 8 7
4 3 1 5 6 9 7 2 10 8
7 5 6 3 10 4 1 8 2 9
7 2 8 9 10 6 5 3 1 4
7 1 4 6 3 2 5 9 8 10
3 1 10 5 2 4 9 7 8 6
7 6 1 2 4 3 5 8 10 9
9 6 4 1 10 3 8 5 7 2
4 5 7 6 8 1 9 2 3 10
7 5 4 6 9 8 10 1 2 3
9 6 10 4 7 3 2 8 5 1
5 2 3 9 7 10 4 8 1 6
10 6 4 2 1 3 5 8 9 7
8 4 3 9 5 1 2 6 7 10
2 9 3 10 6 8 5 1 7 4

2
ui
xfsm5
2 1
2 1
2 1
2 1
2 1
2 1
2 1
2 1
2 1
1 2
2 1
2 1
1 2
1 2
1 2
2 1
2 1
2 1
1 2
1 2
1 2
2 1
2 1
2 1
1 2
2 1
2 1
1 2

3
2LFmPLT
oQf
J
2 3 1
2 1 3
1 3 2
2 3 1
1 3 2
1 2 3
2 3 1
2 1 3
1 2 3
2 1 3
1 3 2
2 1 3
2 1 3
3 1 2
2 3 1
1 2 3
3 2 1
2 3 1
3 2 1
1 3 2
3 1 2

6
aVln9yc
M0B
F08LkTx
z
46OjXv
b1jzCGVq8
6 1 4 3 2 5
4 3 6 2 5 1
4 2 3 1 6 5
6 4 3 2 1 5
2 6 3 1 4 5
4 3 2 1 5 6
3 2 4 6 1 5
2 3 6 5 1 4
5 2 1 6 4 3
4 5 2 6 3 1
2 1 6 5 4 3
3 5 2 4 6 1
5 6 1 3 4 2
6 2 4 5 3 1
6 2 4 5 3 1
6 3 2 1 5 4
6 3 1 5 2 4
5 6 3 1 2 4
1 6 4 5 3 2
3 2 1 6 4 5
4 1 2 6 3 5
1 6 2 5 4 3
3 6 5 1 4 2

15
WRZxEEV
S2u
taWaNkiiPi
G
L9wW6tPhwu
AQUbwWdMIB
P3
YqXz9Yi1k
CUB2
sb
J7V6uJIrw
f6
Oh9
G1JMpeqLIO
9ASz75AEB
7 13 6 3 8 14 15 4 10 2 9 11 5 12 1
7 10 11 14 3 5 15 2 1 9 13 8 4 12 6
1 11 10 2 12 5 14 9 4 15 3 8 6 13 7
2 13 6 9 8 15 14 10 11 3 7 4 12 5 1
7 12 10 2 8 9 14 3 15 5 1 6 4 13 11
12 1 14 13 11 10 6 2 5 3 4 7 9 15 8
12 14 4 11 6 3 8 5 7 15 13 1 9 10 2
14 6 3 4 13 9 1 2 10 5 15 7 8 12 11
5 8 4 10 6 2 1 13 11 3 9 7 15 12 14
5 13 14 4 8 1 12 2 9 7 15 6 10 11 3
2 5 9 10 3 13 11 15 8 4 1 12 7 6 14
11 15 2 7 5 4 12 9 8 3 6 10 13 1 14
4 5 8 14 2 7 10 6 15 3 13 11 9 12 1
13 1 3 4 10 2 9 11 14 15 5 7 8 6 12
11 14 6 10 7 3 5 8 13 2 15 12 1 4 9
6 11 14 7 13 1 8 2 10 9 4 5 12 3 15
8 6 4 2 1 5 13 10 9 11 3 12 15 14 7
8 11 3 12 14 7 1 9 4 6 2 13 5 15 10
10 11 12 8 5 2 9 3 14 15 7 4 6 1 13
4 8 1 3 10 6 12 14 15 13 2 7 9 11 5
2 10 14 7 6 3 15 12 1 9 5 11 8 4 13

19
pp1q2O
BvOWI0KzU
1sY
IrpOgxrIVJ
6H3uDQQlH
XySgV
hqajM4
Uw2wn
d7zFsmm
rJhf
89ez3K6Y
fj
CmoN
8
7iJTBu51
PAlK267j
dBijsKH
eWd2R
teo7xRUl6U
10 14 7 6 11 4 12 1 5 19 13 9 16 15 8 18 17 2 3
7 3 15 9 2 12 6 19 17 14 1 16 10 18 13 5 8 11 4
19 18 14 16 5 1 7 4 17 10 8 6 15 12 2 9 13 11 3
3 16 7 6 5 4 2 15 12 13 18 10 19 17 1 11 9 8 14
15 6 16 7 2 9 19 4 8 12 17 5 14 1 3 10 11 18 13
13 5 11 19 9 6 8 14 17 16 10 18 1 15 2 7 4 3 12
12 4 14 17 11 15 2 6 19 13 5 1 7 8 16 3 18 10 9
5 16 7 3 18 8 19 11 6 9 12 13 17 2 4 1 14 10 15
1 12 18 19 9 16 10 4 14 8 6 3 11 7 17 13 2 15 5
15 4 5 3 2 7 6 8 1 9 19 13 12 17 14 18 10 11 16
19 12 17 9 1 14 7 6 2 5 16 11 4 10 18 13 3 15 8
5 11 14 12 17 2 3 19 18 9 4 1 7 15 13 10 6 8 16
8 10 13 16 17 6 18 15 3 1 2 5 4 9 19 7 12 11 14
5 9 18 7 13 11 1 3 12 15 14 4 6 8 10 2 17 16 19
1 9 18 16 3 12 6 5 17 13 11 7 19 15 4 8 10 2 14
3 16 8 7 9 12 2 11 6 13 5 17 14 19 15 18 1 4 10
13 16 15 12 19 1 4 18 2 11 7 3 17 5 9 8 6 10 14
8 11 13 7 14 16 1 10 9 6 18 12 15 2 5 17 3 4 19

14
cnNgEFva
6M
EOeN9maxw
9Q
foo8g
a
25dK1J7
PL
b7DzPistC
y1s9o
4
bARh5
5XJyeDz
N
4 13 8 6 14 10 12 5 11 1 2 7 3 9
12 11 6 10 2 14 3 5 1 8 13 9 4 7
11 12 2 1 7 14 4 5 8 10 13 9 3 6
2 14 7 9 1 13 6 10 8 11 4 3 12 5
8 11 2 12 13 1 7 6 4 9 3 10 5 14
4 12 5 3 11 8 6 10 2 1 13 7 9 14
2 9 6 14 3 12 4 8 10 13 1 5 11 7
3 6 8 5 9 12 13 1 10 11 4 14 7 2
7 5 10 6 12 9 3 11 2 14 8 4 1 13
14 3 2 1 12 5 10 6 4 9 13 11 7 8
11 7 8 3 1 2 5 9 6 13 14 10 12 4
4 2 7 5 6 9 1 3 11 14 8 10 13 12
6 12 11 14 13 7 5 4 8 10 1 2 3 9
5 4 14 10 7 9 6 3 8 2 12 11 13 1
5 7 1 9 8 12 13 6 4 11 10 3 2 14
3 10 1 8 9 6 4 7 14 12 13 2 11 5
3 1 5 7 4 8 14 12 10 9 2 6 11 13
8 11 12 10 1 14 9 4 5 3 6 2 7 13
3 14 8 1 7 6 13 12 5 11 9 2 4 10
12 1 10 5 13 8 3 11 7 6 9 14 4 2
9 12 13 2 6 8 14 11 5 4 1 7 3 10
3 9 2 12 11 1 14 7 8 13 10 5 6 4
4 8 10 13 12 7 3 2 9 1 14 6 5 11
12 5 7 4 10 2 13 1 6 8 3 14 9 11
2 8 1 12 4 13 10 6 14 5 3 9 11 7
9 1 5 6 4 12 10 11 8 3 14 13 7 2
10 9 3 11 6 1 4 13 5 8 2 12 7 14
5 4 8 3 11 10 12 6 14 2 9 7 1 13
6 14 1 12 5 8 2 7 13 10 3 4 11 9
8 2 14 3 6 5 4 7 12 10 11 1 9 13
12 8 3 14 6 9 13 5 2 4 7 1 10 11
11 9 5 6 10 1 8 4 14 2 7 3 13 12
12 14 13 7 5 2 9 6 1 4 10 8 11 3
3 9 7 12 6 5 8 10 11 13 14 2 1 4
10 11 12 6 13 4 14 9 8 1 5 7 3 2
8 6 7 5 9 4 13 14 12 10 1 2 11 3
12 8 1 6 5 14 10 2 3 4 9 13 7 11
14 2 13 6 11 3 10 12 5 9 1 7 4 8
8 5 1 6 11 14 10 13 3 9 2 12 7 4
14 5 8 7 13 6 9 12 11 1 3 2 10 4
12 10 9 11 3 7 4 6 8 2 5 14 1 13
10 3 2 13 7 9 8 11 14 5 12 1 6 4
1 13 12 7 10 9 14 5 3 4 6 2 8 11
12 4 3 14 13 1 6 9 2 10 7 11 5 8

9
B
BrHx6gEuDf
9GD
gqQE
CLzwgHIqn
cu7Mrp5j
LY6CELi
hJs
AqMVF
9 4 2 6 1 8 3 5 7
8 7 4 5 1 9 2 6 3
6 2 9 7 4 5 1 8 3
4 2 1 9 5 7 3 6 8
6 5 4 3 1 9 2 8 7
1 3 9 2 5 4 6 8 7
9 4 3 8 2 1 5 6 7

18
e
HCWX6KM
AvI
w
NA5IzGM69
IlTgmC5y
q5d3
OXD5Tsqj
DIo5tjP2Jc
toYpLQs
m
vpwmo
LHkE
A9
e
T2imtP
IfG3OlNH
V
7 10 8 14 4 12 5 1 9 15 3 17 16 11 6 13 18 2
16 4 17 8 9 6 13 7 10 11 18 2 3 1 5 15 14 12
14 1 2 7 9 18 3 12 17 13 11 8 4 15 10 5 6 16
3 9 6 8 13 12 1 10 16 17 7 4 5 15 18 11 14 2
13 18 7 11 12 6 4 15 8 1 3 17 2 9 5 10 14 16

1
XLJ3N9NVLu
1
1
1
1
1
1
1

17
ms9aHtby
wkWesQH
g7IEc1Xai
T
YlCJb
YZ3qPji0SL
RM
9TWncgyF
NhN8E
u
FueM8
pf8Ue
3dsUSZ
8jQ6rb5wR
DB6F0sI0j
XYhf8U
EBhM
4 7 13 16 17 12 11 5 10 8 9 6 2 3 15 1 14
3 6 7 8 12 16 15 2 14 13 11 17 4 10 9 5 1
3 4 1 16 6 10 14 9 17 11 13 12 5 2 8 15 7
5 13 6 9 12 11 1 10 3 17 14 7 16 4 15 2 8
14 10 8 15 9 12 13 6 3 17 5 2 4 16 11 1 7
8 15 3 17 11 12 10 4 14 6 13 16 1 2 9 5 7
5 12 2 8 15 4 14 1 13 10 6 17 11 3 7 9 16
7 4 10 13 5 16 17 14 1 3 8 6 11 15 9 2 12
6 8 10 14 1 2 7 4 16 3 5 9 15 17 11 13 12
1 13 2 10 6 14 15 7 9 16 11 17 8 3 12 4 5
4 16 11 7 14 15 6 17 13 3 8 12 5 10 9 2 1
15 16 6 7 3 8 13 10 11 4 2 17 1 5 9 12 14
3 14 8 9 15 4 7 2 12 10 16 1 6 17 13 5 11
4 2 9 12 1 15 11 16 3 13 10 5 8 17 14 7 6
9 2 6 4 12 7 3 16 15 13 8 10 14 1 11 17 5

3
ma4zT5JDKZ
C4RkJ33GU
F9GDBebMe
2 3 1
1 2 3
2 3 1
1 3 2
1 2 3
2 1 3
1 3 2
1 2 3
3 1 2
1 2 3
3 2 1
3 2 1
2 3 1
1 3 2
2 1 3
1 2 3
1 3 2
1 2 3
3 2 1
1 3 2
3 1 2
2 1 3
1 2 3
3 1 2
1 3 2
2 1 3
3 1 2
3 1 2

10
M0Hb8
P6b3s5x
8SsCSyC
K7Qhc4ri
vivYF1
dz
HG2pnofz
F1
OYgmAx
kIz
6 7 10 2 9 1 3 5 8 4
3 4 2 8 5 7 1 10 9 6
4 2 10 5 7 1 9 6 3 8
9 1 10 4 7 3 8 6 5 2
7 9 5 10 3 1 4 2 6 8
5 10 1 3 7 6 4 2 8 9
1 2 7 10 6 5 4 3 8 9
10 2 6 9 5 1 4 7 3 8
5 9 7 8 4 2 10 1 6 3
8 1 6 10 2 3 7 9 5 4
9 5 1 4 7 2 3 8 6 10
9 1 4 7 6 3 5 8 10 2
6 2 7 5 9 4 8 3 10 1
6 1 7 8 10 5 3 9 2 4
4 9 1 5 6 3 2 8 7 10
3 4 6 8 5 2 9 10 1 7
5 2 3 1 8 9 7 4 6 10
2 10 6 1 5 9 8 3 4 7
6 9 1 5 8 2 10 4 3 7
1 6 2 3 9 7 4 5 10 8
10 3 8 5 2 9 7 1 4 6
6 9 1 5 4 2 10 8 7 3
6 9 1 10 8 3 7 2 5 4
5 8 10 2 6 9 3 7 4 1
2 7 5 10 4 1 9 8 6 3
3 4 10 8 6 7 1 2 5 9
9 8 6 3 1 10 7 5 4 2
2 1 5 4 3 9 8 10 7 6
1 4 9 7 3 10 2 6 5 8
2 5 9 3 6 4 8 10 1 7
2 4 1 6 10 5 9 3 7 8
10 7 2 1 5 4 8 9 3 6
6 2 4 5 1 3 8 7 9 10
7 8 6 5 2 1 10 3 9 4
10 4 8 2 3 1 5 7 9 6
1 7 8 4 9 10 6 5 2 3
3 10 2 6 8 1 9 5 4 7
5 8 4 2 7 10 3 6 1 9
2 8 4 10 9 3 5 6 7 1
2 10 7 4 8 5 1 3 9 6
1 5 8 3 9 6 2 7 10 4
5 6 3 4 7 9 10 8 1 2
1 7 3 4 8 6 2 9 10 5
2 9 5 7 3 10 1 8 4 6

9
71
Zw8qiSY0
wA
Wd
R
dUqXn
nmRf
u
RK
2 5 8 9 4 1 6 7 3
8 5 3 9 1 2 6 7 4
6 1 8 3 4 7 2 5 9
6 7 1 2 3 4 5 9 8
8 2 7 1 6 3 9 5 4
4 7 1 6 8 3 9 5 2
6 9 2 4 5 3 7 1 8
8 4 6 3 5 1 7 9 2
3 8 9 5 1 4 6 2 7
6 2 4 5 9 8 7 1 3
2 7 8 1 5 3 9 4 6
9 3 2 4 1 8 5 6 7

13
Nuy3invfG
9WgxMQ1P
Y
pmbnJ
edb5HMTSa
jbIro
3bsgs05
rKmfidzXC9
gCwyAn
pn3VM
P7wgGQ7sW
F92Fa50wd
XY8Jnt
11 8 2 4 10 7 3 1 9 5 12 13 6
5 12 3 4 11 6 9 1 8 7 13 10 2
5 10 3 6 12 11 1 9 7 13 4 8 2
2 3 10 13 12 8 6 1 11 5 7 4 9
6 3 11 7 10 4 8 2 5 1 13 12 9
13 12 9 8 6 10 4 11 1 2 7 3 5
9 7 11 4 3 6 12 8 5 1 13 10 2
6 13 8 11 1 9 7 12 3 2 10 5 4
2 5 6 13 11 4 10 9 1 7 8 12 3
6 2 13 7 1 5 12 9 11 10 4 3 8
11 6 7 9 10 2 4 5 1 8 13 12 3
11 10 3 12 4 1 6 5 13 2 8 7 9
9 5 13 2 11 7 6 4 1 8 10 3 12

7
dTQi
9V2P
Y
CxE
ZR7fyT
FQI
LaYX4wf
6 4 2 3 1 7 5
3 5 7 2 1 4 6
2 5 7 6 1 4 3
6 4 5 3 7 1 2
2 6 3 5 7 1 4
2 6 7 1 4 3 5
3 1 5 2 6 7 4

6
W8SdjgKfEJ
YWOT
WRRFCL
OXJVh
D
b3X
3 1 6 2 5 4
1 3 6 2 4 5
3 6 4 1 5 2
3 5 2 4 1 6
1 4 2 5 3 6
6 4 3 1 5 2
1 6 5 3 4 2
2 1 5 4 3 6
4 1 5 6 3 2
4 3 2 1 6 5
2 5 3 6 1 4
5 3 1 4 6 2
6 2 4 3 5 1
2 1 3 4 5 6
6 1 3 4 5 2
1 2 6 5 4 3
4 6 1 5 2 3
1 3 5 6 4 2
3 6 5 2 4 1
2 6 4 1 3 5
4 5 6 3 2 1
5 1 6 4 3 2
1 5 4 2 6 3
4 6 1 5 2 3
5 1 3 6 4 2
6 4 2 1 3 5
3 5 4 1 6 2
5 3 1 6 4 2
2 4 1 6 3 5
5 4 3 2 1 6

6
pCwrMib0rL
WCldfDWEP
e
YhKarfLdk
Km
RWAR5Y5V
5 6 2 3 1 4
3 1 2 5 6 4
2 1 5 3 6 4
3 5 6 2 1 4
3 2 6 5 1 4
5 4 6 2 3 1
1 4 3 2 6 5
5 6 3 4 2 1
2 4 5 3 1 6
6 1 3 4 5 2
2 3 6 1 5 4
6 5 2 1 3 4
4 3 1 2 6 5
1 2 4 3 6 5
3 2 1 5 6 4
6 4 5 3 1 2
4 2 1 5 3 6
5 6 2 4 1 3
6 1 4 5 3 2
2 5 6 3 4 1
1 5 3 4 6 2
3 1 6 4 2 5
6 3 5 1 4 2
4 1 3 2 5 6
4 3 1 6 5 2
1 6 5 2 3 4
3 6 2 1 5 4
2 1 6 4 3 5
3 2 1 5 6 4
6 3 4 5 1 2
5 4 6 3 1 2
2 4 6 1 5 3
5 4 1 3 2 6
5 1 6 4 2 3
2 1 5 6 4 3
4 1 2 3 6 5
4 1 5 2 6 3
6 1 5 3 4 2
6 3 5 4 2 1
6 4 3 2 1 5
5 6 2 4 1 3
2 6 5 3 4 1

2
nGWjtE
SY3CPiZ
2 1
1 2
2 1
2 1
1 2
1 2
1 2
2 1
1 2
2 1
2 1
2 1
2 1
2 1
2 1
2 1
2 1
2 1
1 2
2 1
2 1
1 2
1 2
2 1
1 2
2 1
2 1
2 1
2 1
1 2
2 1
2 1
1 2
1 2
1 2
2 1
1 2
2 1
1 2

15
2J
A71tb
iODh
JPlOy
EC
CbY
vIflDXh
Pn87s3uiJ
A
fe
1MzYK7JQo
t
dZxwDk9IDC
IwPk
U
11 15 8 4 2 6 13 3 1 12 7 9 5 10 14
4 11 3 13 15 12 7 5 10 14 1 6 2 9 8
3 13 2 5 8 6 1 10 15 4 12 9 7 14 11
10 14 13 11 1 2 6 15 4 9 7 8 5 3 12
11 14 15 1 5 12 4 13 6 8 2 10 9 7 3
8 7 2 13 9 14 15 10 6 1 3 11 4 5 12
3 9 13 8 5 2 7 10 14 4 11 1 15 6 12
2 5 3 1 11 8 15 10 9 14 12 13 6 7 4
14 5 12 15 1 11 9 2 4 13 8 7 3 6 10
9 7 14 10 6 2 3 8 15 13 1 11 4 12 5
13 14 15 4 5 2 1 12 11 3 8 10 9 7 6
7 3 2 11 4 12 6 8 13 5 14 1 15 10 9
12 11 3 2 1 14 15 6 5 8 9 10 4 7 13
10 3 6 5 12 2 9 14 1 15 11 4 8 7 13
9 1 6 13 10 5 3 8 12 7 2 11 4 15 14
8 9 12 10 7 14 4 11 13 6 5 15 3 2 1
11 9 1 13 3 7 8 14 4 2 15 10 12 6 5
14 12 1 7 9 8 6 2 11 3 13 10 4 15 5
11 3 2 15 14 9 6 7 12 10 8 5 4 1 13
10 15 4 12 14 6 5 1 2 8 3 13 9 7 11
9 10 13 1 12 2 7 11 3 14 5 8 6 15 4
13 9 11 2 4 5 10 6 1 14 15 7 8 3 12
8 10 13 7 1 12 11 6 14 5 3 4 9 15 2
1 2 8 7 3 15 9 4 13 12 5 11 14 6 10
8 11 10 5 15 1 14 7 12 4 3 6 2 13 9
14 1 15 2 6 4 12 10 7 3 5 9 8 13 11
14 7 13 9 15 2 12 6 8 10 4 1 5 11 3
3 10 11 8 5 2 13 6 12 9 7 15 14 1 4
15 8 5 3 2 13 1 6 12 4 14 11 9 7 10
1 3 4 5 8 6 15 11 7 10 12 14 2 9 13
4 10 9 5 8 3 14 12 7 15 13 2 6 1 11
9 13 2 8 4 11 10 15 14 7 12 1 5 6 3
4 11 2 7 1 12 15 14 10 13 6 3 8 9 5
13 7 6 14 12 4 9 11 5 10 8 2 15 3 1
2 5 6 9 1 13 8 10 3 11 14 4 12 7 15
12 13 7 4 1 2 5 8 14 6 3 9 11 15 10
3 12 15 9 2 11 13 5 6 10 4 7 1 14 8
13 15 14 6 12 10 2 5 11 9 3 4 1 8 7
13 1 12 3 6 9 8 10 7 14 5 2 4 15 11
15 2 3 9 1 10 7 4 8 13 12 5 6 14 11
1 4 15 10 9 12 14 7 5 8 2 11 3 6 13

19
mSemO
h0XvvA
hWR7p
6zv0nAxxbN
CB9
Z
gr
fk9K
AIsoa7RAoa
wVmhV0rRh
0Olq
45fHn
ck
W3sRN
MqgR7
TqtVcPR7m
rh
BYzm
xEmaDBb
11 3 2 5 1 8 6 16 15 9 4 7 18 10 12 14 19 13 17
3 18 7 11 14 2 13 12 16 10 15 1 9 19 4 17 5 8 6
11 5 9 3 19 1 2 12 18 4 17 16 15 7 8 6 10 14 13
7 1 14 5 11 10 17 6 9 8 3 4 15 2 12 16 19 13 18
16 15 18 9 11 3 17 12 1 14 2 19 6 7 4 5 13 8 10
18 10 16 2 15 7 17 9 8 11 4 14 6 12 3 19 5 13 1
10 7 11 2 6 4 5 1 18 14 16 19 15 3 9 12 13 17 8
6 13 5 1 11 14 10 4 17 7 8 19 2 18 9 15 16 12 3
10 3 5 16 8 9 17 1 14 2 15 19 6 13 12 18 7 11 4
5 4 9 7 10 1 13 17 8 19 3 2 15 16 18 11 12 6 14
19 10 11 4 7 17 14 9 12 8 2 15 6 3 13 18 1 16 5
19 5 15 16 3 8 10 12 9 17 13 14 1 6 4 18 2 11 7
8 4 14 19 12 16 17 6 11 10 15 2 5 18 13 3 7 1 9
6 11 12 13 7 3 8 16 4 2 19 18 17 15 9 10 5 1 14
9 17 11 3 10 19 13 5 15 4 7 18 14 8 1 16 12 6 2
5 17 12 8 10 6 2 16 9 3 7 1 19 4 18 13 15 14 11
11 12 1 8 4 15 18 13 10 5 2 19 17 6 7 16 9 3 14
5 3 1 2 8 13 15 11 6 18 12 10 17 9 16 14 19 7 4
4 8 11 13 2 15 6 16 9 3 18 17 14 10 7 12 19 1 5
2 17 16 14 3 13 5 6 9 18 15 7 4 1 8 11 10 19 12
19 7 4 12 3 17 18 10 9 1 5 13 11 2 8 15 14 16 6
19 18 8 16 5 1 11 12 17 7 4 9 10 15 3 6 14 13 2
18 17 15 1 10 13 3 19 7 11 12 4 5 8 16 9 2 14 6
