tbDsgOR7-37529038

Q8hUpE9r-01063481

f69UkZse-23330281

PXwPPRc9-81464923

LdhI7brY-04857673

PkXO7ZWZ-00250622

naI3SYxt-98807615

M1xrqG7O-09686295

3GsnRPsL-71619803

UZsA77O_-75581598

SJ_eLpVb-81496771

i5V8psUh-01837213

mFCIzfF8-60508688

0vORCuvB-24288426

ITueP_19-32966299

g8hkp6FZ-66967382

JOfSo10a-33276210

WPMP_Wiz-17646716

yTzu1Vm_-53464816

ovzOpicI-91374566
mbmEdYwV-33573993

RdFXAS2i-78675701

CHAMbiGt-78335315

shXqtfCh-63392759
YIxI2YZw-22858246
WTqJbO28-45910388

EpCxinZ4-79453095

LMynBUYa-17520836

i7M7CWGu-75199610
sB9Krr9z-55487474

90Z5JoWc-28815207

vxXG8zG8-79873174

6Ay2WXvK-85866734

uXOok48Y-96651729

cDGErDYf-97769420

0jDWHhAO-81794379

ClDowE3J-19660210
hw4Uzt9P-40154916

D5RwRhQG-13797436

wpkGGZw4-35010410

RWASYEZS-98770580

XXJVLwcv-24178630

6hHEsk3A-44771233

TTlmmbxX-23872067

7sJ9mqn2-98458739

ZYqFbWy_-74045943

trLb2dYz-03158611

uq0FNFLm-76720054
_BQ0v3oL-11686481

5WpmZ1Zs-94100391

dZPv5jqO-61522512
qEqAyfax-80651343
ySTimi3u-42849712

EMfJ6bBI-12997554

iONhgT_l-10797657

YIBm2YU2-90672897
qvekS7io-97972764

Z2kvbhwg-14403434

1bDVMwFC-47678286

cLWgBKdf-31167545

P7Z7tE1O-03769450

VG0GBnjd-04627742

4AWkqdxp-46835223

hO8i_URz-11489728

BkrkGBxj-82219062

6Y4XZ5X_-10982211

x2yT07Q0-85846611

1yjHHVgo-33722699

KBFJbTkh-74428314

A2bBu1ig-93038334

JQSEiUA9-63360280

YLISI_jv-33728390

UDxwCnwa-33916170

keKSuzW5-18304749

Nz_S5Fj_-70698454

RorqtDPj-90209867

AEPry52u-13047699

tiQ2r8yl-94631697

yZwKun4C-84576226

wS3b9Tmo-82563870

BIMLiNlK-96747183

UB04DEnS-54322018

EhxyNlJ1-93991672

fIHPAEvz-27441597

0981sd7g-61755801

87WvRTkw-08748545

nXWXjoIH-73042588
KXtTo6KK-34216954

BOtmgQiH-62598067

VclEsYNG-60823585

YYg7dwBQ-89488885

hwLVc3Z5-47767936

vlUQSpco-79040352

ERo4rrnO-83096753

kVANn8Gc-47888792
