85

10
/Z+>
,|&|gI
_5=xvg
lsOM@XQVb 
P7DD/
cK
P
b_h5)q8=
d
/&Oxs!myo@
7 2 3 8 5 10 6 1 9 4
10 5 9 2 8 1 4 3 7 6
10 8 5 4 9 1 6 7 2 3
7 9 10 3 8 4 5 6 2 1
2 1 8 6 4 3 5 9 10 7
2 10 9 4 8 5 3 7 6 1
6 8 3 1 2 5 10 4 7 9
9 6 7 8 5 3 4 1 10 2
7 6 8 1 2 5 10 4 3 9
9 1 8 2 10 7 4 5 3 6
1 10 8 4 5 2 3 9 7 6
9 6 2 8 10 3 1 5 4 7
7 4 1 3 8 10 5 6 2 9
6 4 2 5 8 1 3 9 7 10
8 2 7 9 1 10 5 6 3 4
4 1 5 7 10 6 8 9 3 2
5 10 9 8 3 1 2 7 6 4
10 7 9 6 4 2 5 1 3 8
5 6 9 8 10 7 3 1 4 2
4 2 5 3 10 7 6 1 8 9
8 6 10 4 1 2 9 7 5 3
10 2 9 7 1 3 8 4 5 6
6 2 9 10 4 8 7 3 5 1
7 8 1 2 9 10 6 5 3 4
2 7 10 9 1 4 6 3 8 5
1 4 7 8 2 3 10 6 9 5
4 9 10 7 6 8 1 2 3 5
8 4 10 3 5 1 2 7 9 6
5 9 6 10 1 7 3 8 2 4
2 10 7 9 6 1 5 3 8 4
7 5 3 4 8 1 2 9 10 6
8 6 10 7 1 9 3 4 2 5
2 8 10 4 5 9 1 7 3 6
7 8 5 6 3 9 1 4 2 10
6 2 10 7 5 9 1 4 3 8

11
ad
MO
:uC
*fS<f(
;sLYSrRAD{
wT]&V7
H26Z Bn>D'
]ZC-O=*8
T]l:G\E9
9tYDDyn3J{
-Pp
5 3 7 2 1 11 8 4 6 10 9
10 4 3 6 1 2 11 9 8 5 7
9 11 1 5 6 8 2 4 3 7 10
2 11 1 8 3 6 4 7 9 10 5
10 2 11 6 1 3 9 5 8 4 7
9 8 4 1 2 10 5 6 3 7 11
6 8 7 5 11 1 9 10 4 3 2
8 1 7 4 10 3 9 2 5 6 11
3 5 9 1 4 7 10 2 8 11 6
9 5 3 8 6 7 2 10 11 4 1
3 9 6 5 8 10 2 11 7 1 4
7 11 3 9 4 5 10 6 1 8 2
2 6 7 5 4 1 10 8 9 11 3
4 11 9 6 1 3 2 7 10 8 5
11 9 1 10 8 4 5 3 2 7 6
2 1 4 5 7 11 10 9 3 6 8
5 6 7 4 8 1 2 3 10 11 9
4 1 3 9 6 11 10 2 8 7 5
2 5 1 10 6 11 4 3 7 9 8
8 7 3 1 4 5 11 2 6 9 10
10 5 2 11 3 7 4 9 8 1 6
7 2 10 3 9 4 1 11 5 6 8
9 7 11 2 3 1 6 10 4 8 5
11 7 3 1 8 5 10 4 2 9 6
11 8 10 5 4 7 2 1 9 3 6
8 2 3 9 1 7 10 5 6 4 11
11 1 10 7 2 4 5 3 8 6 9
9 8 6 4 7 11 3 5 10 1 2
6 10 7 5 8 4 3 11 9 1 2
8 11 3 1 5 9 4 7 2 6 10
1 7 9 3 4 11 10 2 6 8 5
3 8 9 6 4 2 10 5 7 11 1
7 2 6 10 8 5 3 9 11 4 1
3 4 9 7 6 5 11 2 1 10 8
5 9 3 10 1 4 7 11 2 6 8
9 5 1 8 6 7 3 4 10 2 11
8 9 2 7 5 6 4 1 11 10 3
1 7 10 3 11 5 6 2 9 4 8
3 5 8 7 11 10 9 6 2 1 4
4 9 7 6 8 10 11 5 3 1 2
3 1 4 9 5 6 2 10 8 11 7
9 1 10 2 4 11 7 8 3 6 5
9 11 1 4 7 10 3 8 6 2 5

12
E><%CVZ
rPuLiKMnz
&")WnUW_dK
w3gCD@
_'Q=wv
XQHdDh{iZ
u
=&
kW.Fc!//
`&R^j
jG_E|m3oG
.
8 10 6 2 4 12 1 3 9 11 5 7
7 11 12 4 5 6 9 3 8 1 10 2
8 10 7 6 3 1 9 12 5 11 4 2
2 3 9 12 8 4 1 11 5 7 10 6
4 10 2 11 7 6 1 8 12 9 5 3
11 4 10 8 7 2 12 3 6 9 5 1
6 12 7 8 2 5 4 11 10 1 9 3
11 5 2 6 10 3 9 7 12 4 8 1
10 3 12 11 7 4 8 9 1 2 5 6
9 4 11 10 8 6 12 3 5 1 2 7

16
`=NuCiLg-
@JflZlx
<9
K6GP)?qi8e
R@9QypW
d
5Cp
ht@Z
|%`
 +
O1w0c:18
\B'
xcgS&!
(Oc`7Zz+
~Oc
 Dmo*vO
2 10 12 14 3 16 6 13 11 1 9 15 4 8 7 5
12 1 11 3 15 14 9 2 16 4 10 8 7 13 6 5
10 2 14 13 5 8 6 7 11 16 9 12 1 3 4 15
9 3 1 15 6 5 4 12 11 10 14 13 8 16 7 2
14 12 15 5 16 11 7 9 10 13 8 3 6 4 2 1
7 13 11 15 2 1 14 6 16 3 4 10 5 12 9 8
14 11 4 8 16 2 12 9 3 13 6 5 1 10 7 15
16 2 10 4 3 6 15 11 7 13 8 12 14 1 5 9
4 8 16 15 12 6 3 2 5 13 1 10 9 14 7 11
13 3 5 10 7 8 2 9 15 16 4 12 14 6 1 11
13 6 16 14 4 9 5 2 12 8 7 11 1 10 15 3
2 3 8 6 16 1 5 4 15 11 7 13 14 9 10 12
6 7 2 10 12 16 8 11 1 4 3 9 13 14 5 15
16 13 10 7 9 14 11 8 1 15 5 12 4 3 6 2
1 8 4 13 9 6 14 11 5 12 15 3 10 2 16 7
11 5 16 6 4 15 10 7 9 14 1 2 8 13 12 3
7 15 13 8 12 1 4 11 14 16 10 2 9 6 5 3
14 11 7 13 4 6 10 16 2 9 12 3 8 15 5 1
5 8 9 6 10 2 15 11 13 7 14 12 1 4 16 3
4 8 11 1 7 3 5 9 12 14 15 13 16 6 10 2
8 7 1 16 5 4 6 12 3 14 11 2 13 9 10 15
16 10 9 1 12 14 2 11 7 3 13 15 5 4 8 6
15 1 14 9 10 16 13 11 7 5 4 2 3 8 12 6
6 15 14 4 2 8 7 10 12 5 3 1 13 11 16 9
8 1 12 5 14 2 11 10 7 4 13 16 3 6 15 9
1 5 13 12 6 14 9 2 7 8 4 10 11 16 15 3
2 13 14 4 11 15 12 3 8 10 9 5 7 6 16 1
15 11 2 6 12 8 13 1 9 4 10 5 14 16 7 3
8 3 11 15 5 12 7 13 4 14 6 2 10 1 16 9
13 6 10 11 1 15 3 5 2 12 9 4 16 8 7 14
5 9 15 7 1 12 16 11 13 3 2 8 4 14 10 6
3 4 10 2 5 11 1 13 8 9 12 15 14 16 7 6
14 13 10 1 4 16 9 3 15 12 8 11 2 7 5 6
9 11 8 14 16 5 7 4 3 6 13 2 15 1 12 10

3
p?'.Td|
'L7q,SSIz<
Dq9+Q
3 1 2
3 2 1
3 1 2
1 2 3
2 1 3
2 3 1
1 3 2

13
yK\Hy!+KD0
YRv
H_ZD|:^
Vo$C
!u
$3>X
^C
@)i"Ew1Vl
:<J
C<9xi_rx
LN:H?c;
5s
LlLU6I_
6 8 9 5 7 1 12 10 4 3 2 13 11
5 6 3 10 4 1 2 7 11 8 12 9 13
12 7 8 4 1 13 11 9 5 10 6 3 2
2 5 9 12 4 1 7 10 13 6 8 11 3
2 10 9 7 13 11 5 3 1 4 12 8 6
11 6 8 9 10 2 3 13 12 4 1 7 5
12 3 11 7 5 10 13 9 6 4 2 1 8
13 10 6 1 3 4 5 8 2 7 11 9 12
5 6 12 10 1 11 9 8 13 4 7 3 2
7 8 11 10 2 9 6 3 1 12 13 4 5
1 6 3 12 5 8 11 7 10 4 9 2 13
2 9 1 4 3 7 11 12 10 8 13 5 6
8 13 12 1 3 9 10 6 5 2 4 7 11

7
D{^gb
bEj"r
U-l~m:o7&=
eOLQ=A
tPM;b
a.-DjiG
I
6 1 3 7 4 5 2
4 3 5 7 6 1 2
1 7 6 3 4 2 5
4 3 6 7 5 2 1
4 3 1 7 5 2 6
1 6 7 4 2 3 5
3 7 6 4 1 5 2
2 1 5 7 4 3 6
3 4 7 5 1 6 2
5 1 4 2 7 6 3

12
0&Q5=K}
/~N[-"]
WN
w|xC_tl4k
Esb
hOt+|1
%^i`t
GNJrh
uF]*bD,
 P7?Q
`(5cY!'D
^n'~:Vb 
1 12 7 11 8 6 5 4 2 10 3 9
2 5 6 10 11 7 8 1 9 4 12 3
5 4 10 12 1 3 2 8 11 9 6 7
10 3 9 7 6 11 8 2 12 5 1 4
5 6 2 4 9 11 8 12 3 1 7 10
5 3 9 8 10 7 12 2 1 4 6 11
10 3 5 1 12 9 2 8 7 4 6 11
12 7 5 4 1 8 9 6 3 2 10 11
5 9 3 12 11 7 6 1 4 8 10 2
8 7 11 6 4 3 5 10 12 2 9 1
9 3 10 11 5 1 4 6 8 7 2 12
6 5 1 11 4 7 10 9 8 12 3 2
5 10 9 8 4 12 11 7 1 2 6 3
8 7 12 2 5 1 10 4 6 11 3 9
10 4 1 8 2 12 11 6 7 3 9 5
12 4 11 9 7 3 1 6 8 2 5 10
7 6 1 12 5 2 9 11 3 8 4 10
11 12 4 5 8 9 3 1 10 2 7 6
6 7 10 12 1 4 5 8 11 9 3 2
10 11 12 7 4 2 3 1 6 5 9 8
4 7 11 1 9 8 5 10 2 12 6 3
1 5 2 4 10 7 6 3 12 11 9 8
6 1 8 3 12 10 2 5 7 9 11 4
10 5 12 4 8 1 3 9 11 2 7 6
9 3 1 4 10 8 11 2 12 7 6 5
12 3 7 11 5 4 2 9 10 6 1 8
10 11 5 6 4 1 8 12 9 3 7 2
2 11 12 7 9 5 3 8 6 10 4 1
8 2 10 7 1 6 12 9 5 11 4 3
3 4 9 6 10 1 7 5 11 8 2 12

12
Iu-
]/+
y$&[`792
\AaS]1,2g.
0N/BYZ9s
%.X[
j)Fn%6y
g90g'Z]*R
$
E!
j>h[1RgW
)!
11 4 5 3 6 1 10 7 8 9 2 12
1 6 4 2 8 11 3 12 10 9 5 7
6 8 11 12 2 9 3 5 4 1 7 10

15
Dg
N\~Xo@L>R2
{&?X
TSF[
G
K&/@D
Rd7
p3w6?
L>kFWT
N\.1"l`.
M
{EIKKk
jR
HH<T
8{lHf/_:wJ
2 13 15 8 7 12 4 11 9 14 6 5 1 10 3
12 14 1 4 15 7 3 5 9 2 13 11 6 8 10
4 5 7 15 14 3 1 6 12 11 10 9 8 2 13
15 9 13 2 3 12 8 10 7 11 5 1 4 6 14
6 10 4 8 3 5 15 13 7 11 12 2 9 1 14
2 12 13 3 4 1 14 5 15 6 8 7 10 11 9
3 11 4 5 15 13 14 2 8 9 7 10 12 1 6
7 1 10 15 6 3 11 2 13 5 9 8 4 12 14
11 3 15 9 8 6 5 2 13 10 12 7 14 1 4
6 3 2 8 12 4 10 11 9 7 1 15 13 5 14
10 15 6 12 8 13 14 7 3 1 5 9 11 2 4
5 3 11 9 10 2 4 1 7 13 12 15 14 8 6
13 15 12 6 14 10 8 2 1 7 11 4 5 9 3
6 3 11 4 7 14 5 2 8 15 9 1 12 13 10
8 15 14 9 13 12 7 5 2 10 3 11 1 6 4
3 15 7 9 10 2 1 14 8 4 5 13 6 11 12
5 14 9 15 7 12 3 1 4 8 13 11 10 6 2
12 2 13 6 9 1 8 5 4 11 10 14 15 7 3
12 13 5 14 6 3 2 1 15 7 10 9 4 8 11
8 15 11 13 12 9 14 4 10 2 1 5 7 6 3
7 10 15 3 12 5 9 6 14 4 2 8 13 11 1
11 2 4 15 6 7 1 8 13 10 14 9 3 12 5
11 15 6 1 5 12 4 8 14 10 7 13 2 3 9
14 7 6 15 10 2 8 3 4 5 11 12 13 9 1
15 2 3 13 12 4 7 10 5 8 1 11 9 14 6
11 12 14 6 2 15 8 10 5 13 4 7 1 3 9
1 6 4 14 13 2 8 5 3 7 12 9 15 11 10
5 1 13 6 12 2 10 15 14 8 9 7 4 11 3
5 14 12 4 1 8 6 3 9 13 11 2 10 7 15
3 12 4 13 14 9 10 2 7 8 1 6 15 11 5
15 3 13 14 1 9 12 10 4 7 2 6 11 8 5
11 15 9 13 1 14 8 6 7 5 10 4 2 3 12
11 10 14 6 15 13 2 1 5 3 8 7 12 4 9
3 14 13 11 10 7 15 4 2 5 8 12 1 9 6
10 11 8 9 3 1 2 6 14 13 7 4 15 12 5
4 5 15 11 9 1 13 8 10 14 7 12 3 6 2
8 2 11 6 7 14 4 15 12 3 5 13 9 10 1
14 13 9 15 2 8 1 6 3 7 11 12 4 5 10
3 11 12 13 8 9 4 7 10 2 5 6 1 14 15
1 4 2 6 11 15 9 8 14 10 3 12 7 5 13
12 3 1 15 10 9 8 4 7 5 11 6 13 2 14
5 11 2 13 9 6 7 12 1 10 8 15 3 4 14
8 15 11 14 3 6 10 4 12 2 5 13 9 7 1
15 12 6 2 11 7 13 9 5 14 8 4 1 10 3

8
u},H3m(m
ml
<
U
ykIUyk
r!
}T`%`}vG
vI
5 8 7 1 4 2 6 3
2 1 8 7 5 3 6 4
6 4 2 1 5 8 3 7
1 2 5 6 3 7 8 4
1 4 7 3 8 2 5 6
3 2 6 4 8 5 1 7
6 4 8 5 3 7 1 2
1 7 4 8 6 3 5 2
8 2 5 3 7 6 1 4
6 2 3 8 5 7 1 4
2 3 5 4 1 6 7 8
2 6 7 4 8 5 1 3
6 4 2 5 7 8 1 3
8 1 7 3 5 2 6 4
7 4 3 5 6 8 2 1
3 8 5 6 7 4 1 2
7 3 2 8 1 6 4 5
8 5 7 4 1 2 6 3
8 5 6 7 3 2 1 4
4 2 1 7 6 8 3 5
1 2 6 8 3 7 5 4
6 1 2 5 7 4 3 8
1 6 7 2 4 3 8 5
6 5 2 8 7 4 1 3
7 2 5 6 8 4 1 3
3 7 5 4 8 2 1 6
6 3 5 2 1 8 7 4
1 6 2 3 5 7 4 8
5 3 8 4 6 2 1 7
4 2 7 1 3 5 8 6
5 7 8 4 3 6 1 2
7 6 3 8 2 4 1 5
3 7 4 1 2 6 5 8
3 7 6 4 8 5 2 1
4 3 2 7 6 1 5 8
6 8 4 7 3 1 5 2
3 4 8 1 6 2 7 5
8 7 2 1 3 5 4 6
6 5 1 3 8 7 4 2
8 2 6 1 4 7 3 5
4 8 1 6 5 2 7 3
4 1 6 2 8 5 3 7
5 2 4 3 7 8 1 6

17
B]o|aC]Im\
:
Y~u
g)pE
|<UFj;Q
zjnak[RBi
_{5"[vNkb
;JW\LU;t1
hIgiVWm
Ty/
Ar\
dVdgmr$+
:u[n<n
^L*mS
;2Q,xS>
/`,F9Xw>xZ
J`3Ue~cDK;
13 12 15 7 5 11 1 9 4 16 17 2 14 10 3 8 6
2 12 6 1 9 10 4 5 16 11 7 17 3 8 14 15 13
5 15 3 2 17 4 12 1 14 8 7 13 11 6 9 16 10
11 6 5 12 4 3 17 7 8 16 15 13 9 1 2 10 14
11 12 15 13 2 3 4 10 5 7 1 14 9 8 17 6 16
9 3 17 15 5 8 1 12 2 14 11 6 10 13 7 4 16
12 14 5 17 10 6 3 13 9 2 7 1 15 16 4 11 8
10 8 17 1 2 4 11 12 3 5 9 6 15 7 14 16 13
6 2 7 16 14 4 8 15 3 5 11 10 12 1 9 17 13
11 10 15 3 5 14 13 8 17 2 1 6 12 16 7 9 4
1 8 5 10 3 9 16 13 7 2 4 12 15 17 14 6 11
17 14 3 4 10 12 1 9 11 7 6 16 13 8 15 2 5
1 12 3 17 11 15 5 2 8 10 9 7 16 4 13 14 6
8 13 17 10 2 5 1 6 3 16 11 9 7 12 14 15 4
8 13 10 14 2 5 7 12 4 3 9 16 1 17 6 15 11
7 13 4 9 12 10 8 5 17 1 11 6 14 16 2 3 15
14 13 6 1 17 2 9 10 15 12 5 16 3 8 7 11 4
17 8 1 15 12 3 13 4 10 2 14 9 7 11 6 5 16
2 8 11 10 13 6 1 15 16 12 17 7 3 14 5 4 9
12 13 16 6 10 5 11 1 17 7 2 9 8 14 15 3 4
16 11 12 1 9 3 8 10 2 15 6 13 5 17 7 4 14
17 4 13 5 9 10 14 16 11 6 3 1 2 15 8 7 12
8 7 12 3 5 10 14 16 9 4 2 13 6 1 17 15 11
2 4 15 10 14 5 13 8 16 17 6 11 1 9 3 12 7
10 5 14 7 13 1 8 12 15 4 3 9 17 11 6 2 16
10 8 14 1 16 5 9 4 12 11 15 7 3 6 13 17 2
5 11 7 1 9 13 14 16 17 10 8 2 12 6 4 15 3
16 7 9 2 4 17 11 12 14 8 5 1 6 3 15 13 10
5 15 11 16 3 9 7 2 12 4 17 6 1 14 13 8 10
14 6 11 7 13 5 16 12 15 3 17 9 10 4 2 8 1
4 1 15 2 11 17 7 12 14 9 16 3 5 13 6 8 10
6 9 1 15 12 2 13 7 16 5 3 10 17 14 4 11 8
10 6 12 4 11 8 9 2 5 1 3 7 14 15 13 16 17
16 14 12 3 4 9 10 6 8 13 11 1 5 2 7 15 17
7 11 12 9 8 5 15 1 10 3 13 17 2 4 16 14 6
8 7 13 1 10 5 4 2 6 14 9 15 11 17 12 16 3
1 4 7 14 17 12 11 2 8 10 16 5 13 3 9 6 15
2 17 5 15 3 1 13 12 9 8 11 6 10 4 14 7 16
14 1 15 5 17 13 2 9 8 6 7 3 4 16 10 11 12
16 7 14 11 15 2 17 1 10 9 3 13 4 6 12 8 5
10 2 5 9 4 7 13 17 16 12 6 14 1 3 15 11 8
17 15 4 9 13 12 1 6 7 11 14 2 8 3 16 5 10
1 12 13 15 9 3 2 6 17 4 11 14 10 5 16 7 8
3 8 16 15 4 12 2 6 17 7 1 14 5 10 11 9 13
2 10 6 13 15 11 17 12 8 9 14 5 4 7 16 3 1

14
J!2F?P\!/
Hy
gM>Lt
QX~]a&,
c+
y'.(5t;wx
l4&{
2w+a@a:
}H<XjU
t"
.\]x@]V
oeiYmAYB
!<'I'io,
3*.yq
13 2 14 1 10 3 5 9 6 8 11 4 12 7
5 14 7 11 4 10 6 3 12 13 2 8 1 9
14 3 13 6 5 7 10 12 9 11 8 2 1 4
6 9 13 10 2 3 7 14 1 11 12 8 5 4
2 10 6 9 11 12 14 7 3 4 8 5 13 1
11 2 8 5 14 12 4 1 7 10 6 13 9 3
11 4 9 3 2 13 1 6 14 10 5 12 7 8
3 6 11 4 13 2 5 14 1 12 7 8 9 10
4 3 1 6 14 5 9 12 11 2 7 8 13 10
8 6 2 1 9 14 4 3 12 10 13 5 7 11
13 5 12 11 2 1 9 8 3 6 7 10 4 14
11 8 7 4 6 5 13 3 10 2 1 14 12 9
12 7 11 14 1 6 9 3 4 10 8 13 2 5
12 13 9 6 2 14 4 5 1 7 8 3 10 11
10 5 7 14 4 9 3 8 11 12 1 2 6 13
6 10 7 5 4 12 3 8 2 13 14 11 9 1
12 7 9 13 4 8 14 3 11 10 1 5 6 2
11 8 10 13 7 14 1 12 3 5 2 9 4 6
8 7 6 11 4 12 5 9 1 2 10 3 13 14
10 11 2 12 7 1 3 13 8 5 14 9 4 6
14 10 2 7 6 5 1 11 13 3 12 9 8 4
12 9 5 4 6 3 13 2 8 1 10 14 7 11
6 14 1 8 5 10 3 12 9 11 13 4 7 2
2 1 14 12 13 6 8 7 3 4 5 9 10 11
6 8 1 7 9 14 5 2 11 4 10 12 13 3
4 3 11 9 5 14 8 6 7 13 1 2 10 12
6 12 7 4 2 14 11 8 9 13 10 1 5 3
12 3 6 7 11 9 1 5 8 13 14 2 10 4
1 2 3 10 9 8 12 11 6 5 14 4 13 7
8 5 11 3 6 13 7 14 1 2 9 10 12 4
10 5 1 12 7 6 3 11 8 13 14 2 9 4
6 10 8 4 3 11 7 9 12 5 13 1 2 14
8 5 2 1 10 6 7 4 12 13 3 11 14 9
13 14 2 12 3 7 10 6 8 5 4 11 9 1
13 6 7 10 9 1 4 8 14 3 11 2 12 5
12 5 6 13 9 1 2 14 8 4 3 11 10 7
10 3 12 1 14 4 11 6 7 5 13 9 2 8
11 14 13 9 1 6 8 3 10 7 2 4 5 12
7 5 10 2 11 4 1 14 3 9 12 13 8 6
5 6 11 2 7 10 8 9 13 1 4 12 14 3
10 5 1 2 14 6 11 8 4 3 7 13 9 12
9 8 5 10 14 6 7 11 1 2 4 13 3 12

4
@4^TD|}L{Q
$Hwc@
@>SKfgF
?
2 4 1 3
4 1 3 2
1 3 2 4
1 4 3 2
1 4 3 2
4 1 3 2
1 4 3 2
1 2 3 4
2 3 1 4
4 1 2 3
4 3 2 1
3 1 4 2
1 3 2 4
3 2 4 1
2 3 1 4
1 3 2 4
1 4 3 2
4 1 2 3
3 2 4 1
4 2 3 1
4 3 2 1
3 2 1 4
3 4 2 1
2 3 1 4
1 4 2 3
1 2 3 4
1 3 2 4
4 3 1 2
2 4 3 1
1 2 4 3
3 4 1 2
4 3 2 1
1 2 4 3
4 2 1 3
3 1 2 4
2 3 4 1
2 1 4 3
2 3 4 1
3 2 4 1
3 1 2 4
2 1 4 3
2 4 3 1

18
M`o>TZn
%4"FOJhFv
SM
^df@KQj+
GPx;-Kr
4I!'!\h
_4)Tth
w(v@e
q
_b
9'
F\"}6z
X=`|GX_[q
 54
c&yvq=
=
>
_i\k%,hjG'
3 16 18 15 10 2 1 6 17 5 14 13 8 9 7 12 4 11
14 5 8 4 1 10 3 2 18 12 16 11 6 17 9 7 15 13
18 17 7 13 2 8 9 5 4 16 6 14 3 1 10 12 15 11
5 13 11 4 2 18 17 14 7 15 8 9 16 10 3 1 6 12
11 2 13 16 12 9 5 1 14 3 15 8 4 17 10 6 7 18
18 14 9 10 3 1 5 11 13 7 4 12 17 16 15 6 8 2
16 3 6 13 11 5 18 2 12 10 14 15 8 1 7 17 4 9
6 17 15 12 8 10 5 3 1 13 2 16 9 11 7 18 4 14
15 1 18 4 2 14 9 12 16 8 7 5 10 13 3 17 11 6
11 7 2 9 4 5 12 13 16 8 17 1 6 14 18 10 15 3
13 14 3 10 16 11 8 12 6 5 1 7 2 18 4 15 9 17
7 10 4 16 8 5 1 15 2 11 6 17 9 18 3 14 12 13
6 13 10 16 11 2 1 12 3 5 7 17 9 15 8 4 14 18
15 3 6 5 2 8 12 13 4 7 18 11 17 9 10 14 16 1
17 7 8 2 6 5 14 11 3 15 4 13 12 1 10 9 18 16
3 17 7 5 14 2 8 1 4 12 10 13 9 6 15 16 11 18
1 18 17 12 15 11 2 14 6 5 10 3 9 7 4 13 16 8
5 8 2 15 16 3 10 1 9 6 7 17 18 11 12 4 14 13
8 12 9 15 10 16 6 7 4 2 1 11 3 14 17 18 5 13
4 14 17 15 1 8 11 13 5 9 2 7 16 10 6 3 18 12
16 3 7 4 13 17 12 5 10 1 9 15 6 11 18 14 2 8
18 4 10 3 14 13 15 8 12 6 5 1 9 2 16 7 11 17
17 14 18 2 3 8 4 9 12 15 5 13 16 11 1 6 7 10
17 9 14 11 15 18 13 8 5 16 3 1 12 4 10 7 2 6
17 2 15 8 16 11 6 1 13 4 5 18 10 12 14 9 3 7
16 3 5 10 4 12 13 14 18 11 15 6 9 1 17 2 8 7
6 7 8 3 5 17 9 1 4 10 18 15 12 14 2 13 11 16
18 3 12 4 2 11 7 17 14 13 6 16 9 1 8 10 15 5
17 16 7 13 1 8 12 3 2 18 4 14 11 9 5 15 10 6
2 14 1 11 18 9 4 10 6 17 16 12 13 5 3 8 7 15
6 16 1 8 15 3 5 11 17 12 14 4 2 18 7 13 10 9
17 10 15 8 6 5 16 3 12 2 11 7 4 1 14 18 9 13
1 9 15 10 17 7 4 11 18 16 6 14 5 12 8 2 13 3
9 16 11 13 18 3 6 12 17 14 15 2 1 5 4 10 7 8
3 9 17 14 18 13 5 2 8 7 10 15 11 12 1 16 4 6
10 18 8 3 1 4 6 12 2 13 11 5 9 7 15 16 14 17
4 11 16 8 15 3 5 9 7 17 13 12 18 1 6 10 14 2
9 14 3 15 1 13 12 6 11 7 8 10 17 5 18 2 16 4
14 3 16 8 17 2 12 10 18 7 13 11 15 6 1 9 4 5

11
6\?N
<qu,_rXI
G
Fejz~
%<f3DwVQ
)8h9BV/t1k
"UAaq
z5fz
qKVI
n~>yJ3.
wF~Jn
7 9 10 5 11 6 4 3 1 2 8
5 3 10 11 6 8 1 7 4 2 9
10 5 4 6 8 11 7 9 3 1 2
10 7 2 5 9 3 8 1 11 6 4

8
N2fy8K
0D
7E
xS>&=8
"$]Q~D@
GSxP(-y
A
N1e'w
3 1 7 6 2 4 8 5
5 8 6 3 1 2 4 7
1 4 2 8 7 5 6 3
6 2 7 8 5 4 1 3
6 4 3 5 8 1 7 2
3 6 4 1 2 7 8 5

11
/n.HG)A,9^
"1
dM17d[
m+%+nS)S
*~fdj@_x!
58@q>Oo
F{Q~]ot
ednr<jB/
UX*m984+
*$nApB-
$*I
7 9 11 2 6 1 8 10 3 4 5
2 11 7 5 10 6 4 1 3 8 9
11 10 2 6 8 3 9 5 7 1 4
11 3 9 4 1 7 10 2 5 6 8
2 11 7 3 5 8 9 1 10 4 6
2 11 8 10 9 6 7 3 5 1 4
3 11 6 9 4 10 8 5 7 1 2
9 10 3 7 2 6 4 11 5 1 8
5 2 11 7 8 9 1 3 6 10 4
11 6 8 9 2 4 5 1 7 10 3
8 3 11 4 1 9 10 6 7 5 2
7 4 1 5 3 2 10 9 11 8 6
2 8 11 9 5 10 6 4 1 3 7
2 3 11 10 4 8 9 7 1 6 5
3 2 4 8 10 6 5 9 7 1 11
3 1 8 6 11 4 9 5 2 7 10
3 7 5 4 6 9 1 2 11 8 10
2 6 9 10 5 1 3 4 8 11 7
3 7 11 4 5 2 10 9 8 6 1
9 6 4 1 7 10 11 8 3 5 2
11 5 1 9 2 6 3 4 8 7 10
7 11 8 4 6 1 10 5 3 9 2
8 1 4 7 10 6 2 3 9 11 5
2 5 11 6 10 9 3 4 8 7 1
9 4 3 7 11 1 5 6 2 8 10
3 5 7 9 1 11 10 6 2 8 4
9 5 2 1 11 10 6 7 4 3 8
2 5 6 10 8 11 9 1 3 7 4
10 4 8 1 5 11 2 7 9 6 3
8 3 11 5 7 6 4 9 2 1 10
10 9 1 6 2 3 5 8 11 7 4
7 10 6 5 9 3 11 8 4 2 1
7 1 8 3 2 9 5 10 4 6 11
4 5 7 2 8 10 1 3 6 11 9
11 4 1 2 5 7 10 6 9 8 3
10 4 7 5 2 1 11 3 9 6 8
1 3 7 2 11 8 5 4 10 6 9
10 7 8 2 1 5 4 6 3 9 11
3 9 6 10 7 5 2 1 4 8 11
2 1 6 7 8 10 9 11 3 5 4
9 10 3 8 7 4 2 5 1 6 11
11 2 7 1 8 5 4 6 10 9 3
8 2 6 4 10 1 5 7 9 3 11
1 11 5 2 10 9 3 8 6 4 7
1 10 5 4 3 7 8 11 6 2 9

5
&F
]
oQ@D
/
U
2 4 3 5 1
5 2 3 1 4
3 4 5 2 1
5 2 4 3 1
4 3 1 2 5
5 4 3 1 2
4 2 5 1 3
1 3 4 5 2
5 3 2 4 1
4 1 5 3 2
3 1 2 5 4
1 5 2 3 4
4 3 2 5 1
1 3 5 2 4
5 1 4 2 3
2 4 5 3 1
2 1 4 3 5
4 3 1 2 5
5 4 3 2 1
5 3 2 1 4
4 1 5 3 2
2 1 3 5 4
1 2 5 4 3
5 4 2 3 1
1 4 5 3 2
4 5 3 2 1
1 3 5 2 4
4 5 2 1 3
4 1 2 5 3
5 2 3 1 4
2 4 5 3 1
3 4 5 2 1
1 3 4 2 5
2 3 4 5 1
4 5 1 2 3
3 4 2 5 1
1 3 4 2 5
1 5 3 2 4
5 1 2 3 4
5 1 4 2 3
3 4 2 5 1
4 1 2 5 3
2 3 1 4 5

8
P+iBN
J
2\`S 
h
xmZ%jEgF
M
z@D&N
lzZr
7 5 2 6 1 4 3 8
4 5 6 3 7 2 8 1
1 2 4 8 3 6 7 5
2 1 8 5 3 7 4 6
3 7 8 4 1 6 2 5
3 6 1 4 7 8 2 5
3 5 6 7 4 1 8 2
8 6 4 1 7 2 5 3
6 4 1 5 2 3 7 8
8 2 1 3 5 7 6 4
2 7 3 8 5 4 1 6
6 8 2 4 5 1 3 7
4 8 3 5 1 7 2 6
2 7 4 5 3 8 6 1
3 6 1 7 5 8 2 4
7 6 8 5 2 1 3 4
8 4 6 2 1 3 5 7
4 1 7 3 6 5 2 8
4 7 2 8 6 3 1 5
2 8 5 7 6 3 4 1
2 3 8 4 1 5 7 6
4 1 8 7 2 3 6 5
7 4 1 5 8 3 2 6
8 1 7 2 5 6 3 4
3 8 4 6 2 5 1 7
6 8 2 3 1 5 4 7
2 1 8 5 3 6 4 7
7 4 5 3 8 1 6 2
6 1 4 5 8 3 7 2

16
am
qt~!"TnW
(Y:
csm!WA}c9-
*6
p:+>o!riB
@eP(UdL/
W97?uHLG!_
Eg
=mQmZ6-
'es>^
krH
yE
r>7(r
fm%p6&7_
2b}!6`oe
14 12 10 13 5 6 1 2 16 15 11 7 9 3 4 8
5 6 14 12 8 7 9 13 11 16 10 15 1 4 3 2
4 11 10 14 2 16 7 6 5 9 13 12 3 15 8 1
4 2 1 8 12 9 16 3 13 7 14 10 11 5 15 6
5 1 14 12 10 13 7 2 15 9 3 4 8 6 16 11
6 16 2 7 14 1 8 3 4 5 12 13 11 15 10 9
14 5 15 1 13 7 16 4 11 3 10 9 12 6 2 8
8 12 14 5 9 10 1 3 4 15 7 16 2 13 6 11
1 10 12 9 13 4 8 14 5 2 7 6 11 3 15 16
2 10 12 16 4 7 1 5 9 14 8 6 13 3 15 11
1 16 4 7 15 14 10 12 11 6 9 13 8 5 3 2
7 15 5 13 10 2 14 8 6 4 11 1 12 16 3 9
14 8 2 12 6 11 13 3 5 10 16 15 4 9 1 7
16 15 10 13 4 8 5 12 7 14 3 2 1 6 11 9
2 4 14 8 10 6 16 15 5 9 1 13 3 11 7 12
13 5 10 6 11 3 1 4 14 16 7 15 8 9 12 2
8 14 12 2 13 4 11 5 7 15 16 9 1 3 6 10
10 15 6 2 12 8 1 5 11 3 14 4 9 7 16 13
1 12 13 8 6 14 16 7 10 11 15 5 4 2 3 9
4 14 10 16 8 11 12 9 15 5 7 3 2 13 6 1
1 15 16 14 13 12 3 6 4 11 10 8 2 5 9 7
4 6 13 15 8 16 2 10 9 5 7 12 3 11 14 1
10 7 5 13 8 6 4 15 3 2 16 11 9 1 14 12
14 9 15 1 10 4 11 12 8 6 13 16 3 5 2 7
8 6 13 9 2 12 7 1 5 4 16 10 3 14 15 11
13 14 5 9 15 1 8 4 7 6 3 10 12 11 2 16
4 11 2 5 14 15 6 12 8 9 7 10 13 16 3 1
8 15 3 16 6 9 13 4 2 1 5 12 11 7 14 10
6 4 16 15 10 2 8 7 11 14 1 3 5 13 12 9
14 12 15 5 10 2 13 3 9 7 16 11 1 4 6 8
7 5 14 6 10 16 12 4 9 15 13 1 2 11 3 8
13 8 11 3 12 10 5 2 4 16 15 1 14 6 9 7
6 11 7 14 1 12 3 2 8 13 16 10 9 5 4 15
6 8 11 10 5 13 2 16 7 9 15 1 4 14 3 12
6 2 5 8 3 14 16 15 7 12 10 1 4 9 13 11
3 8 12 5 7 1 16 15 4 9 11 6 13 14 2 10
7 15 9 12 13 1 8 14 11 6 4 5 2 16 10 3
12 14 7 3 5 13 9 8 2 15 6 10 16 4 1 11
12 15 6 1 7 9 4 16 3 8 10 13 11 2 14 5
9 3 13 4 5 10 2 8 16 6 14 7 11 15 12 1

7
2S`.Z`
:kZx5RT6
Or
-}gaPRo**
o:4Cc
|s16
yLa2Qnq18"
3 5 4 7 6 2 1
1 7 3 2 5 4 6
3 1 7 4 6 5 2
7 4 6 1 5 2 3
2 4 3 1 6 7 5
1 7 6 5 2 3 4
2 5 1 3 6 7 4
4 6 3 1 2 7 5
3 6 7 5 2 1 4
7 2 1 6 5 4 3
5 3 4 6 7 2 1
4 1 6 2 7 3 5
5 1 4 6 2 3 7
1 2 4 6 5 3 7
5 4 1 7 6 2 3
7 5 6 2 3 1 4
2 5 4 6 3 7 1
3 1 7 5 4 6 2
1 2 7 6 3 4 5
2 4 3 7 6 1 5
3 6 2 4 7 1 5
4 1 5 3 6 2 7
7 2 5 3 6 1 4
3 2 7 5 6 1 4
4 7 1 6 3 5 2
4 6 7 3 5 1 2
1 7 5 3 6 2 4
7 1 4 2 6 5 3
5 3 2 4 1 7 6
2 6 7 3 4 5 1
5 7 6 3 4 1 2
6 2 3 4 7 1 5
3 6 7 5 4 2 1

3
rh[^E0]
C
S=x&GZWw8
2 3 1
1 3 2
1 2 3
2 1 3
1 3 2
2 1 3
2 1 3
1 2 3
2 1 3
1 3 2
3 1 2
3 1 2
3 2 1
1 3 2
2 1 3
3 1 2
1 2 3
2 1 3
3 1 2
2 1 3
1 2 3
2 1 3
2 1 3
3 1 2
2 1 3
1 3 2
1 3 2
3 1 2
3 2 1
3 2 1
2 3 1
1 2 3
1 2 3
2 1 3
2 3 1
3 1 2
1 3 2
1 2 3
3 2 1
1 2 3
1 2 3

13
1mGd<_
^CR&O2Xg
547=iHhV<"
UzSEMrvN`w
6%-|XwkC[N
TLR-MJHNqU
O
|my
P/OH:R
}HcMBC[
8 HR\0
{
9]]93$w=A
8 10 7 4 2 13 12 6 3 1 5 9 11
13 9 6 2 7 1 5 3 4 11 12 8 10
9 1 5 3 6 10 8 4 2 7 13 12 11
8 13 1 6 12 2 4 3 11 5 10 9 7
7 11 6 5 12 3 2 10 9 4 13 8 1
8 5 7 13 10 2 9 6 1 12 11 4 3
3 1 12 6 7 11 13 2 10 4 5 8 9
8 7 12 1 11 2 9 5 6 4 13 3 10
9 12 13 7 10 6 3 2 11 8 5 1 4
9 7 8 10 4 11 5 6 2 1 3 13 12
1 7 6 8 9 3 13 2 5 12 10 4 11
4 1 8 11 9 3 10 6 5 7 12 2 13
9 7 5 1 8 10 3 12 2 6 13 11 4
9 1 5 6 11 8 4 10 2 3 13 7 12
2 13 3 1 6 5 7 4 9 10 8 11 12
13 12 10 5 8 6 7 11 4 9 1 2 3
8 5 11 7 6 10 3 2 12 9 13 1 4
5 2 10 4 6 7 1 13 11 8 12 9 3
7 12 8 10 4 3 6 1 2 11 13 9 5
6 8 5 4 11 3 7 10 13 1 9 12 2
6 11 12 13 5 4 9 7 2 10 8 3 1
8 11 6 2 7 4 13 9 5 12 1 10 3
13 4 6 11 9 8 7 3 2 1 5 10 12
5 12 9 2 10 7 13 8 3 6 11 4 1
9 7 1 11 12 13 3 5 8 4 2 6 10
6 2 3 9 13 8 1 5 11 7 4 12 10
6 2 5 12 11 10 3 4 13 9 8 7 1
3 1 7 9 5 6 2 8 4 11 10 13 12
10 6 2 9 12 13 3 8 5 7 1 4 11
9 8 5 6 12 1 7 3 4 13 10 11 2
6 11 1 7 12 9 10 2 4 8 13 3 5
5 10 12 2 8 7 3 9 13 11 6 4 1
10 1 4 12 5 2 13 11 9 8 6 3 7
6 11 4 9 5 2 3 1 8 13 12 10 7
4 8 7 12 13 3 2 5 11 6 10 1 9
8 4 6 7 10 12 11 5 3 2 1 13 9
4 11 5 12 6 13 2 3 7 10 9 8 1
8 12 9 11 5 6 10 4 13 1 3 7 2
5 4 11 13 8 3 12 2 9 10 7 6 1

6
r
hh<ln -zY;
isY!
/M
=? 
}6}
4 6 5 2 1 3
1 3 6 2 5 4
1 6 5 4 2 3
3 1 2 4 6 5
2 1 5 4 3 6
3 6 5 2 4 1
3 6 1 2 5 4
1 6 3 2 5 4
3 6 1 5 4 2
6 4 2 1 3 5
2 4 1 5 3 6
6 4 2 5 1 3
5 3 4 1 2 6
4 6 1 3 2 5
2 3 4 5 6 1
1 3 5 4 6 2
5 2 3 1 4 6
4 6 1 3 2 5
2 3 6 5 4 1
3 4 1 2 5 6
3 2 5 4 1 6
1 5 4 2 6 3
4 3 2 5 1 6
4 2 5 3 6 1
3 2 1 5 4 6
6 3 5 2 4 1
3 5 6 2 4 1
1 2 3 4 6 5
2 1 3 5 4 6
2 4 5 3 6 1
3 1 4 6 5 2
4 3 1 2 6 5
1 3 4 2 6 5
1 4 5 3 6 2

12
IG74/Yz,h
Hc0u:U(N
CbtLE}|Q<
(|Q'dda
G{
x\
/
*y.XW?u
{Ea
J&@>
CfK4FFGdF
o)
2 3 6 7 11 5 4 9 12 8 1 10
12 11 2 8 7 5 6 9 10 3 4 1
7 8 3 9 11 10 4 12 1 6 5 2
9 3 12 8 7 2 6 4 10 1 11 5
5 9 6 1 4 10 7 2 8 12 3 11
1 4 3 12 2 10 7 8 11 6 9 5
7 4 1 12 8 9 10 6 2 5 11 3
10 1 6 2 7 12 11 3 4 8 5 9
4 11 9 8 2 10 12 1 5 3 6 7
3 12 4 5 9 11 2 10 8 7 6 1
11 12 4 7 3 8 9 1 2 10 5 6
9 7 5 1 8 10 4 3 11 12 2 6
11 4 8 2 10 1 12 3 7 5 6 9
11 3 12 4 7 6 5 10 9 8 2 1
12 7 9 1 4 11 5 6 2 10 8 3
2 8 10 6 4 9 5 7 11 1 12 3
5 8 12 7 4 1 10 11 2 6 3 9
10 5 2 9 3 12 6 1 4 7 8 11
8 11 12 4 2 3 6 10 7 5 1 9
7 10 2 11 9 3 5 12 4 8 6 1
4 6 8 12 5 1 2 9 10 7 3 11
3 11 4 10 6 12 1 7 9 8 5 2
9 4 7 6 3 5 12 11 10 1 8 2
3 8 9 1 5 12 7 6 4 11 2 10
12 6 2 10 3 8 7 11 1 5 9 4
9 1 3 8 6 2 10 4 7 11 5 12
7 11 3 2 9 4 8 5 10 12 1 6
3 2 8 10 4 11 6 1 12 7 9 5
12 7 6 5 1 8 4 11 3 2 9 10
6 5 3 2 1 8 12 4 10 11 7 9

7
s
s[j
H)VY[Nw:%
m
12J/B+J:
L`0;
u
4 3 5 2 6 7 1
5 4 7 1 3 2 6
2 4 5 3 6 1 7
2 7 3 6 4 1 5
1 4 2 5 3 6 7
7 3 6 5 4 1 2
7 6 5 2 1 3 4
4 2 3 7 1 6 5
4 5 3 6 7 2 1
3 5 7 6 2 1 4
2 6 1 7 5 4 3
4 5 6 3 2 1 7
1 3 6 4 7 2 5
7 5 1 2 6 3 4
1 3 6 4 2 5 7
5 3 6 4 1 7 2

14
j%sLjo3!n
"w7YZp@>
v,\4/
l!;gn;-)Yu
z
FA
NUu
}/m[
nO
=-`s&~rS9k
N(iW;>y5X
hQIpiM
8
 7T$/Esz"
4 7 8 5 11 12 14 9 10 1 2 6 13 3
2 7 1 5 10 12 11 6 13 3 9 14 8 4
3 9 14 8 11 7 6 1 5 13 10 2 4 12
5 14 6 4 13 11 7 12 8 1 2 3 9 10
4 10 9 1 13 11 14 12 8 5 3 7 2 6
11 12 7 10 3 4 1 8 14 13 2 9 6 5
7 14 3 8 11 4 9 12 10 6 1 13 2 5
1 14 12 9 5 8 10 6 7 3 13 4 11 2
2 3 4 8 9 13 5 6 10 7 1 14 12 11
12 8 10 13 2 5 7 1 3 14 11 4 9 6
3 13 7 14 8 12 11 6 10 4 2 5 9 1
7 1 5 13 4 11 8 10 2 3 14 9 6 12
4 1 9 2 3 10 5 8 6 14 12 11 13 7
1 10 14 9 3 4 11 2 6 7 13 5 12 8
11 5 10 1 13 12 3 9 14 8 2 4 6 7
12 2 8 6 4 1 10 14 11 13 9 3 7 5
3 5 2 7 11 4 10 12 6 13 14 8 1 9
4 11 14 8 7 13 2 12 1 10 5 3 6 9
8 6 5 12 10 2 14 11 9 4 7 1 13 3
2 10 14 5 7 13 12 3 8 11 1 6 4 9
5 13 10 6 14 9 1 2 4 11 7 12 3 8
5 10 11 6 2 9 8 12 4 14 1 7 13 3
9 2 1 14 7 6 13 8 5 3 12 4 11 10
3 1 8 11 5 10 12 4 9 6 13 14 2 7
6 11 9 7 4 3 10 1 14 13 8 2 5 12

8
m&u;64cgw2
,|pVrE(N
=r&zKaxLus
UV
2R>VM
gkI~y7Q;;
h
)>;s6C3
3 6 4 5 2 1 7 8
6 7 5 4 1 3 8 2
4 2 5 6 1 7 8 3
3 6 7 5 4 2 1 8
4 1 3 5 2 6 7 8
8 6 5 4 2 7 1 3
7 4 8 3 6 1 5 2
6 1 4 2 5 7 8 3
6 7 8 5 4 1 3 2
6 1 5 2 8 4 7 3
5 6 1 4 3 8 7 2
2 7 5 3 4 1 8 6
4 7 5 8 3 2 6 1
2 8 4 5 6 3 1 7
2 5 8 4 7 6 3 1

6
e
vj0
5
{[!R&
g"W$={r
YU`
5 2 1 4 6 3
5 6 2 4 1 3
2 5 1 4 6 3
3 5 6 1 2 4
1 6 4 5 2 3
6 2 3 1 5 4
1 3 4 2 5 6
6 5 4 1 3 2
3 1 6 2 4 5
2 1 6 3 5 4
1 5 3 4 2 6
2 5 4 3 1 6
6 2 3 4 5 1
3 4 6 5 1 2
4 6 5 1 3 2
1 6 5 2 3 4
1 2 3 6 4 5
2 4 1 5 3 6
5 1 6 3 4 2
6 5 2 1 3 4
1 4 3 6 5 2
4 6 1 3 5 2
5 1 6 3 4 2
3 4 5 6 2 1
2 6 4 3 5 1
2 5 4 3 6 1
1 3 6 2 5 4
2 1 6 5 4 3
6 5 2 3 1 4
1 3 2 6 4 5
6 1 2 5 4 3
2 5 4 6 3 1
3 5 1 6 4 2
3 6 5 2 1 4
2 5 6 4 1 3
1 2 4 5 3 6
4 5 3 1 2 6
5 6 4 2 1 3
3 2 6 5 1 4
4 6 3 1 2 5
6 5 3 2 4 1

14
[wV$U
tKq.LkG'
C"
</Pi\+gt7R
-
*|H zK%AG`
\BxT-:[
,m}tim&
uF(
Q Dv69
,+j
*^-k"
j
`3ey
14 13 5 11 10 8 3 12 4 9 6 7 1 2
13 14 9 10 8 5 12 4 11 7 2 3 6 1
13 14 10 12 11 7 4 9 2 1 6 8 5 3
12 4 5 8 7 1 2 10 6 3 13 11 9 14
5 11 13 8 12 3 2 4 1 10 9 14 6 7
4 12 1 13 11 3 7 14 2 5 6 8 10 9
4 2 7 6 14 8 13 1 5 12 3 9 11 10
11 14 3 10 9 5 6 12 1 7 8 2 13 4
5 14 2 3 13 7 9 6 8 1 4 11 10 12
13 3 10 4 2 6 12 7 5 11 1 8 14 9
7 9 2 3 14 8 10 12 11 6 13 5 1 4
9 11 1 3 6 14 8 12 4 10 2 7 5 13
3 14 12 10 5 8 7 2 13 1 9 4 6 11
4 8 13 12 10 11 2 5 1 9 3 14 6 7
4 11 8 7 6 10 12 2 9 1 13 3 5 14
9 11 1 14 12 10 2 4 8 7 13 6 3 5
12 8 14 1 6 11 5 7 13 9 3 2 10 4
3 8 6 9 12 7 5 2 14 10 13 11 4 1
13 12 10 5 6 7 2 8 14 11 1 9 4 3
6 13 5 3 2 11 14 12 7 8 1 4 9 10
2 7 3 8 6 9 12 10 14 11 13 4 1 5
10 1 6 4 2 3 12 14 5 13 11 9 7 8
2 12 4 13 8 6 3 14 1 5 10 11 7 9
10 3 14 12 5 9 11 13 8 2 4 1 7 6
4 12 14 3 8 13 1 6 9 11 10 5 2 7
10 6 2 4 7 11 8 13 9 1 14 5 3 12
11 2 7 1 4 14 12 6 8 10 9 13 5 3
6 13 7 14 1 8 2 3 12 10 5 4 11 9
13 11 1 6 14 8 4 7 2 5 10 12 9 3
6 10 9 3 8 4 13 11 5 2 12 14 7 1
6 5 11 9 4 12 2 1 7 14 3 13 10 8
10 5 7 13 4 8 3 11 1 9 14 2 12 6
9 5 8 2 13 3 12 7 6 10 11 14 1 4
12 9 4 6 1 8 5 11 7 14 2 13 3 10
13 10 14 6 9 11 7 5 1 4 2 12 8 3
3 9 1 12 7 11 10 2 5 13 8 14 6 4
2 10 12 1 4 5 8 6 3 9 14 13 11 7
9 4 6 1 5 12 3 8 10 7 11 14 13 2
9 4 7 1 5 6 13 12 14 11 8 3 10 2
11 12 14 8 10 13 3 1 7 4 2 6 5 9
6 7 4 8 12 3 14 1 11 10 9 13 5 2
8 10 11 13 14 6 7 2 3 1 9 5 12 4
10 11 9 3 6 2 5 8 4 1 13 14 12 7
12 13 8 10 4 2 9 6 1 11 3 14 5 7
10 7 4 12 6 9 8 3 5 14 2 11 13 1

2
X>&y_T$e
)$9Z
1 2
1 2
1 2
2 1
1 2
1 2
1 2
1 2
1 2
1 2
1 2
1 2

11
u+>\WS\!VK
GC
/
5T!jkF6
=xAR7n
uN8Ih6YI|
^0F6'Arf=
Nl=AR
0t
2h,"
j3R
4 6 8 5 1 11 9 7 2 3 10
9 7 8 2 5 10 6 3 4 1 11
5 9 10 2 1 7 11 3 8 4 6
11 8 6 3 1 5 9 10 7 4 2

16
`/%>
)]
sh:*=e~o
~":w8
cSr
 _
2ssTB
iVnE!tn&
4U5EC)0L6{
B(|\g9~R
`xqA/=er3&
'8$s
A)
.Z)l{ijx
gHdAjW9l$w
%J|Y
4 15 10 11 9 13 7 2 3 8 12 6 14 1 5 16
16 15 14 2 8 3 6 13 9 7 1 12 11 5 4 10
5 3 9 7 13 6 12 2 11 15 4 16 8 1 10 14
15 14 10 6 7 1 5 16 11 8 12 3 4 2 13 9
15 5 11 6 2 14 3 9 13 10 7 8 16 4 1 12
14 8 4 12 7 15 11 13 2 16 6 3 10 5 9 1
4 13 2 12 7 15 11 6 5 9 8 1 14 10 16 3
4 15 13 16 2 5 12 14 7 9 8 6 10 11 1 3
16 13 2 14 4 1 6 3 7 12 9 11 5 15 8 10
1 3 5 6 10 7 15 2 12 14 11 4 8 13 9 16
7 13 6 11 12 4 2 8 10 14 3 16 9 1 15 5
2 11 16 4 9 10 5 14 12 8 1 3 15 13 6 7
3 10 16 6 4 1 8 11 14 7 13 2 15 5 12 9
6 14 11 16 8 5 10 1 3 9 4 12 7 2 13 15
6 2 9 16 3 1 15 14 8 13 10 5 4 11 7 12
1 5 7 4 9 10 2 16 3 6 15 14 11 12 13 8
9 15 4 5 10 1 8 12 7 6 11 14 13 2 3 16
5 14 7 16 11 1 8 13 10 6 9 2 15 12 3 4
14 6 10 3 12 16 8 2 7 9 5 4 1 15 13 11
5 11 9 4 6 7 16 10 12 15 2 8 1 14 13 3
13 9 6 4 15 14 8 1 3 16 7 10 5 2 12 11
3 4 13 10 5 7 6 2 1 12 15 11 14 8 16 9
5 6 4 15 8 11 10 12 1 9 7 14 3 2 13 16
6 13 2 10 15 8 16 9 14 11 1 5 3 7 12 4
15 2 7 10 13 11 6 8 5 16 9 14 3 4 12 1
8 2 14 12 16 1 4 15 9 5 11 10 3 13 6 7
9 16 14 7 11 8 10 3 4 12 2 1 5 6 15 13
13 14 2 1 4 12 11 10 8 7 9 16 3 6 15 5
7 13 16 1 6 3 8 11 15 9 2 5 14 12 4 10
6 7 15 5 4 10 12 8 16 9 14 3 2 13 11 1
2 14 10 12 7 11 6 9 3 13 4 16 8 1 5 15
2 15 16 8 4 1 7 3 6 9 14 10 13 5 12 11
13 14 9 16 11 3 2 5 1 4 12 8 7 10 6 15
14 15 2 11 16 9 10 4 5 6 12 3 8 1 13 7
14 4 2 6 13 10 15 12 11 3 7 8 16 1 9 5
16 10 5 3 12 2 4 15 8 9 11 7 14 6 13 1
14 15 5 3 13 16 4 1 11 12 2 7 8 10 9 6
6 7 3 8 2 1 11 13 12 10 16 5 9 15 14 4
12 8 1 2 3 15 10 7 14 11 9 5 13 6 16 4
8 16 6 12 9 3 7 13 15 4 5 2 10 1 11 14
13 3 1 15 12 10 4 2 14 16 11 7 9 5 6 8

7
bYaV_ojb
+P<rF=
^zgY>
Y*`
}F44{Q
_mxp\8[
!EKvu"
6 1 3 4 5 2 7
4 1 3 7 2 6 5
6 1 4 7 3 2 5
4 5 1 7 6 3 2
2 5 1 3 6 7 4
4 6 3 2 5 1 7
1 3 5 4 6 7 2
2 3 1 7 4 6 5
2 1 4 5 6 3 7

3
PH
R~'
Jfs4,P0B
2 3 1
3 1 2
2 3 1
1 3 2
1 3 2
3 1 2
1 2 3
1 3 2
3 1 2
2 1 3
1 2 3
3 1 2
1 3 2
3 1 2
2 3 1
1 3 2
2 1 3
1 2 3
1 2 3
2 3 1
1 3 2
1 2 3
3 2 1
1 2 3
2 3 1
3 1 2
3 1 2
3 1 2
3 2 1
1 2 3
2 3 1
3 1 2
1 2 3
1 3 2
3 1 2
1 2 3
3 1 2
3 1 2
1 3 2
2 3 1
1 3 2
3 1 2
2 1 3
3 1 2
1 3 2
1 2 3
3 1 2
3 1 2
1 3 2

16
w
pg
'7gr6{a$M
\B5m5
rlxGt
4gR
|4KKBj
(~VDbV
BI
tBi&dm@i$
ujT*
us.)o}
Jrg*y
L
z
QEB&6():PI
7 10 9 16 11 15 1 6 8 3 13 2 12 14 5 4
4 15 9 3 13 11 5 1 7 12 10 6 2 8 16 14
10 4 15 6 13 7 5 2 16 9 3 11 14 1 8 12
4 13 7 15 2 5 8 11 14 6 3 12 1 9 10 16
12 3 1 10 11 4 2 15 9 13 5 16 14 7 6 8
8 15 4 16 12 14 3 11 5 13 6 2 1 9 10 7
16 5 8 12 14 13 6 1 4 3 15 10 11 9 2 7
13 12 11 9 14 8 1 16 5 7 4 15 10 3 2 6
11 3 14 7 4 12 8 15 16 9 13 5 10 2 6 1
16 13 15 9 14 1 3 8 11 12 2 6 5 10 7 4
16 11 10 15 12 7 8 5 1 6 14 2 13 3 4 9
15 8 9 5 14 3 2 12 11 1 13 4 10 16 7 6
10 7 9 12 13 5 2 11 4 3 14 15 16 6 1 8
9 1 7 13 16 2 12 14 15 5 3 10 11 4 6 8
14 16 2 6 8 3 12 9 10 15 7 5 11 4 1 13
7 9 13 1 15 10 3 16 5 4 11 6 12 2 8 14
3 16 15 1 8 10 11 5 9 2 7 12 6 13 14 4
1 9 4 15 6 3 10 11 13 5 7 12 14 2 8 16
5 7 14 8 11 15 9 1 13 10 6 4 16 2 3 12
15 6 7 16 9 10 5 13 3 8 1 2 11 14 4 12

6
wZ~Z
wgYh86
(.vP,Vl^r
_Hiq;
K=5@aE>?q
Q"*h"hjGiT
1 4 6 3 2 5
5 1 6 3 4 2
6 3 2 1 4 5
3 2 4 5 6 1
6 5 3 1 4 2
3 4 2 6 5 1
4 5 3 1 6 2
3 6 1 4 2 5
3 1 4 5 2 6
3 2 1 4 6 5
1 6 2 5 3 4
2 5 1 4 6 3
3 2 5 1 4 6
5 2 3 4 6 1
1 2 4 6 3 5
1 6 5 2 3 4
3 2 4 5 6 1
6 2 4 1 3 5
2 5 1 3 4 6
4 6 2 5 1 3
2 5 6 4 3 1
5 3 4 1 6 2
3 2 5 6 4 1
1 6 3 2 5 4
6 5 2 3 1 4
5 4 2 3 1 6
4 1 5 2 3 6
2 3 6 5 1 4
2 1 4 5 3 6
5 2 3 4 6 1
3 1 2 4 5 6
1 2 6 5 4 3
1 4 5 3 2 6
2 1 6 3 5 4
5 3 1 6 4 2
2 6 4 3 1 5
2 6 5 4 3 1
4 6 2 3 5 1
6 2 4 5 3 1
2 4 5 3 1 6
6 1 5 4 3 2
2 5 6 4 1 3
4 6 2 3 1 5
3 1 6 2 5 4
1 2 5 3 4 6

14
b
r$|F)
'i_
Jg!$p1!uP4
v^.1j[cSm
L-ep812k
\s
5Kmb
cZq
rqZCdf0gG
jTIrL
.
 
[t.
7 10 14 13 3 5 11 2 12 9 4 1 6 8
11 4 5 9 8 7 14 3 13 2 12 6 1 10
11 3 7 14 10 13 2 5 6 9 1 12 4 8
10 3 7 9 2 8 1 11 4 5 14 6 13 12
12 14 4 5 2 3 11 1 10 8 7 6 9 13
7 14 1 13 3 5 9 4 6 8 12 11 10 2
12 5 10 11 2 6 13 4 14 8 7 9 1 3
2 10 3 13 14 5 4 7 12 8 11 9 1 6
4 7 3 13 8 1 6 12 10 14 2 9 5 11
11 5 12 9 10 1 4 2 7 14 13 6 8 3
12 11 7 6 8 10 2 1 9 4 14 13 3 5
10 12 8 2 4 11 14 1 6 9 13 7 5 3
12 2 6 1 8 4 7 14 11 3 5 10 13 9
12 10 13 11 14 5 1 6 3 4 2 8 7 9
12 3 6 9 8 2 5 4 14 11 13 7 1 10
10 4 12 3 13 7 14 8 5 9 11 2 1 6
8 7 2 3 11 12 6 13 5 1 14 9 10 4
2 7 11 13 9 3 6 1 8 12 14 4 5 10
6 4 8 13 11 5 12 2 10 7 9 1 14 3
6 2 4 10 1 7 14 8 9 12 5 13 11 3
8 4 7 5 6 9 1 10 14 12 2 3 13 11
6 2 3 13 4 7 1 9 8 5 10 11 12 14
14 5 10 2 7 3 13 11 4 8 9 12 1 6
1 6 13 7 4 12 3 9 11 8 10 2 14 5
14 2 11 9 1 4 3 10 13 7 12 6 5 8
13 10 14 6 1 12 5 8 3 9 2 7 4 11
10 3 11 7 1 13 2 14 12 4 6 5 9 8
7 9 10 4 12 14 8 5 1 2 11 3 13 6
7 6 9 14 11 10 2 1 5 3 4 13 8 12
5 4 2 6 3 7 12 8 10 9 11 13 14 1
1 10 6 14 7 8 5 4 9 12 13 11 3 2
5 4 10 3 1 2 11 13 12 8 9 7 6 14
8 9 4 13 5 10 12 6 2 11 14 1 3 7
4 11 10 2 7 5 1 13 9 6 14 8 12 3
1 4 3 10 5 12 11 14 2 6 9 8 13 7
12 7 9 14 13 10 5 4 6 3 11 2 1 8
3 4 9 1 10 5 2 8 12 11 14 7 6 13
7 11 9 12 1 8 6 10 13 2 4 14 5 3

16
xP,Z
x,6
iW1DcBy
FG1|WT~ayu
V:h~.4v\\e
c&
^?>~bp&S
CTZt
$5|"M
bhq_J+c
@x
?Ogx]Z
yd
Ma
3qs$P
%O*<.?MxZ
9 3 8 1 13 7 12 4 11 5 15 6 16 2 14 10
13 12 14 7 9 15 16 4 1 6 3 11 5 2 10 8
16 8 1 3 5 9 7 6 12 14 11 10 4 13 15 2
10 11 14 15 9 6 13 3 8 1 7 2 4 12 5 16
3 13 4 2 16 5 11 7 15 6 9 10 12 1 8 14
2 8 14 5 12 16 9 15 7 4 3 6 13 10 1 11
8 14 10 5 9 12 11 2 3 4 1 13 15 7 6 16
1 9 7 10 2 3 4 13 15 11 5 16 12 6 14 8
6 10 11 2 15 4 9 5 1 8 12 7 3 16 13 14
2 16 7 15 4 12 3 11 14 8 13 10 1 5 6 9
3 16 15 1 14 10 4 9 13 5 7 2 6 12 8 11
11 15 5 7 8 12 14 1 6 13 10 4 3 16 2 9
16 9 6 10 15 4 3 13 7 5 1 11 2 14 8 12
3 13 8 4 10 14 6 16 7 9 12 1 5 11 15 2
3 7 14 16 4 11 5 1 10 13 8 2 15 6 9 12
15 3 13 2 12 10 1 14 16 8 11 7 9 6 4 5
7 3 8 13 10 9 6 4 1 16 5 15 2 11 14 12
13 14 5 10 9 12 15 11 1 16 4 6 8 3 2 7
3 9 4 8 11 14 16 5 6 15 1 7 12 2 10 13
11 16 15 9 1 5 4 7 12 8 10 3 14 13 2 6
8 7 1 11 4 2 9 14 6 13 12 3 15 10 16 5
14 7 12 13 15 1 8 11 3 6 16 4 9 2 10 5
1 11 2 16 4 5 12 13 3 14 7 8 9 10 6 15

3
oAp
AB,
t_=@
2 1 3
2 1 3
2 1 3
3 2 1
1 2 3
1 2 3
1 3 2
1 2 3
3 1 2

16
 :SZZ
[do.:&UZ{a
^FC6vo
uJT$DRV
!zb2@7Yb"
XOE)IX_Y<q
2auplv
TJ!t
c^`7Y
.Oo@k$"X
o2KS|t
Z=2e%AQtS
eOEBAY[z/
Q,G0\QAvoW
y%XpP~z2.h
S3JrPm
3 12 6 15 13 9 10 11 2 14 8 1 5 7 16 4
9 12 10 16 3 6 15 4 14 11 5 2 1 13 7 8
3 2 5 16 6 11 10 7 12 14 1 8 15 4 13 9
1 10 11 14 6 8 3 12 4 2 9 5 13 7 15 16
9 7 5 2 11 16 4 1 10 13 14 8 15 3 12 6
12 4 1 13 10 5 16 7 14 11 15 6 2 9 3 8
11 5 10 2 4 13 3 6 9 1 8 15 14 7 16 12
13 11 6 3 10 5 8 14 7 12 16 15 9 2 4 1
1 10 15 6 16 9 14 2 4 13 12 7 5 11 8 3
12 13 9 2 6 16 1 14 10 15 8 3 7 4 11 5
15 7 1 16 13 10 9 3 12 11 6 4 5 8 14 2
16 14 10 8 9 7 15 2 5 1 3 11 12 4 13 6
14 13 7 8 15 16 5 3 10 4 1 11 9 2 12 6
14 3 11 8 10 1 4 13 5 15 16 9 7 2 12 6
2 14 5 4 7 6 16 13 12 9 1 15 10 8 11 3
5 6 7 8 1 15 10 16 14 13 2 4 3 11 9 12
12 1 13 14 3 11 10 9 2 15 4 16 5 7 6 8
6 10 8 3 16 9 12 15 5 1 11 14 13 2 7 4
7 6 2 12 16 15 1 13 10 11 9 8 14 5 4 3
10 11 12 7 2 15 5 8 16 6 3 14 9 4 1 13
13 4 1 8 10 9 16 2 11 6 5 7 3 15 14 12
10 7 12 2 16 5 6 15 14 4 1 13 8 3 9 11

16
?f(i`h3_G
q&[*x6lH.
\D*k
4,@svC&
@,g*HPH=u
b,XLL
^)5
n8zS^v
~$POoz
Y!lhoT
bXgVL
HT[/o%
dwBE@GFHSr
Py`ro'\E&c
LOO
;M-
7 9 16 14 2 12 5 10 8 4 1 3 13 15 6 11
13 1 14 11 16 6 5 10 12 15 8 2 4 9 3 7
6 10 9 12 11 15 2 4 8 5 14 13 7 16 3 1
13 11 6 7 12 8 14 3 5 15 2 9 16 1 4 10
1 7 2 15 11 8 6 4 10 14 16 9 5 12 13 3
7 4 15 12 2 10 8 5 14 6 1 3 11 13 9 16
8 12 6 3 9 15 11 7 13 14 2 4 1 5 10 16
10 1 13 16 14 12 8 7 11 5 6 4 9 15 3 2
13 5 14 10 4 7 16 9 2 3 6 15 12 11 1 8
14 12 2 6 3 16 9 13 1 7 11 10 5 4 8 15
4 14 7 13 8 12 9 5 6 15 16 1 3 10 2 11
16 1 3 10 5 11 7 2 13 14 9 4 12 6 15 8
15 7 1 13 14 12 11 10 4 5 9 6 16 2 3 8
6 1 13 10 15 7 8 3 5 16 11 12 2 14 9 4
7 8 3 14 10 2 16 4 15 12 11 6 13 1 5 9
9 5 16 12 8 14 1 13 6 10 3 15 2 4 11 7
4 6 14 5 7 1 13 11 9 12 8 15 2 3 10 16
7 3 6 1 8 5 10 16 2 13 11 4 14 15 12 9
11 8 2 15 4 7 6 1 13 10 5 16 14 12 9 3
7 9 13 16 5 3 10 11 2 12 8 1 4 15 14 6
7 10 16 15 13 8 11 2 5 14 1 3 12 4 6 9
16 10 15 6 5 9 8 2 14 4 7 1 3 12 11 13
15 1 3 5 12 9 8 4 6 10 13 16 7 2 14 11
5 3 2 13 16 10 12 14 7 6 8 4 1 15 11 9
16 2 3 5 14 11 15 4 10 13 9 8 12 1 6 7
2 10 4 7 14 8 6 15 5 9 16 1 12 13 11 3
14 5 1 11 13 4 3 6 16 10 9 15 7 12 2 8
3 12 11 7 9 5 16 2 1 13 15 6 8 14 10 4
13 6 4 7 14 10 11 1 16 2 3 8 9 5 12 15
15 4 5 6 7 14 12 16 8 9 13 11 2 1 10 3
13 15 3 16 7 8 9 6 12 5 14 11 1 2 4 10
2 3 5 12 7 4 8 15 9 14 6 1 16 13 11 10
14 6 9 11 3 12 4 10 13 1 15 5 8 16 2 7
12 2 3 8 7 10 6 5 11 14 1 13 15 9 4 16
16 1 4 7 14 3 9 8 6 15 5 13 2 10 12 11
5 15 4 6 3 10 12 16 13 1 7 2 8 14 11 9
12 16 4 7 1 14 2 6 15 9 13 11 5 10 8 3
1 16 4 10 2 7 13 3 15 11 6 8 12 9 5 14
11 4 12 2 15 10 3 9 5 14 8 7 16 13 6 1
3 9 5 6 14 13 16 15 7 10 1 11 8 12 4 2

14
y
c1:PS{`G/-
,UY;Q";1
&@E]r
mb
^,
igN
Xr^
ns\m`HWS/
-8'
_
=ld!:s
%-d["Doi2
l, 6xyTvI
4 13 14 10 9 11 6 8 1 3 12 7 5 2
5 14 8 1 13 4 3 9 11 6 7 2 12 10
12 10 3 4 8 5 13 9 7 6 1 14 2 11
8 13 10 14 11 5 4 6 1 2 3 9 7 12
14 7 2 9 1 10 12 5 4 8 11 3 13 6
11 9 5 2 12 13 3 10 8 7 4 14 6 1
4 9 10 3 5 12 13 2 8 1 6 14 11 7
2 6 1 7 14 4 3 8 10 9 12 13 5 11
6 5 4 11 9 13 8 14 2 7 12 1 3 10
5 8 1 7 2 4 3 13 9 11 6 10 14 12
1 7 14 11 2 3 6 9 8 4 12 5 10 13
7 6 11 14 2 9 8 10 12 5 13 4 3 1
5 1 2 12 4 10 9 13 14 3 11 7 8 6
1 8 4 11 12 9 2 7 14 10 5 13 6 3
11 13 12 3 9 8 7 1 6 5 10 14 4 2
10 7 4 9 12 5 11 2 6 8 3 13 1 14
1 4 11 12 13 6 8 14 7 2 9 10 5 3
1 10 9 3 14 4 2 6 11 12 8 7 5 13
13 11 6 8 2 4 10 5 12 1 7 3 14 9
11 14 3 12 6 1 2 4 5 7 10 8 13 9
8 4 13 1 5 3 11 6 14 9 7 2 12 10
7 8 2 9 14 1 12 4 3 6 13 11 10 5
4 12 5 8 1 7 14 3 11 13 6 2 9 10
7 5 6 8 11 10 13 1 4 9 14 3 2 12
1 2 6 9 10 11 5 7 13 12 4 14 3 8
12 11 3 10 5 13 1 9 7 8 14 6 2 4
6 2 1 10 14 4 7 12 5 8 3 11 13 9
12 8 1 3 5 4 7 14 11 9 10 2 13 6
2 9 14 3 12 8 11 7 4 6 5 1 13 10
9 7 11 4 12 3 5 10 8 2 1 14 13 6
5 12 6 10 3 14 1 4 2 9 11 7 13 8
10 1 11 13 7 12 9 3 5 2 4 14 8 6
11 7 12 14 9 8 5 13 10 6 4 3 1 2
4 9 2 8 5 11 1 13 3 14 7 10 6 12

8
.
jb^"3
8Q1v2&(6BM
jmCv/JAM
*ZsBgNs^m8
ZMs[JJ~BRe
H
L
1 5 7 2 6 3 4 8
7 2 8 4 3 6 1 5
2 7 3 5 8 4 1 6
5 6 4 1 7 3 8 2
2 4 7 6 3 5 8 1

9
h-%
MB
I[
1C@n35a|F
$\X92:FeL
@-4qEPdU
I7y)K};V
3BJD9/pK2
|V
5 1 9 7 2 3 4 8 6
9 3 7 4 5 2 1 8 6
6 5 7 3 1 4 8 9 2
2 1 3 4 7 6 5 9 8
5 3 8 1 6 9 2 4 7
4 2 8 6 3 1 7 9 5
3 6 4 5 1 8 9 7 2
1 9 5 6 3 7 2 8 4
5 6 7 8 2 9 4 3 1
6 5 4 2 8 7 3 1 9
6 9 7 4 1 5 2 3 8
3 2 4 1 7 9 8 5 6
1 4 9 5 3 2 6 7 8
8 1 5 2 4 7 3 9 6
4 6 2 7 8 5 9 1 3
1 3 6 5 7 2 8 9 4
3 4 2 6 8 9 5 1 7
9 4 5 7 2 1 3 8 6

17
M^p\!
/w
7'x[<U7
O^u^ly1ZD
f_sKpqx4Y
e(%
!+Mr
_HS8P
P9`
Q'\
t9zvC~9lDD
SNX&hq~
)Gg
oPpjS{yoNa
-HmW35c;
`dvzy[
N}
12 7 3 10 1 16 6 5 8 15 13 17 2 11 4 9 14
16 15 14 3 2 1 13 5 11 12 6 8 7 9 4 10 17
15 17 6 2 11 16 9 7 3 5 14 1 4 13 10 8 12
2 16 7 15 5 17 8 3 12 14 13 9 11 6 4 1 10
8 16 5 14 3 1 2 4 10 15 17 9 7 6 11 13 12
10 11 14 8 6 1 9 2 4 3 13 5 17 12 15 7 16
17 1 8 6 5 4 10 3 7 9 11 12 13 2 16 14 15
7 10 1 12 16 8 2 9 6 13 3 11 15 17 14 4 5
9 5 12 4 2 15 3 11 6 1 13 14 17 7 16 8 10
14 3 6 15 9 4 1 12 10 13 5 17 2 7 11 16 8
12 4 16 10 3 7 11 6 14 9 2 13 8 17 1 15 5
13 3 6 1 14 11 8 17 15 10 7 4 16 12 2 5 9
4 17 15 16 2 11 5 10 8 3 9 1 7 13 12 14 6
10 8 4 5 14 15 17 7 12 11 13 1 16 3 9 2 6
17 12 8 16 9 7 10 11 6 14 3 13 1 15 5 4 2
8 15 7 14 13 11 6 12 1 9 2 17 3 16 4 5 10
3 17 8 13 15 6 14 7 4 16 1 9 10 11 5 12 2

5
o
l}
Zx;k`05*
p
ju}1>l
1 4 5 3 2
2 5 1 3 4
1 2 3 4 5
5 2 1 3 4
1 2 4 5 3
4 1 3 5 2
5 2 1 3 4
1 2 3 5 4
4 3 5 1 2
5 2 3 1 4
3 1 4 2 5
4 3 1 5 2
1 5 3 4 2
4 2 5 1 3
3 1 2 5 4
1 2 5 4 3
3 1 5 2 4
1 4 2 5 3
4 2 5 3 1
2 5 1 3 4
1 3 4 5 2
5 4 2 1 3
1 4 2 3 5
3 2 4 1 5
5 1 4 2 3
4 2 1 5 3
2 4 3 5 1
4 2 5 1 3
3 4 2 5 1
4 1 3 2 5
5 4 3 1 2
2 1 5 3 4
4 5 3 1 2
1 4 2 5 3
2 3 1 5 4
5 3 4 1 2
1 2 3 4 5
4 5 3 2 1
4 1 5 3 2
1 5 2 4 3
4 2 3 1 5
2 3 5 1 4
3 2 5 1 4
2 3 4 5 1

9
`dI67p'&
;
aV
UO
X
ew/
6:r
Cbyt
O=Of:Jx+
1 9 7 8 3 4 2 6 5
2 4 5 9 1 6 8 3 7
1 3 9 2 7 8 5 4 6
8 9 6 4 5 2 3 1 7
2 5 3 1 6 7 8 4 9
1 2 6 7 9 5 4 3 8
7 4 9 2 6 5 3 8 1
5 1 6 9 7 8 4 3 2
6 8 7 9 4 5 3 2 1
3 6 2 5 8 4 7 9 1
7 6 5 2 1 4 3 9 8
1 8 9 6 5 3 7 2 4
1 2 7 9 4 5 8 3 6
4 2 1 3 7 8 6 5 9
7 8 9 4 1 6 5 2 3
1 7 9 3 5 2 6 8 4
5 1 8 3 2 7 6 4 9
5 7 3 4 9 6 1 2 8
3 8 1 2 7 9 4 5 6
2 8 9 7 3 1 4 5 6
4 2 7 3 5 9 6 1 8
6 4 1 7 3 8 9 2 5
9 5 3 8 4 2 6 7 1
3 1 7 5 9 8 6 2 4
7 9 6 2 3 5 4 8 1
5 8 1 9 2 3 7 6 4
7 9 5 4 3 8 2 1 6
9 5 6 3 1 4 7 2 8
1 3 4 5 6 7 2 8 9
5 6 7 4 3 2 9 8 1
4 6 2 7 3 9 1 8 5
9 8 5 2 6 3 1 7 4
5 3 8 6 1 7 9 2 4
3 6 7 2 1 8 5 9 4
4 2 3 5 8 7 6 1 9
3 2 7 5 1 4 8 6 9

18
t
),j~g8=
67?S1
vm2ECfS
yM13R,
aM%(a5
c6c?_ YW-f
zNLMT
M
q4MVjH
?%:ow',0
dl
JS:QO
,yL)O
zm\vr;
C
lG1"bu
ERn^C
15 3 5 2 13 8 18 14 17 4 9 1 6 7 11 12 16 10
4 10 11 5 18 3 8 1 14 16 2 12 6 17 9 15 7 13
11 16 12 6 4 13 15 18 7 1 3 17 14 5 2 8 9 10
9 11 16 17 15 18 10 1 2 3 13 6 14 12 5 8 4 7
17 4 3 6 10 13 9 11 12 15 14 8 1 16 2 5 18 7
18 4 2 1 16 3 14 13 6 9 10 8 15 11 17 7 5 12
1 2 16 8 4 11 13 5 12 9 17 10 18 6 3 14 7 15
11 6 10 12 3 9 17 16 15 8 7 1 14 5 13 2 4 18
17 15 9 3 7 2 11 14 18 10 5 12 4 6 1 16 8 13
1 6 7 17 12 5 10 8 4 13 11 14 9 16 2 3 18 15
14 12 1 3 2 6 15 13 4 8 11 5 18 16 7 17 10 9

16
I
md^f_-?
+\2;$%I
@Y] }sK.
i
S|
PW
**Qc*S
L8r.@&;r^
i\\@
y3OmvRGVU!
Z.tx. _\
VU<b~P.pm%
Q5'xw;?T}
IcQM.
Qx~
13 7 12 3 4 16 11 8 1 10 15 5 9 2 14 6
15 8 6 11 4 12 5 3 10 14 13 2 9 7 16 1
15 16 12 7 13 3 10 11 5 1 4 2 8 6 9 14
15 4 11 12 7 6 3 1 2 13 16 14 10 8 5 9
5 7 15 4 1 11 12 16 13 14 10 6 2 3 8 9
6 15 2 3 8 16 5 1 12 10 4 14 9 13 11 7

15
w'Imxi3
M
I,{x(8%
l7}(R%2?q
i%3DdK6BP)
|o
iZPE
Dp
~ZS~F1>;
&m7t
7/D'zsLLZ
 @M=;P1LLD
'+W~-m
Ng
D.4+%=
9 8 2 5 4 10 7 12 1 15 3 13 6 14 11
2 8 1 4 13 9 6 11 5 14 7 12 10 15 3
6 9 5 2 10 13 3 8 1 14 4 11 12 15 7
1 4 15 11 6 12 13 2 5 3 7 9 14 8 10
15 8 12 6 7 9 1 11 13 14 4 10 3 2 5
15 2 14 13 4 8 10 11 9 1 7 12 5 6 3
11 1 7 9 14 12 8 3 4 5 10 13 6 2 15
5 7 13 9 11 14 8 2 1 10 4 3 12 6 15
8 7 12 15 4 6 9 5 11 3 13 1 10 2 14
13 5 14 12 2 4 11 8 7 9 6 3 1 10 15
15 4 8 14 6 10 2 1 9 3 7 13 12 11 5
3 10 5 2 11 9 13 6 15 8 1 4 7 12 14
15 4 10 9 5 14 3 1 11 13 7 2 12 6 8

19
@{T
lSh.k
;*mPL
W
2{3x(Bl?
@k?+6
rAZ{p
o
JJ}[s
hRKs+S
]( &so1i
D3]Z
HHUB
x$~$WI1"G
,=uM7\
!^'/\9<R
03)
+nMnt
e**
18 7 2 13 9 3 10 12 6 1 15 11 8 17 16 5 14 19 4
18 8 5 10 13 17 4 9 12 1 7 3 2 15 16 11 19 6 14
5 19 11 14 13 2 17 4 1 9 12 10 15 18 3 6 8 16 7
5 11 14 10 15 3 2 6 17 18 1 16 9 8 12 4 7 13 19
7 9 16 14 4 17 8 6 3 19 18 15 11 2 1 13 5 12 10
4 16 7 6 11 18 3 10 2 17 1 5 12 8 19 13 14 15 9
10 4 9 2 14 8 17 13 3 7 18 5 12 15 16 1 6 19 11
1 17 11 6 14 18 2 13 9 3 8 16 10 4 12 15 7 19 5
7 18 6 8 17 4 1 3 15 10 2 5 19 16 13 14 9 11 12
15 3 7 1 17 10 6 11 18 16 13 5 8 12 2 9 14 4 19
12 13 15 5 7 4 11 18 10 14 1 3 16 2 8 9 6 19 17
19 12 6 13 7 3 9 15 16 14 2 11 4 10 5 1 17 18 8
15 5 12 8 13 16 4 6 9 2 1 10 19 11 17 18 3 14 7
18 6 19 15 13 1 10 17 8 3 11 16 14 7 5 2 12 9 4
17 6 16 1 7 15 18 9 3 19 8 12 14 10 13 5 4 2 11
11 13 7 15 10 6 19 3 1 5 16 9 4 17 18 8 14 12 2
4 5 15 9 19 10 12 18 17 6 1 13 8 14 16 11 2 3 7
11 5 12 15 13 10 2 16 18 7 17 14 6 8 19 4 3 1 9
16 9 6 10 2 8 13 4 15 3 19 17 7 14 1 12 11 5 18
15 17 12 3 6 16 14 13 8 2 1 5 11 7 9 18 19 10 4
17 10 12 6 15 4 14 11 7 1 16 13 3 9 5 8 19 2 18
2 14 17 19 1 18 10 12 7 13 9 4 16 5 11 15 3 8 6
12 17 15 9 8 19 7 6 11 4 16 14 18 1 5 3 13 10 2
19 6 16 10 8 3 12 5 14 11 1 13 18 2 7 9 4 17 15
12 3 2 17 9 18 15 5 1 13 16 4 7 11 8 10 6 19 14
7 15 18 8 1 3 12 11 2 9 16 19 13 5 4 6 10 14 17
5 11 4 12 19 16 1 3 17 9 2 8 14 15 6 10 13 18 7
16 12 2 13 19 7 9 14 6 11 17 8 4 18 3 5 10 15 1
10 6 15 5 17 14 2 3 19 16 8 18 1 13 7 4 11 12 9
19 13 7 6 10 4 5 17 11 9 1 12 2 15 16 8 18 14 3
7 2 13 15 8 14 4 10 12 17 19 9 18 6 11 3 1 16 5
9 14 8 15 19 16 2 10 7 12 5 17 1 4 11 18 13 6 3
16 15 11 8 17 13 6 5 19 4 14 7 12 18 1 9 3 10 2
15 9 13 2 8 19 17 5 14 6 16 12 4 3 10 7 18 11 1
5 16 14 15 9 17 18 1 7 3 13 11 2 8 19 12 10 6 4
8 15 16 2 4 1 9 14 17 3 6 13 5 7 11 18 19 10 12
19 9 15 14 8 7 11 10 5 6 1 17 18 16 12 4 3 13 2
12 1 11 15 7 4 9 14 3 8 17 5 13 18 16 2 6 10 19
2 18 13 11 16 15 19 6 5 9 14 7 17 8 1 4 10 3 12
16 7 14 11 8 2 15 4 17 12 6 1 10 9 19 13 3 5 18
17 1 9 19 2 4 5 3 15 14 7 8 16 12 13 6 11 18 10
1 2 14 17 7 12 5 3 11 10 8 4 13 19 9 16 18 15 6
18 14 15 17 19 3 1 7 2 13 5 16 11 9 12 4 6 10 8
1 9 4 15 3 5 19 17 18 16 7 11 12 2 10 14 6 13 8
10 15 13 11 16 19 14 8 12 4 9 2 18 6 5 17 7 3 1
14 11 10 17 19 6 15 5 13 4 8 2 9 16 1 7 3 12 18
9 11 8 10 2 13 19 6 5 15 7 17 18 3 16 1 14 12 4

1
@Z\
1
1

17
 L>t}pQT^
Z\HdH
%0+jR!
B]vm%q5&
Ui"L/wcglm
%=
Niv$Z2)|
m%,WGs5T 
ZMn
>^y
O`ipun
>]Z
Si:.dS3%{b
~vEYl
r
h
a)\.ee
9 15 5 7 3 13 17 11 12 8 4 1 16 2 10 14 6
7 8 9 1 3 14 5 10 15 13 16 6 11 12 17 2 4
10 4 5 7 17 16 8 11 14 12 2 6 13 15 9 1 3
3 13 14 7 15 9 5 11 6 2 12 17 16 8 10 1 4
5 2 4 3 16 17 12 8 15 13 6 9 14 1 10 11 7
10 11 6 13 8 1 5 2 4 16 14 7 17 3 9 15 12
17 15 13 1 6 16 7 5 12 8 3 4 11 14 9 10 2
2 3 7 5 15 10 1 11 12 16 6 4 13 14 17 8 9
3 17 8 10 6 7 9 13 15 4 5 2 12 14 16 1 11
15 10 14 9 11 13 4 6 16 2 7 5 8 3 17 1 12
11 8 6 7 3 1 15 4 13 12 17 16 9 10 2 14 5
8 11 12 15 17 16 6 1 10 7 3 13 9 5 2 4 14
9 15 7 1 10 3 13 6 2 11 12 8 14 4 17 5 16
1 8 12 13 14 7 16 4 10 6 3 2 11 5 9 17 15
9 2 3 15 5 12 8 7 17 11 14 13 1 16 10 4 6

5
DIeGqEF
2W
/r%L1G
'%7
wHnXA
4 3 5 1 2
3 2 5 1 4
5 1 2 3 4
4 1 2 3 5
2 3 1 5 4
1 3 5 4 2
3 2 1 5 4
1 4 3 5 2
1 4 2 5 3
3 4 1 2 5
5 3 1 2 4
5 1 4 2 3
5 4 3 2 1
5 3 4 1 2
3 2 1 5 4
2 3 5 4 1
5 3 4 1 2
3 5 2 4 1
1 3 5 2 4
4 2 1 3 5
3 5 2 4 1
2 3 1 5 4
3 2 5 4 1
5 3 4 2 1
1 3 2 5 4
2 1 5 4 3
5 4 1 3 2
2 5 4 3 1
5 3 2 1 4
3 5 4 1 2
3 2 5 1 4
5 1 3 4 2
1 2 4 3 5
1 3 5 4 2
2 3 4 5 1
3 4 5 2 1
3 2 4 5 1
1 4 2 5 3
5 2 3 4 1
1 2 3 4 5
1 2 5 4 3
5 2 3 1 4
2 3 1 5 4
2 3 5 1 4
2 4 1 3 5
4 1 2 5 3
4 2 1 5 3
3 4 1 5 2
2 4 3 1 5

3
O
2*f|CNmd?Y
vX 
1 2 3
2 1 3
2 1 3
2 1 3
2 3 1
1 3 2

11
r`}|kttg Y
ppC]s3@QY]
=L>Xm1r
Go`2YXi0m6
A\@~_
_I7U
2danr}:zW
3*2\:~E,
a"dOM
<oZk"sgytz
X:E
8 6 10 1 7 2 5 4 3 11 9
7 3 11 1 5 4 2 10 6 9 8
10 1 3 7 8 6 5 11 2 4 9
6 7 9 8 3 5 1 10 11 4 2
1 11 2 3 5 9 6 4 8 7 10
11 5 3 7 8 2 6 10 4 9 1
6 4 5 7 2 11 1 9 3 8 10
2 8 1 11 10 3 4 5 6 7 9
9 4 10 7 11 3 2 8 6 1 5
6 2 10 7 8 3 1 5 9 4 11
7 3 11 10 6 2 4 1 8 5 9
4 1 11 3 9 10 2 7 6 5 8
2 9 7 10 11 8 5 4 6 3 1
11 10 7 6 4 8 3 1 9 5 2
4 10 8 9 6 7 1 11 5 2 3
9 1 6 11 10 7 4 2 3 8 5
6 7 5 11 3 2 1 4 9 8 10
5 2 11 8 1 9 6 10 3 4 7
11 7 4 6 1 3 9 8 2 5 10
1 3 8 9 4 5 11 2 7 10 6
4 10 6 2 9 7 1 8 3 11 5
3 7 9 8 6 2 4 10 1 11 5
2 3 5 1 10 9 8 6 4 11 7
11 2 3 7 8 6 10 4 9 1 5
9 6 4 7 3 5 11 2 1 8 10
3 9 8 1 10 4 11 6 2 5 7
5 8 10 9 3 1 6 7 4 2 11
10 5 4 8 9 7 2 11 3 6 1
7 4 11 9 2 6 3 1 10 5 8
7 4 11 2 1 3 6 8 10 9 5
4 10 11 5 8 1 9 6 7 2 3
3 5 7 1 6 8 2 10 11 4 9
5 1 10 4 11 2 3 9 8 7 6
9 11 5 4 8 1 3 6 10 7 2
2 5 10 6 1 8 3 9 4 11 7
2 6 10 4 5 11 8 7 9 3 1
11 2 9 10 5 8 3 7 1 4 6
3 11 5 4 7 8 2 1 10 9 6
5 9 11 8 4 3 10 7 2 1 6

18
J
M8A4zn5[
Tf*6={_
x>w;<IK6~
n
A_Uwe}D7
+q%
%wGyhyj
K
55
/\
m=2Lqekn
`!E?
eyZ;exd
AfTFJD
&xD7dR
*fkM,6
5-B52[5dc
13 16 17 1 14 3 6 9 15 5 10 4 7 8 18 12 11 2
7 12 13 17 14 18 1 5 15 10 4 8 3 2 9 11 6 16
3 1 11 5 6 8 18 2 12 7 16 4 17 15 10 14 9 13
4 9 2 5 18 17 1 15 7 6 10 16 11 3 14 13 12 8
3 14 7 4 1 15 17 16 12 11 9 8 6 18 2 13 5 10
8 18 13 10 12 3 4 14 17 1 5 6 11 16 9 7 15 2
9 15 18 3 10 17 1 7 14 4 16 11 8 6 13 12 5 2
15 10 3 8 2 1 17 18 13 11 14 12 7 6 9 16 5 4
2 12 18 6 3 11 4 9 5 10 1 17 13 7 8 16 15 14
5 3 16 12 7 10 18 15 8 14 2 13 6 1 9 17 11 4
10 4 13 14 1 2 9 12 8 7 3 6 17 18 11 15 5 16
12 17 14 1 7 10 2 13 4 6 16 8 5 15 11 18 9 3
18 12 16 8 6 17 5 3 1 9 14 11 13 4 10 15 7 2
18 15 3 12 1 10 4 2 5 9 13 11 17 14 16 8 7 6
2 4 17 12 1 11 7 18 8 3 9 14 5 16 10 6 13 15
11 1 3 18 16 5 13 17 2 10 14 8 15 9 7 12 6 4
17 3 15 8 11 6 12 2 13 18 14 5 1 7 10 16 4 9
3 8 12 5 15 14 2 16 4 7 6 11 17 1 18 9 13 10
18 1 13 5 8 15 12 11 16 6 7 4 14 10 17 9 3 2
17 2 10 14 18 11 13 8 15 3 16 5 4 6 12 7 9 1
13 2 5 11 8 15 17 12 16 6 14 9 4 3 18 1 10 7
6 10 1 15 13 14 16 7 8 4 12 3 9 17 11 2 5 18
1 6 5 8 17 3 9 4 11 10 18 13 7 12 16 14 2 15
1 9 12 8 3 5 17 6 18 10 15 2 13 11 14 4 7 16
10 1 18 17 3 4 12 13 8 15 11 14 16 6 7 9 2 5
2 4 10 15 11 7 1 9 5 16 18 3 12 13 14 8 17 6
12 1 13 18 5 16 11 2 14 10 3 9 15 8 17 4 6 7
12 17 10 5 13 1 7 15 14 6 18 8 4 16 9 2 3 11
14 2 17 9 12 16 15 6 10 13 7 4 5 1 18 8 3 11
18 14 1 13 16 15 3 8 11 10 12 6 2 7 9 4 17 5
16 1 17 3 9 6 11 5 8 18 10 13 4 14 12 15 2 7
14 11 6 1 18 13 3 7 10 9 4 17 12 16 5 8 15 2
8 9 18 17 2 7 5 6 3 13 11 12 10 4 15 16 1 14
7 11 14 18 12 6 8 3 17 9 10 5 2 15 16 4 1 13
15 10 12 1 18 5 3 8 14 4 9 7 11 17 16 2 6 13
18 10 3 15 2 14 12 17 6 9 11 1 16 13 5 8 7 4
9 3 7 2 18 17 8 13 14 6 16 11 12 1 5 10 4 15
2 6 3 18 5 13 14 11 12 15 10 16 8 1 7 4 9 17
18 6 10 4 13 2 17 9 14 8 12 7 16 5 1 15 3 11
9 11 6 17 12 8 5 15 10 18 1 7 13 3 4 2 16 14
4 17 16 6 13 9 15 3 10 12 1 11 7 2 18 5 8 14
12 5 16 4 6 15 3 13 2 10 1 7 14 11 8 18 9 17
8 1 4 17 13 2 16 9 14 5 3 15 11 7 6 12 10 18
13 16 6 10 1 3 7 14 18 9 11 4 12 2 5 17 15 8
18 4 5 14 8 11 9 3 2 7 17 13 15 10 12 1 6 16
11 9 17 10 13 15 4 12 5 16 2 1 7 6 18 8 3 14

5
W[-4a9wN='
|/g?4>v'
EO
nxz= I?$U5
'SP/F
4 2 1 3 5
3 2 5 4 1
5 2 4 1 3
1 3 4 5 2
4 3 2 5 1
2 4 3 5 1
4 3 2 5 1
3 1 5 4 2
1 3 4 5 2
4 2 5 3 1
1 2 3 5 4
5 3 4 1 2
3 2 1 4 5
3 5 1 4 2
2 1 3 4 5
4 1 2 5 3
2 5 4 3 1
3 1 4 5 2
3 5 1 2 4
1 2 4 3 5
3 5 1 2 4
5 4 2 1 3
2 4 3 5 1
4 2 3 5 1
2 4 1 3 5
5 2 3 1 4
4 1 3 5 2
2 5 3 4 1
3 4 2 1 5
2 1 3 4 5
1 5 4 3 2
5 2 1 3 4
4 1 2 5 3
1 5 3 4 2
5 3 4 1 2

6
|e[SjW
fF
1
%b6RoA
uB?ayYJ?
82
6 1 4 5 3 2
5 3 2 4 1 6
2 4 6 5 1 3
4 3 5 6 1 2
4 6 2 5 3 1
4 2 6 5 1 3
5 6 4 1 3 2
6 5 1 3 4 2
6 1 5 4 3 2
4 5 1 3 2 6
5 3 6 4 2 1
2 5 3 6 4 1
2 6 5 1 4 3
3 5 4 2 6 1
5 1 2 3 4 6
1 4 5 2 6 3
3 5 2 4 6 1
4 1 5 6 2 3
2 3 6 4 5 1
4 6 5 2 3 1
4 1 5 3 2 6
1 6 2 4 5 3
2 1 5 4 3 6
4 5 2 1 6 3
1 5 4 2 6 3
6 5 1 2 3 4
5 4 3 2 1 6
5 4 6 1 2 3
1 2 4 6 3 5
3 6 5 1 4 2
1 3 2 4 6 5
4 1 6 5 3 2

4
oo5:
E^)
3j0 <Aop
d
1 4 2 3
2 1 4 3
3 2 4 1
2 3 4 1
2 1 3 4
1 4 3 2
3 2 1 4
2 4 3 1
3 2 4 1
4 2 1 3
1 4 3 2
3 4 2 1
3 1 2 4
3 4 1 2
2 4 1 3
3 1 4 2
3 1 2 4
1 3 4 2
4 2 1 3
3 4 1 2
3 2 4 1
4 1 3 2
3 4 2 1
3 2 4 1
4 1 3 2
2 3 4 1
2 1 4 3
2 3 4 1
3 4 1 2
2 4 1 3
1 4 3 2
4 1 2 3
2 1 4 3
1 3 2 4
1 3 4 2
3 4 1 2
3 4 1 2
3 2 4 1

8
ZrI6pdt=;
s^?2G*2f9f
oE<C4
F2+|r9?
*R81D^tAo
F<\1
A|d1eM[b
sRWZ[n|
6 2 8 1 4 5 3 7
7 4 5 1 6 3 8 2
7 2 6 4 8 5 3 1
2 6 5 7 1 3 8 4
1 7 4 6 2 8 3 5
7 2 6 1 5 3 8 4
3 6 5 8 2 7 1 4
1 6 8 4 3 7 2 5
8 5 1 6 2 4 3 7
8 3 6 7 4 5 2 1
4 2 5 6 7 1 3 8
6 1 7 5 2 8 3 4
3 7 4 5 2 8 6 1
1 5 8 3 7 4 2 6
8 1 2 6 3 7 5 4
3 8 5 7 4 1 6 2
6 3 7 5 2 4 1 8
4 3 5 8 6 2 1 7
7 6 5 1 4 2 8 3
5 8 4 3 6 2 7 1
1 8 5 6 7 2 4 3
1 6 8 7 3 5 2 4
3 8 7 5 6 4 1 2
5 2 1 4 7 8 6 3
5 4 6 3 7 1 8 2
1 4 6 3 5 2 7 8
4 3 7 2 8 6 1 5
3 8 5 6 7 1 4 2
2 1 7 8 4 3 6 5
3 6 1 5 2 4 7 8
5 2 8 4 7 6 1 3
6 4 3 2 8 7 5 1
2 8 3 4 5 1 7 6
4 7 2 3 8 6 5 1
5 7 2 8 3 4 1 6
3 2 7 1 8 6 4 5
6 1 5 7 3 8 2 4
7 2 6 5 3 4 8 1

20
XQ,lZ/w
Dw[X+
%Kb`b<V%+C
hh;
p{!cUsm
f[>-C
bRQ$C>
R,a6y`k^
HI(enTS=}6
kSI}rN
{5s
L\
nq0&R
zhO-LM(~} 
8FS(
8ZGbSo\)M
N
,
c9Hp-r
)yz):AXB
19 6 9 20 4 16 7 8 18 15 10 5 13 3 1 2 14 17 12 11
5 9 1 15 4 16 2 7 11 10 19 3 20 17 8 6 18 13 12 14
7 13 15 5 6 19 20 1 14 18 12 2 16 8 9 4 10 17 3 11
7 1 13 5 15 18 19 12 14 4 17 11 9 6 8 16 20 10 3 2

2
.n?\i
*(VYx\
2 1
2 1
2 1
2 1

20
&@)PF?
\0c+
e9MT""@NB
ZG9Bc4T
Q4I
R%{09DsS\H
9u5soCXst
jcHm{3o2]
xy,[
p8h"@=6n
a_B
2e
sg+9
;
e9&C
dz)\^MQ
|_@J^PS
ZxQS>@/cr9
Blj
'2K
4 13 6 12 3 1 16 14 5 20 19 17 9 2 10 15 11 18 7 8
3 20 8 11 6 4 1 18 2 9 10 7 5 14 13 12 15 19 17 16
7 4 1 11 13 15 5 20 8 14 16 12 18 6 3 9 19 10 2 17
13 6 18 19 3 17 15 2 10 8 4 14 16 1 9 11 12 7 5 20
5 9 4 2 16 12 13 15 3 18 8 11 7 1 10 20 6 14 19 17
18 12 16 2 9 1 8 10 13 6 14 3 17 20 11 5 19 15 7 4
10 19 1 13 15 20 4 7 2 9 16 6 8 11 3 12 17 18 5 14

13
,z]:Bk@'
)P$@
);Od~-I?mx
:7%=GEgI
d5,ui
}fy{(OSBq
%"eI]
H0!U<Z'!
J+YB{2
9pV
U4zY8
j}^KVz63Ez
)4@|[
7 9 4 11 12 3 5 8 1 10 13 6 2
9 2 3 4 1 13 6 8 10 5 12 11 7
1 13 2 8 3 4 6 9 5 11 10 12 7
11 9 8 5 10 3 7 13 2 6 4 1 12
1 6 5 9 10 8 2 11 12 4 13 7 3
8 9 11 10 1 3 7 12 6 4 13 5 2
5 1 7 13 4 10 12 6 2 11 9 3 8
2 7 6 8 12 5 3 13 1 9 4 10 11
5 11 3 13 10 8 12 7 6 4 1 2 9
3 8 1 13 6 12 2 10 9 5 7 4 11
10 13 8 3 5 2 9 7 6 4 12 1 11
5 4 8 10 1 7 9 3 11 12 6 13 2
7 2 8 13 9 11 6 10 4 5 1 3 12
10 13 7 9 12 4 11 1 6 3 2 5 8
2 3 6 10 11 12 13 7 5 9 8 1 4
8 3 2 4 7 12 1 11 6 5 9 13 10
11 3 12 8 9 7 5 2 4 6 1 10 13
6 9 1 2 3 12 5 10 13 8 11 7 4
8 10 12 2 9 1 11 5 3 7 6 13 4
7 8 1 10 12 3 6 5 4 9 2 13 11
8 2 4 3 7 11 12 5 1 10 9 13 6
13 9 1 3 2 10 7 8 12 11 6 5 4
5 1 11 10 12 13 6 4 7 9 2 8 3
8 4 12 3 2 5 1 10 13 11 6 7 9
3 7 5 6 1 4 2 12 11 13 10 9 8
5 9 2 1 7 8 6 11 3 10 13 4 12
1 10 2 3 4 12 6 11 7 9 8 13 5
3 8 1 7 13 4 2 11 5 9 10 12 6
11 13 4 7 6 8 12 5 2 9 10 3 1
5 2 7 1 3 6 4 10 8 11 12 9 13
8 7 4 6 13 12 2 11 5 1 9 10 3
5 3 4 9 6 7 1 10 11 8 2 13 12
11 3 5 4 1 8 10 6 9 12 7 13 2
7 1 12 9 6 13 5 10 3 4 8 2 11
7 2 10 8 12 13 1 3 6 11 9 4 5
3 4 2 6 5 1 7 10 12 8 13 11 9
11 10 4 8 13 7 2 3 6 5 1 12 9
12 5 6 4 11 1 13 9 7 8 10 3 2
11 2 7 10 8 3 1 9 4 6 5 13 12
2 13 11 4 5 7 1 10 8 9 6 3 12
11 6 13 1 10 4 2 12 7 5 9 3 8
7 8 3 13 4 2 5 10 11 6 1 9 12
4 3 8 11 12 7 5 9 1 13 6 10 2
1 2 3 11 9 10 5 6 7 13 8 4 12
7 6 5 2 9 8 13 3 12 11 1 10 4
1 11 10 12 2 5 13 3 9 7 4 8 6
13 2 4 8 1 9 12 11 7 5 10 3 6

15
G~~%s
_s4Is
>Q
B
L->rqe$q
p%l
q_(
v
O_|cLj@m
VatT,Q[?OJ
P
-1+bJ8
HY(5
B>8kA)
Cbw6n`}
7 2 5 6 14 4 1 11 15 10 3 8 13 9 12
1 11 6 12 5 7 13 15 4 8 3 2 10 9 14
14 2 11 13 4 9 6 5 7 12 1 8 15 10 3
10 12 15 11 6 4 7 2 3 8 5 13 9 14 1
3 8 9 4 15 7 5 6 1 13 12 11 14 10 2
8 5 1 10 4 7 13 11 12 3 9 15 6 14 2
1 4 7 3 14 13 6 12 11 15 5 10 2 8 9
5 2 4 11 12 10 8 1 9 15 14 3 6 7 13
9 10 11 1 12 15 13 4 3 8 2 5 14 7 6
6 8 12 2 3 15 10 7 1 4 14 11 5 13 9
13 14 15 2 9 6 11 10 1 3 5 4 8 7 12
7 1 5 14 3 10 15 6 8 9 2 11 13 4 12
8 11 10 4 15 3 13 7 9 14 12 1 5 6 2
15 10 8 9 11 4 6 13 5 1 2 3 14 12 7
7 3 5 11 9 6 12 10 14 8 15 2 1 4 13
13 3 15 10 8 4 7 11 1 5 6 12 14 9 2
12 2 15 4 5 3 7 14 10 8 6 13 11 9 1
15 10 7 9 11 5 13 4 3 2 8 12 6 14 1
7 3 8 10 2 1 6 4 11 5 9 15 13 12 14
7 4 15 8 12 13 11 5 2 14 6 1 3 9 10
1 12 8 5 6 3 4 7 13 2 10 11 14 9 15
1 12 2 6 7 11 8 5 4 13 14 15 9 3 10
3 5 11 14 7 15 2 10 9 6 12 1 8 13 4
2 9 4 3 6 10 8 11 15 13 7 12 1 5 14
9 5 1 11 15 12 8 3 14 7 10 4 2 13 6
5 15 8 3 10 1 13 9 7 2 14 11 12 6 4
12 3 6 13 14 9 11 7 1 4 10 15 2 5 8
13 7 14 8 6 3 1 2 4 9 15 5 10 11 12
5 4 7 14 9 2 15 11 1 12 10 6 13 8 3
10 15 4 5 12 2 8 11 3 14 9 1 6 7 13
6 2 11 14 13 3 5 10 7 4 9 1 8 12 15
15 5 6 3 14 13 9 10 7 1 12 4 11 2 8
5 2 4 11 1 9 12 14 15 6 13 3 10 7 8
2 15 6 12 11 1 10 4 3 7 14 13 5 8 9
14 1 7 13 6 15 8 10 11 12 9 3 5 2 4
15 3 9 8 6 7 11 12 4 2 14 10 5 1 13
5 13 9 12 14 7 11 1 2 6 4 15 10 3 8
12 2 14 6 7 3 13 5 1 11 10 8 4 15 9
7 5 1 13 8 3 14 6 9 11 10 4 12 2 15
12 8 5 4 3 7 2 1 6 9 10 14 15 11 13
2 4 3 7 9 6 13 15 1 11 8 12 14 10 5

6
Sv=-TR|z=q
&1}{zqnsS
V'y)Qe{?
ejQ
cG%dU
L)Zml.~
1 2 5 3 6 4
1 5 6 2 4 3
1 3 6 4 5 2
5 4 2 1 6 3
1 6 3 4 5 2
1 4 6 3 2 5
2 5 1 3 6 4
5 2 6 1 3 4
3 4 2 6 5 1
1 2 6 4 5 3
6 3 1 5 4 2
1 4 3 5 2 6
5 6 3 1 2 4
2 5 4 1 6 3
1 4 3 6 5 2
5 6 4 3 1 2
6 5 2 3 1 4
5 1 3 6 4 2
6 2 4 5 3 1
2 5 4 6 3 1
3 1 2 4 5 6
1 4 5 3 2 6
3 1 2 5 4 6
4 2 1 5 6 3
4 2 6 3 1 5
4 3 1 6 2 5
3 4 2 1 6 5
1 3 2 6 4 5
2 5 3 4 1 6
2 4 5 1 6 3
1 4 6 5 2 3
5 4 3 1 2 6
5 3 2 6 4 1
5 6 1 2 3 4
2 5 6 1 3 4
6 5 2 4 3 1
4 2 5 6 1 3
6 1 4 5 2 3
4 6 3 1 2 5
5 6 4 1 3 2
5 2 1 6 4 3

12
>m@}>
Pg}T>Z]F&
0:|/
o`/o<|jeVo
v!
lP!NzD\ij
-WKIMg6?f
AM
7E@Ai@j%
/<8\0"
0`&
h\r~
3 10 7 1 11 4 9 5 8 12 2 6
12 1 6 4 7 2 5 9 11 3 8 10

7
:,jwwtLmfR
_-6
)9V^$
-6
*bN0a2HB
ywm<
-DFaWmbL'Z
6 2 1 5 4 7 3
2 1 3 6 7 5 4
1 6 2 4 3 5 7
5 1 7 6 3 4 2
1 6 4 5 2 7 3
5 4 7 2 6 1 3
5 6 3 2 4 1 7
5 6 7 2 1 3 4
6 1 4 5 2 3 7
2 3 7 1 4 6 5
7 6 4 2 3 5 1

8
EF
xe!'Uy
u0OD3R^Az;
vo>B7;/yz
<+
)m(YSez
NTI
;xau
7 2 3 8 5 1 6 4
5 2 8 1 3 4 6 7
7 1 6 4 2 8 5 3
7 2 1 5 8 4 6 3
1 8 5 4 3 6 2 7
8 2 5 6 7 4 1 3
1 5 3 6 8 4 7 2
6 1 7 2 5 4 8 3
7 2 5 8 1 4 6 3
1 2 6 8 5 4 3 7
5 2 3 6 7 1 4 8
3 1 6 8 4 2 7 5
2 6 3 8 1 7 4 5

1
*\J""s9W^<
1
1
1
1
1
1
1
1
1
1
1
1
1
1
1
1
1
1
1
1
1
1
1
1
1
1
1
1
1
1
1
1
1
1
1
1
1
1
1
1
1
1
1

20
LhY|x`k7Yt
z=;
CZ
c
olH\[p
tRMw+=W9;
I
`;'5
)P
Y;Ehp
r
H%0(
,JNhq^
4*V0-t<
f!fy'Ms/?
hD3,m|
?MF[nKrU
DM=na[i@M6
Np{%pp;38h
YFE!t
13 3 11 9 8 17 10 19 2 18 4 14 15 16 7 6 12 1 5 20
15 19 8 20 2 14 5 18 1 17 6 4 11 10 16 13 7 3 12 9
10 9 11 19 6 14 20 15 18 17 7 5 8 3 13 2 1 4 12 16
15 8 2 5 6 16 10 4 14 19 11 3 9 20 13 18 1 17 7 12
14 7 4 20 18 9 6 13 11 8 2 5 10 12 16 3 1 19 15 17
12 13 2 16 14 10 6 15 17 9 8 7 19 3 5 18 20 1 4 11
9 13 14 17 16 5 20 11 8 15 18 12 10 6 19 3 2 7 4 1
18 3 4 19 10 1 12 15 6 8 11 2 9 16 14 7 17 5 20 13
17 16 3 15 18 12 2 9 11 20 7 8 10 1 13 19 14 4 5 6
10 18 8 19 16 13 3 11 1 15 9 12 5 2 20 14 6 7 17 4
14 16 9 17 10 6 20 8 1 15 5 2 3 13 19 7 18 11 4 12
11 9 3 7 1 10 5 16 19 14 6 18 20 15 13 4 8 17 12 2
4 1 14 2 15 10 6 3 20 5 18 11 8 16 19 12 17 9 13 7
15 11 13 2 8 3 6 12 7 4 10 14 17 20 1 5 16 18 9 19
2 7 19 6 14 3 4 20 18 1 11 12 16 9 17 10 8 15 5 13
16 10 12 5 13 2 8 6 14 19 20 11 9 1 3 4 17 15 7 18

15
oa(}^'78
W[G$s*
f 9v 6T_
0j
d/CZL
)JaSWAH
q<fZ _
F-~-Jvx?8
dfrYnbFg
$nn67Oc.
`
*_"r
m$HZgl_ 
zQV
'5
9 15 12 10 3 4 1 14 5 8 13 2 6 11 7
10 6 5 9 11 15 2 8 7 4 12 14 1 3 13
10 4 5 7 3 14 15 9 12 2 11 6 1 8 13
4 10 14 9 6 12 8 1 11 5 2 3 7 13 15
13 8 14 3 7 6 9 12 11 5 2 1 4 15 10
12 9 3 14 5 6 7 1 15 13 2 11 10 8 4
15 3 2 5 13 9 4 7 10 12 6 14 11 8 1
13 14 6 11 4 3 2 5 15 12 10 1 9 8 7
11 10 15 9 6 14 2 5 12 7 1 8 4 13 3
1 3 4 15 10 9 11 6 12 13 5 2 14 8 7
11 1 9 3 4 12 13 2 15 10 7 14 5 6 8
13 1 7 2 12 11 6 9 3 10 5 8 15 4 14
12 15 6 2 7 1 3 10 11 13 8 5 14 9 4
4 14 12 7 6 11 1 15 13 10 8 2 3 9 5
6 10 1 3 4 13 2 12 15 14 11 9 7 8 5
7 6 1 9 12 4 2 15 10 3 13 14 5 8 11
8 13 15 11 14 12 2 9 10 7 3 1 5 4 6
12 13 4 14 5 2 15 1 7 11 9 8 6 10 3
15 5 6 2 10 4 3 13 1 12 14 11 8 7 9
1 9 7 4 12 8 14 2 13 11 10 3 5 15 6
7 14 1 10 13 12 8 4 2 9 3 5 11 6 15
3 4 5 6 11 12 1 13 2 8 9 7 15 10 14
9 5 7 6 14 3 8 12 11 15 4 1 2 10 13
5 2 13 8 3 6 10 14 4 1 15 9 12 7 11

11
{8"k3<kT]
2 8
nD:6tG
d6
mIc.)s8s
d9qi
x)Bs~gm;
NDS;}/dgh
7(/DW^
`km
![`~$V!
6 1 5 7 4 2 10 3 9 8 11
6 4 1 9 11 2 3 5 7 10 8
10 4 2 11 5 9 8 6 3 1 7
5 11 8 6 9 2 3 4 1 10 7
7 6 4 8 3 11 10 2 9 1 5
3 11 4 10 6 5 7 1 9 8 2
5 3 7 10 2 4 9 11 1 6 8
8 11 9 6 7 10 1 4 2 3 5
7 11 5 8 1 2 6 10 9 3 4
4 1 6 9 7 5 8 2 10 3 11
7 11 10 4 1 9 3 5 2 6 8
7 5 9 2 4 6 10 1 8 11 3
3 2 8 7 9 6 11 4 1 5 10
4 2 3 6 5 10 7 11 9 1 8
6 2 9 11 8 3 10 7 5 4 1
8 5 9 7 4 3 2 6 11 1 10
10 11 4 7 8 9 6 3 5 1 2
1 5 10 8 11 3 6 4 7 9 2
1 5 7 9 11 6 3 10 8 4 2
2 11 8 3 6 9 10 7 5 1 4
9 11 7 4 5 2 8 10 6 3 1
2 9 11 1 3 4 8 6 5 7 10

4
oG>_W{UouX
^[bW
0jB{=%V
QLE\\p
1 3 4 2
1 3 4 2
4 2 1 3
2 4 3 1
4 1 3 2
3 1 4 2
3 4 1 2
4 3 2 1
1 2 4 3
2 3 1 4
3 4 1 2
4 3 2 1
4 2 1 3
4 2 3 1
2 4 3 1
4 1 2 3
4 3 1 2
2 4 3 1
4 1 3 2
3 1 2 4
3 4 2 1
3 2 1 4
1 4 2 3
2 3 1 4

10
-o
h(_
I-2P8
;]AF$MiCW
$h"
;Ox;u;^`0
%E}92
4d{V
zev%}@lI{
'vhcJI
8 3 5 1 2 10 4 9 6 7
5 1 6 9 10 2 8 4 7 3
1 7 4 3 2 5 6 10 9 8
7 8 9 5 2 6 3 10 4 1
7 1 4 8 10 6 2 5 9 3

16
)1wpYj
@G??2"=J
ii
ImCFKSCi`
D
8P"48j:hg
4
e"al
]>VHNsO1
][!q6
L
/
.:EM.U(!<d
7WJ>rr
H+/Fm{\^
!S]p
16 1 5 3 15 4 2 9 14 10 12 11 6 7 8 13
12 14 7 2 10 3 9 11 16 13 4 5 8 6 1 15
10 3 13 15 4 7 5 16 14 11 8 1 9 6 12 2
13 1 6 3 11 7 16 10 14 2 8 9 5 15 4 12
14 16 4 13 2 15 12 3 5 9 6 10 8 7 1 11
3 7 9 4 12 1 15 8 14 2 10 16 6 5 13 11
11 10 3 2 9 7 8 5 1 16 15 12 13 14 6 4
16 2 15 1 6 14 3 10 8 7 9 11 12 5 4 13
4 13 15 14 6 8 16 11 3 5 2 9 10 1 12 7
8 6 2 3 7 10 13 16 12 1 14 15 9 11 5 4

18
[=;R8B"8
;IPa'
W<goysY
%<2
\
LFb:Kj}2j
t7.SH/$T!
 F-|h
M!OU!}@4HX
iD36s?_(T
3 SeH/%
&`q/SVr
C=)@
k%5Fk[&c
rO~q[=9`V
Pzg
so
BwxS1
6 12 18 16 9 11 15 10 17 5 8 7 4 1 2 14 3 13
18 10 7 3 16 5 13 17 4 9 14 1 6 12 11 15 8 2
5 14 1 16 11 12 17 13 8 9 6 2 18 15 3 4 7 10
10 7 13 12 3 9 4 15 18 14 5 17 6 16 8 2 1 11
18 8 9 16 7 10 13 11 3 6 15 4 2 5 17 14 1 12

5
$b,M
+VA xP
sO
c$s(W;D
E[9*O,pC[\
4 1 5 2 3
4 1 3 5 2
1 3 2 4 5
3 5 2 1 4
1 2 5 4 3
3 5 1 4 2
1 2 3 4 5

4
2EQNN
H@&*
{C
;|@j,A]c
4 1 2 3
3 4 2 1
4 3 2 1
4 3 1 2
3 2 1 4
1 3 2 4
4 1 2 3
2 3 4 1
2 1 4 3
2 4 3 1
2 3 4 1
1 3 4 2
4 3 2 1
3 2 1 4
1 3 2 4
3 1 2 4
1 3 4 2
4 3 1 2
1 3 2 4
4 1 3 2

19
@vHpYJN.'
cW/oDq^Un
sV}sqt
Pimo?
]$}MQ9l
-v|/u]GB
@W8MQ
7S%
Q7/}
r-D<Dyf
Cxb
h4(Kj(/k[
8H
e[[,Yi
|
bsp<!f
v(pH;V
b[7u@ozaZQ
+j4
2 13 5 4 9 6 1 10 3 7 15 8 18 16 19 11 12 17 14
6 1 3 14 17 12 18 8 13 19 4 2 16 15 11 9 7 5 10
19 6 3 12 10 5 13 15 11 7 18 1 17 4 9 14 16 8 2
17 5 18 2 10 16 1 12 7 3 4 15 8 14 11 9 6 19 13
16 18 1 4 15 12 7 19 6 9 2 10 3 11 17 5 8 13 14
11 4 9 19 3 5 6 18 17 13 7 12 8 2 10 15 1 16 14
16 19 13 2 4 6 5 9 18 8 1 10 15 17 14 11 3 7 12
10 3 19 12 16 6 5 2 11 4 9 1 17 15 13 7 14 8 18
12 3 10 9 7 2 8 1 4 6 19 17 14 13 5 18 11 16 15

7
Q7o:%Tw
E54_twT8=;
\+bn|[5~
L8aMX}
+vYYH@
Rg5|['e
~0&d
4 5 6 7 3 2 1
6 3 4 7 1 2 5
1 2 4 3 7 5 6
5 1 4 2 7 3 6
1 5 2 6 7 3 4
3 6 7 2 5 4 1
5 4 1 6 3 7 2
6 2 1 7 4 5 3
3 7 1 6 5 4 2
4 1 2 7 5 3 6
1 7 5 2 3 4 6

11
$]!
e
=ST!
-hXdcy:nRC
aLLYHW6u:p
PPG-
d92[
p
G,I
~C|IxW9Q?
-(ajh*eD
10 9 2 8 5 6 3 4 7 11 1
2 11 7 4 10 8 1 3 6 9 5
3 6 7 2 4 10 5 11 8 1 9
6 11 4 3 5 10 9 2 7 8 1
2 10 1 6 5 9 4 11 7 8 3
1 10 2 5 8 11 3 6 9 4 7
5 7 8 4 6 1 2 11 3 9 10
1 4 11 10 8 2 6 3 9 5 7
11 9 10 4 7 3 2 5 6 8 1
4 6 10 5 8 7 9 3 11 2 1
2 8 6 4 5 11 7 1 9 10 3
4 10 8 1 6 11 3 7 2 5 9
11 6 10 3 5 4 7 9 8 2 1
10 9 4 7 8 3 5 1 6 11 2
11 9 6 2 7 3 5 10 8 4 1
9 7 11 6 10 1 3 4 8 5 2
6 7 4 8 3 9 1 2 11 10 5
7 4 3 2 11 8 5 1 10 9 6
6 8 9 2 1 5 10 7 11 4 3
7 8 2 3 10 5 11 1 6 4 9
5 7 3 10 1 8 9 6 4 2 11
1 6 10 8 7 2 5 3 9 11 4
4 2 7 8 5 9 3 11 1 10 6
7 4 2 5 6 10 9 8 3 1 11
5 11 1 9 3 4 10 2 8 6 7
10 5 2 9 7 8 3 11 1 4 6
6 5 2 9 8 11 4 7 1 3 10
9 5 11 3 8 4 10 2 1 7 6
